Sample,Groups,Dimethylglycine,Pyruvic acid,L-Lactic acid,Glycolic acid,Caproic acid,2-Ketobutyric acid,L-Alanine,Hydroxylamine,2-Hydroxybutyric acid,3-Hydroxybutyric acid,(S)-2-hydroxy-3-methylbutyric Acid,L-Alpha-aminobutyric acid,3-Hydroxyisovaleric acid,L-Valine,"L-(13C5,15N)-Valine",Urea,Acetoacetic acid,Benzoic acid,Caprylic acid,Ethanolamine,L-Leucine,Acetylglycine,L-Isoleucine,Nicotinic acid,Maleic acid,L-Proline,Phenylacetic acid,Succinic acid,Glycine,Methylsuccinic acid,Glyceric acid,Fumaric acid,Uracil,Pelargonic acid,L-Serine,L-Threonine,Mesaconic acid,Glutaric acid,Thymine,Beta-Alanine,L-Homoserine,Capric acid,3-Aminoisobutanoic acid,Citramalic acid,Malic acid,Niacinamide,Adipic acid,N-Acetylserine,L-Aspartic acid,L-Methionine,4-Hydroxyproline,Cytosine,Thiodiacetic acid,Gamma-Aminobutyric acid,"1,2,3-Trihydroxybenzene",L-Cysteine,L-2-Hydroxyglutaric acid,3-Hydroxyglutaric acid,Oxoglutaric acid,Phenylpyruvic acid,Phenyllactic acid,Phosphoenolpyruvic acid,3-Hydroxymethylglutaric acid,3-Aminoglutaric acid,Hypotaurine,Triethanolamine,A-Ketoglutaric acid oxime,L-Glutamic acid,L-Phenylalanine,p-Hydroxyphenylacetic acid,Dodecanoic acid,N-Acetyl-L-aspartic acid,L-Arabinose,p-Aminobenzoic acid,Homocysteine,L-Asparagine,D-Ribose,Taurine,3-Sulfinoalanine,Ribonolactone,D-Xylitol,Levoglucosan,Beta-Glycerophosphoric acid,D-Arabitol,Ribitol,2-Deoxyglucose,Orotic acid,Putrescine,Dihydroxyacetone phosphate,Glycerol 3-phosphate,L-Glutamine,2-Phosphoglyceric acid,Azelaic acid,3-Phosphoglyceric acid,2-Aminoheptanedioic acid,Hypoxanthine,Citric acid,Ornithine,L-Lysine,D-Mannose,Tyramine,L-Histidine,Glucosamine,D-Galactose,D-Glucose,N-Acetylglutamine,N6-Acetyl-L-lysine,1-Hexadecanol,L-Tyrosine,Mannitol,Sorbitol,D-13C6-Sorbitol,Galactitol,N-Acetylornithine,Urocanic acid,Palmitoleic acid,Gluconic acid,Palmitic acid,p-Octopamine,Glucaric acid,Citrulline,D-Ribose 5-phosphate,Myo-inositol,N-Acetylmannosamine,D-Ribulose 5-phosphate,Heptadecanoic acid,Guanine,Pyridoxamine,Octadecanol,Norepinephrine,Linoleic acid,Oleic acid,Elaidic acid,L-Cystathionine,Stearic acid,L-Tryptophan,Cysteamine,Tryptamine,Spermidine,L-Cystine,Fructose 1-phosphate,Mannose 6-phosphate,Glucose 6-phosphate,Arachidonic acid,Oleamide,Thymidine,Uridine,Adenosine,Sucrose,Glycerol 1-octadecanoate,Guanosine,Trehalose,D-Maltose,Cholesterol
50542_2947M-1,Media,1243759,848,1621786,257452,142574,6418,2947635,1669231,2666,8582,1706,154850,26656,1308960,13672439,679600,4086,241741,62029,30197,1321495,0,76564,17107,165582,30362470,36575,2584777,203230,3844,11987,1289870,347474,156582,267121,37581,2935,2035,7637,733316,5384,68913,0,2755,32398,773112,0,140011,28064861,92065,3230440,5268,8942,51032,0,2137995,594647,14724,892,12448,58136,18809,1597,8979,77985,10851,0,26283146,2905906,825,41461,100527,4675,2956,34084,1329684,198883,0,17891,0,3374,50944,42917,0,7801,9896,47221,43791,223188,463567,747075,7490,3775,99732,618656,943,225844,10247629,560310,11501,12230,109544,2386,12926,58670,133735,61011,13064,776062,131215,149319,13299360,150226,221304,9115,2622,38694,1467206,9758,16829,4909,410850,11884,53612,27266,22463,283784,4682,18387,246050,5463,63163,67302,14590,1051086,79895,877,60976,32309,21622,12423,16465,6253,0,39326,0,271321,534420,113998,4787627,9073,73968,0,895
50543_2947M-2,Media,1668122,2093,1766504,307420,173297,2535,4819701,1492814,5548,7267,323,226081,24691,1408855,11131519,1309617,3246,232065,57959,33237,2306158,1710,238322,17078,95727,31843165,44672,1861618,241301,4275,31937,1661060,312058,146841,463674,50183,6854,3999,15546,788845,5657,42545,0,4904,34129,576862,6182,214124,28740644,84461,2915557,8735,16076,66602,0,1884875,431279,6279,44251,6790,57389,19387,2844,13069,78667,8653,0,24351888,2598254,0,36608,87348,4677,4974,54013,3609117,121175,0,17026,1786,3189,52350,38644,0,17677,19761,4551,57488,238703,455732,337306,6090,5657,109491,610313,0,216137,19591431,1812324,15592,15619,76068,2065,22177,145885,117893,72028,17911,897335,557834,4348032,11666746,4423788,269365,2660,1212,99670,1692592,18340,25384,9581,448406,12783,7213,22028,30328,209360,3947,17592,202886,3262,67538,58199,25670,1126072,65873,3581,27487,49063,84585,13252,25567,12294,0,157160,0,296041,424300,157389,3844504,6490,90591,22338,469
50544_2947M-3,Media,1803203,2061,814780,242194,121146,3391,4069739,2173960,3941,3834,1057,367577,39375,3051881,12041666,199517,3634,236464,53774,24711,5271838,0,525919,9421,136153,34147742,44585,2327295,198744,8821,29555,2571256,339341,130924,488876,70956,4780,2266,9437,584045,10024,63343,0,2385,27257,459051,0,242206,29781386,125308,3691017,9563,16754,57913,0,2725432,771271,18251,36138,5589,48238,28384,5464,15995,86453,7530,0,26834015,3504203,1574,24746,103324,4259,3521,69708,2941118,279098,0,26386,2639,3374,49259,81192,0,10452,15660,115476,31796,479754,1111590,1318637,7197,2305,121842,896971,2021,166354,16309109,884872,13241,21896,65779,3675,17402,83764,188737,97170,15540,1265015,434651,339879,12436197,337996,560437,3834,1093,152860,1289570,9750,32085,9310,420258,12691,55281,26995,24867,257371,506,10877,276212,1622,23356,20773,27931,1128646,157746,553,36177,59829,115314,8411,20726,9398,0,101196,1320,444191,795853,72025,3995647,9841,9730,9400,397
50545_2947M-4,Media,2151343,2570,2281520,460273,203927,2801,8325750,1714786,11956,5407,1777,220943,17054,786649,11966272,582335,4673,228673,51606,21381,1032110,2624,75541,18834,93256,27928202,56343,2457316,780836,9381,38174,1189575,628916,99308,696377,41441,3483,2940,25191,903091,8314,49805,0,1858,17428,644527,2084,250301,30626168,144070,2391125,10144,20037,36559,0,2681563,382236,5481,25463,3281,81190,56963,1635,8419,60700,6417,0,21168368,1498313,1686,32957,67169,3634,4624,44453,4275644,135010,0,32941,0,4000,45863,46020,0,36818,34860,3331,101734,408079,842322,179352,19471,3246,407609,709049,11818,371573,10536749,1397447,10199,11144,173521,897,13877,121784,96078,26919,10462,573584,362094,471479,12574781,459284,178967,2270,1097,40139,1257033,6232,10130,3369,417310,13236,13223,22587,23350,419631,10457,11956,284857,4771,34492,27559,18649,959448,753,0,106295,76774,293836,17452,32652,17307,0,6032,1651,135962,477358,89291,4473383,11777,15777,6233,132
50546_2947M-5,Media,2251520,1484,1796183,342108,211955,7282,5799507,1808425,16189,7179,3769,515914,17174,2898367,11881796,701635,5309,246523,69941,30546,5173987,1296,529837,13407,122262,31544191,53485,2065863,573977,6451,29930,1470656,682725,153903,1149304,89746,3007,4242,21071,788929,9670,21383,0,2075,39890,568599,6062,654239,30263948,143413,4222044,9038,21736,56216,0,7369207,448924,11493,6360,10642,80461,43034,3769,10457,113758,17604,0,26201056,3564343,1746,33988,113305,0,1970,38711,3492482,437845,0,70776,0,4149,47604,56516,0,14346,16646,7355,111367,669502,1145401,1406597,19277,5114,265060,1075226,9373,358726,14079282,410166,40156,20045,164240,6329,37766,88797,6013,26250,9782,951117,654158,184839,13284838,202183,329556,2639,2110,30626,1580529,3776,14895,5047,1203519,24457,112277,69419,21689,378415,10743,8111,353277,1721,30713,28331,22621,1151122,76180,4015,21331,84670,795363,24137,58543,21555,0,60563,0,204224,367896,147540,3032015,7502,32673,7381,93
50547_2947M-6,Media,2098376,1694,2991935,334299,165354,3265,4866860,1692135,10247,8736,1169,366461,18114,1272507,11362882,1324826,4539,236949,54625,27170,1419998,1653,89578,11877,120438,28055693,32094,4429004,406547,9629,21679,1708445,427565,125531,973816,60033,4975,4426,12112,940170,9284,48942,0,1907,30945,689780,6109,424757,32406603,123435,3072474,12715,20748,40470,0,5226182,593214,15472,56219,9308,75939,34191,1384,12484,90917,14737,0,25434500,2670582,2089,44420,93112,4609,1671,45792,4103260,314777,0,61282,562,1320,54893,57795,0,8036,3247,3036,44814,433232,772159,621130,14765,6836,259650,1026994,5470,386250,11305744,756184,0,19639,257638,3985,61508,130549,172040,23158,12678,864458,697698,112780,12705161,116457,288054,5461,2735,47045,1894965,6646,13106,3481,965639,28645,64629,55996,29718,240150,6186,17843,372123,4899,43450,37314,23696,1462025,55013,3649,19456,94840,321404,20450,58454,21857,0,23253,0,149918,404303,157977,5273192,8215,35472,0,151
50549_2947S-2,Sera,8140766,8225,2726199,1030948,235797,5014,25713177,1780023,10783,7206,8396,2643031,20242,23403131,13009340,574621,9686,248786,67394,136780,29353908,2240,4803910,33222,116847,12134132,26840,4508076,318863,5467,29476,3145650,1208744,149050,781239,58045,7031,3864,57503,1494739,23416,53221,22609,9312,59277,2237879,1629,34494,34675081,446875,17148966,15229,23121,116476,0,3200226,3236940,78358,5501,4637,102709,114264,36955,13645,987876,10538,4884,36357600,12457843,2468,32239,143068,2664,3010,345957,4234764,30079,0,82945,6263,3239,87380,185248,0,20174,0,19385,479465,709467,1716505,9863144,25604,4461,400945,408435,4813,393094,38044727,13879601,18834,55158,1712140,8709,24271,1021509,489196,220178,34289,2082804,20213,1268427,12731520,1274625,173375,8598,18532,338496,4901764,23075,38479,37511,546642,178951,23872,30175,58817,339491,9666,8387,92893,190043,504350,422265,160344,2759903,176581,17714,593449,56240,56232,35017,35561,16329,254425,267880,16276,340002,2139772,82989,4567342,29542,55682,0,178440
50550_2947S-3,Sera,6474026,1795,2749835,791596,235590,7859,24141771,1560804,7430,11075,5426,2084131,15477,24201417,13954472,646745,6582,271384,83148,125523,27993663,11603,11304507,26211,86417,24348188,15159,3546249,184859,11294,27442,2822228,526022,213994,779536,52285,3880,3851,15369,1070894,14815,107809,5476,4220,71223,2042379,3967,50796,33174859,595905,8907534,9133,16302,98860,0,6708438,2237219,60278,1725,7347,65485,84229,33066,23007,697229,9905,0,34681583,11938263,0,42408,138854,4853,2989,133244,3762915,58151,0,104655,7362,4180,65265,162815,0,20199,34761,11562,534553,456414,1109245,6708619,29247,5477,465146,399690,2697,426398,27169147,6529967,15308,25439,227724,7794,23557,500166,343554,129728,34113,1832264,22894,17776690,14683625,17305781,153762,9961,17063,186138,3860700,9370,2075,26478,442626,106403,20187,27429,45331,301329,10297,16740,62601,209928,398389,347412,188577,1732941,217861,8443,127805,78129,55664,40941,21706,17458,212924,259620,8099,425590,2447578,157110,3219176,34260,41206,0,165836
50551_2947S-4,Sera,9972758,5504,4923298,1136707,167350,3544,25921203,1664981,25041,6900,24794,925840,12267,17887174,11040991,382515,7724,262730,73467,72838,12217744,2646,694941,58930,128032,14017947,78172,8560539,2421381,9512,71420,3760712,2086194,167215,412864,40720,5042,5539,224161,2925137,37015,44383,6275,2800,7939,1932518,0,28379,35630915,328737,8717776,24010,31668,158529,0,1496615,2495183,65980,62069,6193,255673,272276,34923,12889,709926,7464,1309,31418704,6327820,3341,32472,52857,1680,3570,163061,2537048,41570,0,58946,898,6298,63596,103579,2097,26026,3013,24959,872419,1033393,2712832,4987145,52737,6423,1071008,680939,14183,783234,19908201,15202409,12141,761054,141871,10136,0,1139081,432983,114432,34322,2164862,180642,5356839,11161721,5372153,43824,9906,19852,115447,3523911,25508,39846,6780,328934,59633,12318,16684,50753,1081766,4377,11973,38266,138368,391629,325225,118391,1677533,200093,9373,431573,50431,19863,15876,52293,16588,231096,277141,11624,295664,2192605,86837,3255641,48607,6105,5277,169943
50552_2947S-5,Sera,8043371,6171,2739164,1121963,145563,3232,23447110,1942018,12280,4996,12357,981131,6974,19963718,12416612,192170,8612,229175,60417,61686,20022948,2615,1635483,27077,110707,6236519,38595,4978353,1958420,6216,45652,2779267,809232,126667,403264,41663,3663,3247,106707,940792,21868,42662,11450,2529,10123,1631455,0,32817,32659482,289395,8689588,9118,26603,69016,1096,1665450,2397326,59471,135053,4199,133331,185034,25501,11979,614060,3398,0,33008370,7427163,2542,29047,92538,0,1992,100581,733375,27111,0,77415,5852,3338,48535,132240,0,14374,1980,15863,408275,866562,2066423,6840552,39992,901,697528,443542,2680,470277,14563571,8126374,9981,69524,64544,4670,6504,609902,295228,114689,28385,2324881,36302,40100,11974199,187,59529,7492,18324,87675,3359152,12551,23423,8051,444811,82858,17018,25565,41130,429418,0,6845,24773,118710,358851,313293,96827,1867522,147010,2445,402657,59502,24831,26917,41215,18471,213614,3377,410,230548,1502170,30468,3433219,29993,23803,0,125317
50553_2947S-6,Sera,10275509,2125,6003098,1233747,197977,6317,19792949,1274795,19414,8192,14099,761044,21046,13923364,11861886,693370,8509,257060,74578,52022,7947788,1457,342389,27412,157411,1179326,26447,13779483,410123,5063,31604,3709023,1180439,161566,328527,43357,2952,4618,41487,1124749,28750,76943,2742,2453,15497,1814720,13103,19179,35023972,282295,11035142,18156,29085,10993,2266,1219120,2560350,66309,170132,8665,212701,193445,39340,1036,589692,12632,0,31868975,6041032,2146,38960,97225,0,6798,82540,329764,35261,0,101988,9052,2277,48765,93882,0,13948,0,3078,676904,384454,791110,5579173,45206,6324,864626,734736,15293,797447,12526265,10035275,9623,84639,81271,7023,16997,760720,384031,46792,31376,1861511,69419,52725,12323378,54013,11660,6225,20803,84206,4418665,12944,16529,1688,505138,36451,16413,26901,52615,670961,2742,14746,33792,137020,376106,334845,90412,2013842,137006,737,587080,44135,6026,30958,47698,20603,266197,54561,5307,237009,951675,91195,193369,25924,30299,9962,150300
50630_2947S-1,Sera,6532663,127641,2774678,950318,110040,3409,28069104,1427014,10137,8000,7703,2192284,8933,16765776,12717760,820312,7960,246827,43449,72036,8483462,3088,686743,68576,88032,26521064,89151,3624557,567150,4781,31104,1781753,1190411,131502,924447,71044,4826,3647,100316,2992414,18994,29759,18223,4098,17799,2283073,9054,133960,35859396,241402,13795735,12980,22232,99804,1626,447425,2230615,55270,137850,4227,103242,162372,53070,31473,828248,11076,1697,34555963,9586715,4444,34443,176481,3743,3397,30293,493335,45200,3169611,42056,1055,3375,45434,137036,3844,6895,10894,6654,778180,815673,2176105,6365124,43946,6681,658531,483351,7453,511180,26627402,7410579,11187,22249,372182,6016,12632,62574,251635,67792,35637,2625668,35118,136348,14452154,132396,86984,22313,26952,84507,4680871,5193,56270,8792,310959,118232,16973,5799,48961,588893,4287,9610,20723,152075,537644,102769,141675,2463728,212587,10637,229080,130276,0,27682,40429,14308,190680,81267,12999,175339,2625990,140955,3719161,33233,43026,5935,127647
