Sample,Groups,Dimethylglycine,Pyruvic acid,L-Lactic acid,Glycolic acid,Caproic acid,2-Ketobutyric acid,L-Alanine,Hydroxylamine,2-Hydroxybutyric acid,3-Hydroxybutyric acid,(S)-2-hydroxy-3-methylbutyric Acid,L-Alpha-aminobutyric acid,3-Hydroxyisovaleric acid,L-Valine,"L-(13C5,15N)-Valine",Urea,Acetoacetic acid,Benzoic acid,Caprylic acid,Ethanolamine,L-Leucine,Acetylglycine,L-Isoleucine,Nicotinic acid,Maleic acid,L-Proline,Phenylacetic acid,Succinic acid,Glycine,Methylsuccinic acid,Glyceric acid,Fumaric acid,Uracil,Pelargonic acid,L-Serine,L-Threonine,Mesaconic acid,Glutaric acid,Thymine,Beta-Alanine,L-Homoserine,Capric acid,3-Aminoisobutanoic acid,Citramalic acid,Malic acid,Niacinamide,Adipic acid,N-Acetylserine,L-Aspartic acid,L-Methionine,4-Hydroxyproline,Cytosine,Thiodiacetic acid,Gamma-Aminobutyric acid,"1,2,3-Trihydroxybenzene",L-Cysteine,L-2-Hydroxyglutaric acid,3-Hydroxyglutaric acid,Oxoglutaric acid,Phenylpyruvic acid,Phenyllactic acid,Phosphoenolpyruvic acid,3-Hydroxymethylglutaric acid,3-Aminoglutaric acid,Hypotaurine,Triethanolamine,A-Ketoglutaric acid oxime,L-Glutamic acid,L-Phenylalanine,p-Hydroxyphenylacetic acid,Dodecanoic acid,N-Acetyl-L-aspartic acid,L-Arabinose,p-Aminobenzoic acid,Homocysteine,L-Asparagine,D-Ribose,Taurine,3-Sulfinoalanine,Ribonolactone,D-Xylitol,Levoglucosan,Beta-Glycerophosphoric acid,D-Arabitol,Ribitol,2-Deoxyglucose,Orotic acid,Putrescine,Dihydroxyacetone phosphate,Glycerol 3-phosphate,L-Glutamine,2-Phosphoglyceric acid,Azelaic acid,3-Phosphoglyceric acid,2-Aminoheptanedioic acid,Hypoxanthine,Citric acid,Ornithine,L-Lysine,D-Mannose,Tyramine,L-Histidine,Glucosamine,D-Galactose,D-Glucose,N-Acetylglutamine,N6-Acetyl-L-lysine,1-Hexadecanol,L-Tyrosine,Mannitol,Sorbitol,D-13C6-Sorbitol,Galactitol,N-Acetylornithine,Urocanic acid,Palmitoleic acid,Gluconic acid,Palmitic acid,p-Octopamine,Glucaric acid,Citrulline,D-Ribose 5-phosphate,Myo-inositol,N-Acetylmannosamine,D-Ribulose 5-phosphate,Heptadecanoic acid,Guanine,Pyridoxamine,Octadecanol,Norepinephrine,Linoleic acid,Oleic acid,Elaidic acid,L-Cystathionine,Stearic acid,L-Tryptophan,Cysteamine,Tryptamine,Spermidine,L-Cystine,Fructose 1-phosphate,Mannose 6-phosphate,Glucose 6-phosphate,Arachidonic acid,Oleamide,Thymidine,Uridine,Adenosine,Sucrose,Glycerol 1-octadecanoate,Guanosine,Trehalose,D-Maltose,Cholesterol
50554_2986M-1,Media,984507,23032,770146,217434,153609,1188,4038118,1940065,3110,3077,200,168409,17892,680001,11194408,227815,4340,190617,58526,23667,791881,1559,42569,9913,58242,34111214,52655,2279515,349952,3982,16553,612375,270454,118128,268780,32590,2441,2328,9271,752694,3895,51094,0,2474,17337,635662,2128,40704,28569490,43403,2367161,3834,11886,36388,0,143340,251271,5830,21274,3730,28407,19554,1193,8514,65278,5997,0,22634637,2003597,1445,23998,119261,3222,1996,24453,368437,17849,326908,4458,946,2191,45026,38252,581,3360,4702,0,74796,105457,273263,203589,6129,2861,86869,289381,1992,220390,7392557,1326398,5619,15104,18846,3724,7565,41198,58836,36921,11247,705572,95556,336951,10752734,345274,82285,14359,0,35668,1030264,11538,10353,1947,175043,3950,16343,5058,20155,163083,3142,8305,175864,3905,30198,5497,62210,900080,78675,0,16199,70555,0,4990,5160,2207,0,9214,704,89123,369537,117414,4068203,4400,64103,15018,491
50555_2986M-2,Media,1187962,38364,844264,225290,129965,610,4511067,1919953,3071,5413,462,482930,20955,1265269,10934876,284083,3934,205070,56614,25669,1720430,1143,217623,14162,69945,33256080,54611,1521189,256307,2704,21609,745586,328219,138950,382268,44028,4419,1735,7798,904137,5451,40027,0,4477,29575,625533,1732,40011,30753959,53556,3042724,8399,12608,51074,0,1010729,231896,5328,24827,6229,32250,32356,1895,10913,85292,9166,0,23217480,2903897,929,20422,155373,5521,1893,36827,685643,150234,112629,9162,0,2340,40235,48134,2087,5712,6236,0,85222,189918,437846,336062,9353,2424,112623,237218,859,171357,18062633,2397198,0,20559,43636,1143,11350,89813,70814,55765,12625,856371,332562,480490,11806659,505084,211714,5034,0,86384,1505537,15727,21062,1905,384768,11009,11360,6564,27458,109405,3653,5560,186909,2089,35604,9494,87035,1313696,85987,1378,83648,90240,19724,8784,26996,5775,0,181109,0,91094,490352,85580,5318758,4640,93963,30054,645
50556_2986M-3,Media,2642536,76719,1331319,448571,183594,7148,8936433,1585665,8643,4937,1640,1833872,46057,8213426,13054403,349786,5778,276548,81288,65923,13540492,1609,2697259,8203,115500,36487612,52985,2203002,323955,4194,23054,2501958,649474,209033,774062,180014,3753,3035,14401,2009622,24602,86539,0,3456,19696,1981375,2692,81632,33565402,213521,7374626,21020,26746,96872,0,4080556,922164,24029,180120,28497,54320,29025,22033,43741,211660,12888,0,31379488,9144872,0,38378,297777,11749,2226,174144,1255654,118054,40536,21519,4574,6773,83962,144054,7722,22822,25326,5220,116345,603093,1440166,2093269,11662,3817,146433,632174,1848,238309,24564940,1284369,17695,29146,305200,10669,23851,133622,439827,48400,0,2888532,529635,23458329,15863903,22633976,520665,27372,0,191099,1815865,11077,56392,13841,653677,22210,30531,14530,31529,255549,6134,12232,273957,2627,34330,7011,266270,1481176,317323,11898,119534,306608,15572,39374,20289,15419,0,177118,0,371072,1237113,146831,3482304,15104,77984,17259,1267
50557_2986M-4,Media,1974332,46459,1552124,319787,153838,2211,11013928,668255,8710,6292,336,443511,26699,788929,11629181,520189,3617,218410,64800,21921,848509,1595,102069,14306,65844,34744599,94916,3182858,252212,9206,28789,961966,530408,137462,427228,47281,3205,2443,15826,1957939,8288,47712,0,1841,6019,672130,2506,66122,32701588,97355,3601895,14938,13286,61789,0,525164,383257,7228,26950,4768,64623,52455,3122,11214,87314,11818,0,24798500,2062366,3540,26536,148645,5893,1380,30770,988028,47083,44685,6937,1162,3992,46488,44437,2489,14779,16038,0,63053,194143,485590,108880,17797,3348,287938,506910,5856,390047,23023796,2802836,0,19822,142496,680,14494,83960,76833,49681,6080,779865,292660,17378869,13313543,17604324,262028,15140,650,80149,1030165,6595,17915,4089,449323,9270,12031,14913,17088,569690,17485,9891,219820,0,21609,2953,113522,830338,72461,1960,18641,161205,12382,9317,8599,5953,0,118137,0,223376,367522,81543,3145094,9210,28558,6673,116
50558_2986M-5,Media,2262254,57465,1478051,342004,135123,3950,12293936,2295681,16468,4496,2929,2013612,31787,5823119,13525586,293616,5379,228091,66520,27728,6856630,1095,919007,19476,102831,36225789,163281,3030532,125641,5459,22785,3209184,1323449,153689,658363,176975,3653,1812,28873,2046169,21435,60955,0,1940,14945,904452,2702,41202,33470834,164927,4593097,13586,15096,80130,0,3173035,694315,19447,73218,9662,85301,55109,11463,35912,161663,8254,0,28278877,5916850,5121,33135,254962,10283,2888,119527,1162563,323714,312833,26141,3028,10902,47545,76472,8144,51054,69121,0,57022,469430,1119482,9174820,14744,3192,275425,797394,2330,484538,15021044,850187,8341,38289,392276,13223,9244,51409,640833,22246,0,2505387,241578,32762,15222285,36179,207061,26437,1729,78866,1486643,5917,27867,4661,688652,17237,18251,10648,22744,455527,8102,10781,167260,5396,43515,7334,143648,1123796,254426,10535,54776,209891,24213,12759,43600,5049,0,191264,1659,276574,1052993,93432,2990890,20276,23570,5457,274
50559_2986M-6,Media,2738812,100210,2142133,488740,193423,4822,8144499,1582401,16915,3952,1266,960335,40108,1773268,13062392,344066,5285,247762,73092,26215,1372067,1738,90017,15907,110653,36701772,73541,9304520,234746,9565,25772,2713920,817387,144245,551046,101762,6043,3035,8251,3156211,23668,48017,0,2750,15230,1242623,743,125615,32805348,142231,5752914,13325,19819,98352,0,2590251,956088,23471,101246,20676,84590,67367,14391,28551,188456,12028,0,29059050,5203717,4989,29029,464801,12111,3938,116687,1104907,136699,166320,19010,344,7200,65744,92044,5663,9407,12796,0,121482,350815,733582,559665,24120,3794,334953,650677,3155,454170,21424688,605400,0,42895,173088,7775,17580,88415,327451,86269,0,2120372,282148,458360,14090703,472504,255863,24592,0,107671,1684275,4233,33785,7264,793109,24961,26625,19005,30402,397637,2304,10369,203574,7006,69980,13043,266789,1267549,133324,7021,144784,224037,29267,30936,14328,10173,0,32769,0,346208,1235975,237100,4822688,33473,48412,9682,490
50561_2986S-2,Sera,8097044,115508,2152516,1245486,143770,3434,30282967,1880622,9265,4540,4775,3773313,29511,20353393,12397446,423086,9504,245793,57613,86110,14698751,2322,834187,51103,78404,35823198,54261,3193150,293016,5618,25064,2837231,921889,135665,1654096,89105,7141,4134,49679,2981163,21746,72010,24610,18185,45525,2388716,9000,121767,37500848,406733,17963022,14758,21905,158494,1515,1829051,2779510,69377,152053,4564,58214,74665,46832,75514,1272521,4421,4045,35838550,14697558,0,36781,242738,3845,5072,74634,1425324,40474,3482945,63472,696,3653,49559,174306,3749,25900,0,0,916686,478302,1235121,9935950,18120,7463,290257,348971,7393,317868,34957686,12879159,17309,51302,1540748,10077,20584,48133,422557,173399,36032,2786413,27471,1998889,13170662,2066094,244021,32576,20771,217978,3839143,20145,55461,12926,597862,164066,28742,8635,53728,298949,827,7726,98864,209775,526341,122061,273880,1790768,336203,0,588175,106463,17752,28270,21544,8979,183652,76686,20126,422773,4611491,50132,3716392,39196,52460,13557,167258
50562_2986S-3,Sera,10395334,111497,2109481,1246551,184475,4204,35723472,1837554,13142,6113,7016,5285700,25921,23077940,13176944,400184,11129,240416,69272,114142,25670984,3388,8176918,40598,112766,37675967,31460,2644852,3152960,5229,32811,2382458,784660,167166,1830188,101437,5283,4619,55310,3904995,51041,42313,49140,6250,45966,2946914,6944,230916,37671964,596251,19100663,16069,26840,228067,1099,1412167,2933127,73348,134001,4792,67752,103313,51483,18619,1853873,5119,8632,38463033,14506775,0,31372,171130,3844,3975,58505,1939177,35207,4562499,76181,1867,3549,50616,156884,5597,15217,27193,7706,1204210,458488,1172518,13765650,24634,3955,431087,275346,7901,231348,40183038,12942615,15739,210713,307938,10308,15946,161254,552362,156144,40432,2356357,122640,5472819,13321672,5543903,200268,41827,22725,161545,4087077,25139,53496,30891,543468,225640,23430,15324,47230,410692,10770,9901,32853,266002,512561,103872,240033,1713596,201763,18300,533239,187245,11445,27849,67686,15417,267285,108280,28686,263365,2638393,143043,2896885,32170,70876,16624,175702
50563_2986S-4,Sera,9862246,82021,5620034,1394424,171705,857,28696663,2674056,29246,7297,27655,2576595,19955,20426939,13720135,297237,10250,246782,73002,139173,11104355,2477,670632,46312,151585,21063898,130289,8431124,2295656,4925,59746,2210680,2554268,177455,1003269,94685,3295,2479,298285,6314526,42625,53077,23974,2969,9830,2446569,7845,78887,37777147,328983,12583400,24472,24858,194933,1316,617839,2280606,59116,229356,4106,230257,359107,54059,34390,1190464,9257,2809,35922916,8587167,2217,39319,137798,1656,3276,69298,958234,53202,4020406,57121,10976,8938,63423,164935,13297,20850,32685,19894,2223549,1449843,3948924,7182170,76837,5806,1135613,780386,37569,788712,32216269,11681812,0,132538,154851,9622,0,29898,366783,33815,46680,1857951,106281,8082561,14001415,7802104,102173,25394,34824,149192,5967260,14894,66794,11665,202474,94073,10420,5154,65443,1419869,39998,13687,28711,236543,644348,131977,187119,3062267,186633,1185,500662,144164,0,15431,32422,9654,295299,154387,2745,515397,4403735,78655,4070133,105184,26603,5033,219006
50564_2986S-5,Sera,10817105,121730,3599279,1258522,167186,7261,25037024,1531291,14274,6795,16762,1000298,12219,19994678,11456665,325836,8223,250224,61733,76229,18542708,1858,1251671,40760,131748,13223618,40643,7462166,3937976,8381,59703,3872805,1016722,151740,476538,50913,4013,4885,148013,1379801,36437,42044,9480,3174,15005,2114731,2886,41822,33757238,348651,9335339,14980,28032,82690,2266,1912915,2845870,70470,84028,7976,168946,210518,29086,14960,743592,7243,512,33019608,8254837,2375,33288,79846,1770,2558,149466,1694684,35572,2918967,93956,10547,3887,65854,140559,1461,22618,2935,31064,558454,1026532,2527501,9276656,43622,5312,815390,473052,2920,495735,18655201,11942256,16498,117659,152267,6463,0,55963,346131,106776,33193,3434682,89222,173533,11206516,176651,0,10660,22335,97814,3823314,20015,26178,5923,313526,82642,12855,3484,54047,612128,26043,11160,32394,150621,454040,96782,115337,2093123,235676,3496,681237,50884,20266,21137,76269,21567,0,177849,30995,234209,1761402,135356,2996780,32024,0,8205,142889
50565_2986S-6,Sera,6792850,142209,4796525,999751,189172,1838,25682161,1517863,16507,3905,9413,1282073,11487,14070640,11662695,239899,8032,223126,51115,47535,5853357,2092,287737,48701,88437,10240986,55529,8853004,479633,5826,29708,1923386,1385693,137346,652108,56073,4881,2888,45647,2955685,25930,31206,9688,2328,15150,2535792,3486,78633,36862879,224958,12086033,22459,22082,0,1663,423904,2018349,49219,168254,6076,154661,161601,72227,26799,726909,4630,2447,33328034,6237205,3475,29409,168444,1665,2231,39300,185494,32108,1945923,39103,5910,3547,54457,105169,2685,26426,39737,1737,491539,440546,1147578,9083646,40347,3258,716441,461431,18681,488566,25047428,5681586,0,26642,474419,6586,14018,47665,318876,98087,31783,2033419,77066,108681,13126839,107192,118848,18263,26076,68653,3371666,6224,30982,4874,405043,41958,14185,6197,44267,862565,23282,8396,19817,141468,456889,98203,209462,1813028,148685,14183,620760,193971,0,27643,21771,9613,148110,189086,8713,135372,1391580,42101,2652764,37556,26900,5293,128195
50631_2986S-1,Sera,12648480,69044,7185669,1838589,218069,1875,24049317,2863892,21473,9120,13448,1500785,11745,15906113,13577940,410391,11945,280346,89355,62210,5476022,2984,378216,53340,162753,9887251,62785,14580049,458588,5619,46204,2657543,2038372,210513,740575,80357,4466,3848,75626,3846458,34266,58192,13921,3384,21644,2867688,18091,127671,36074571,289849,12047476,28941,38516,175519,1383,488467,3344302,90148,296818,5751,211715,261640,94803,37367,1121877,14161,2723,38741188,7837348,6371,52945,185554,2638,3782,79269,794600,40040,2972987,44590,2780,5458,72535,166534,6422,44195,63185,2371,1251646,648809,1755937,18516827,51322,6132,910187,743613,40290,815932,29788043,10376871,7073,364989,197556,10583,9630,26231,445565,45679,42441,3002176,139993,92595,13598695,87793,40164,25418,36496,160252,6108490,13286,39127,6565,230354,63021,10741,4694,66528,1390839,1951,12495,30487,209759,635956,134029,179636,3052560,212823,25452,492800,105850,0,13789,45775,8905,25944,235178,18107,382534,3268300,117926,4107160,73234,37210,9504,200328
