Samples,Groups,D-2-Hydroxyglutaric acid,D-Lactic acid,Oxoglutaric acid,Adenine,ADP,L-Arginine,Citrulline,Coenzyme A,L-Cystathionine,Cytidine,Deoxycytidine,Deoxyuridine,Glucosamine,Fumaric acid,Gluconic acid,L-Glutamic acid,L-Glutamine,Glycerol,Glycine,Guanine,L-Histidine,L-Leucine,L-Threonine,L-Valine,L-Lysine,Mannitol,L-Methionine,Orotic acid,Phosphoenolpyruvic acid,L-Proline,Glycerophosphocholine,Taurine,Myristic acid,Thiamine,4-Hydroxyproline,Uridine 5'-diphosphate,Uridine 5'-monophosphate,Uridine,3-Phosphoglyceric acid,Gamma-Aminobutyric acid,4-Trimethylammoniobutanoic acid,Acetyl-CoA,Alanyl-Glycine,L-Asparagine,L-Aspartic acid,Adenosine triphosphate,Citric acid,Dodecanoic acid,FAD,Guanosine diphosphate,Guanosine,Palmitic acid,L-Homoserine,L-Isoleucine,L-Tyrosine,Malic acid,N-Alpha-acetyllysine,N-Acetylornithine,N-Acetylglutamine,N-Acetylneuraminic acid,NAD,NADP,Ornithine,Oxalic acid,L-Serine,Glycerol 3-phosphate,Succinic acid,Thiamine pyrophosphate,Thymine,2-Ketobutyric acid,4-Hydroxycinnamic acid,5-Aminolevulinic acid,L-Alanine,3'-AMP,Betaine,Cytidine monophosphate,Deoxyadenosine monophosphate,dCMP,D-Fructose,dIMP,D-Ribose,Sorbitol,dUMP,Glycyl-glycine,Guanosine monophosphate,Maleic acid,Phosphate,Ribitol,Heptadecanoic acid,Caprylic acid,Acetoacetic acid,Beta-Alanine,Capric acid,Galactonolactone,D-Glucose,2'-Deoxyguanosine 5'-monophosphate,Caproic acid,Imidazoleacetic acid,Isocitric acid,L-Tryptophan,Methylmalonic acid,L-Phenylalanine,Uridine diphosphate-N-acetylglucosamine,Xanthine,Gluconolactone,Myo-inositol,NADH,Succinic acid semialdehyde,5-Hydroxy-L-tryptophan,"1,5-Anhydrosorbitol",2-Isopropylmalic acid,Ureidopropionic acid,D-Alpha-aminobutyric acid,L-Arabinose,L-Allothreonine,L-Arabitol,Methionine sulfoxide,N-Acetyl-L-methionine,D-threo-Isocitric acid,3-Aminoisobutanoic acid,Itaconic acid,Acetylglycine,Glyceric acid,Glycolic acid,Malonic acid,Pyrrolidonecarboxylic acid,Threonic acid,D-Xylitol,Valeric acid,L-Alloisoleucine,N-Acetylglutamic acid,L-Alpha-aminobutyric acid,Beta-Leucine
50518-2819M-1,R,331333,673330,35359,14609501,425339,5945,1783527,149760,43704,61899,0,283529,8339668,257611,1613795,55509373,5880862,108916,599985,836487,601550,546677,439823,366728,55510,377105,1161559,396947,2501,12627175,8487,664694,457252,589706,1135232,57519,147552,236910,38933,23868659,11627,114309,125045,776400,6662974,234460,106204,161207,147247,4912,126670,5546453,438619,169509,379758,512221,25278474,223315,21728531,8272,820706,22748,1533467,47822,29449,0,260459,134512,44814,2259094,55748,1138437,7221756,1623636,2779925,20700,98954,1127,433696,1241,90164,367086,608943,771833,83033,727022,735230,15514,811375,145609,327415,7223354,159421,35965,82258,6581,106596,210000,104436,14455,260459,3515238,220927,11336,173170,30892,41086,2311453,11764,4658,0,293560,761112,37173,410093,15514,99113,18955,106207,818992,160110,3827585,44651,16839817,65144,3906953,147026,15514,36096,162236,2407957,932462,169215
50519-2819M-2,R,360700,336184,31077,14618698,428029,4401,2400798,230373,42061,53786,0,117479,8439323,599275,3632369,52678756,5122594,148217,591519,630383,518690,865325,409929,396746,132132,103543,826880,226431,7023,14080434,0,307265,290039,914176,1125687,73081,108855,140136,60027,22831395,4194,116808,191542,1285756,6878005,369386,127842,133263,216443,9548,48437,4861310,409300,296672,262924,1214434,17192017,353396,15632211,0,954061,45714,2329640,41367,28301,0,316342,198722,53859,2193281,35874,1125687,7685548,1455765,2765059,14207,81486,1277,659813,0,116850,111617,255493,1285756,56933,761901,2135261,37561,844639,166487,357295,7660503,160976,49395,83833,28807,78844,284412,127842,2869,316342,3297904,166806,8147,263307,37785,32109,2242446,19440,5605,0,252589,1051953,45857,395768,37561,127462,19154,127842,1201376,203360,2991034,76476,17385625,66561,5375739,182299,37561,81863,288967,2036544,1294328,288967
50520-2819M-3,R,1071735,756065,83075,22673357,1088509,4875,7790813,1300301,316981,125503,23442,268568,12260662,605122,8663936,88239066,6465302,124846,812520,1249538,1568455,2278410,582688,1084332,187292,915699,1175856,193088,8281,32372012,8751,341166,417571,2028328,2415892,359938,381023,600924,78886,37640212,22564,496306,398573,1399345,27756744,651465,120480,76383,739748,35446,280477,6026069,582688,2544322,353193,1438522,52112931,520185,42155878,12115,2130835,140831,8069095,71250,166938,0,692418,562722,162127,4115910,56702,2481798,29985585,6454290,4471501,88104,83700,10114,1927060,10908,135699,957191,768277,1399345,238416,3056809,4463213,19938,1963880,115474,821534,29987836,114694,93214,142704,93826,87097,482086,120480,29137,692418,5540430,1023145,12106,630257,77148,90730,4159779,100753,11215,0,307629,2519797,113534,564153,19938,62130,79571,120480,2532798,602344,6465788,77268,18249984,114587,13961016,256898,19938,88454,2369576,8355106,2644471,2365781
50521-2819M-4,R,822665,545620,44157,24023022,521133,0,1824241,417179,67539,85640,7282,641620,10368910,148851,4782165,89308843,981860,155390,644993,2236133,397908,370755,403005,279902,47941,3315593,1131707,170598,38707,9877883,5530,629079,312251,39375,1274664,52512,567468,259483,154466,36667564,8256,126382,287461,1231150,41700731,276869,257298,96694,174318,41232,210033,3947006,390488,314316,282523,265262,19777611,260313,13987655,18711,1233334,34460,1248752,449140,105451,43994,1091502,95126,66830,2198846,40233,1274664,35137280,8775822,3510326,120322,542115,62088,894122,3834,116785,3312845,4981376,1208292,255449,914627,2117321,116452,1153703,154015,442486,35103692,141338,31453,90274,3980,127872,398901,257720,9924,1091502,1532670,55730,79805,213624,40820,237865,2273558,52629,5840,0,263313,865651,59491,415166,116452,114416,21364,257852,924097,439051,5212066,242692,15180974,85410,6422633,584612,116452,49349,287629,7155079,1061977,287387
50522-2819M-5,R,1040645,412940,92569,23825995,568285,14274,2331996,814895,125832,80845,8517,146903,9371948,216086,3189271,87576738,6397977,176154,793149,1369909,836701,1352585,671589,843318,98090,106359,1122252,53391,13403,17752580,9105,300176,362335,100991,1346137,309178,573390,519959,124768,37831764,9725,310961,189817,2133570,24263065,327741,266895,175549,299366,24721,112701,5180488,671589,813717,464020,490603,34893215,206681,47934856,4733,1561786,67309,1869696,59900,115664,13003,821368,102929,153951,2553641,66485,1420493,20804296,4902915,3608900,96350,150441,10693,1033924,7139,111597,109926,662350,2147194,253468,2085941,3248176,37530,1174671,280137,561498,20785395,182233,42348,97775,30578,161285,596378,266889,43974,821368,4032596,182621,8912,209691,51921,98032,2574588,107047,4963,0,270052,2720861,87639,652378,40348,114459,41649,266901,2704316,594511,4298857,120309,17086676,74713,7784242,185035,40348,136726,796840,5771196,2857550,796840
50523-2819M-6,R,1812636,828329,195220,16427780,856822,7389,2027793,1738366,249973,144437,9887,418404,11392900,247949,5333043,93085814,5040941,182269,850784,1445167,1075712,309993,434648,385725,107267,1419671,1064861,49168,29484,19494236,17180,390220,354758,211991,1547276,326274,626105,579886,227801,40447164,16375,453084,191855,1129616,34157890,479407,280122,171407,589399,26813,261330,5038503,434648,306419,407596,610359,39353868,268732,53948461,12806,2289686,97247,1691262,59386,82040,0,4646410,183596,79092,3375317,52468,1660511,30461864,6577892,4431991,156273,203519,1069,1524355,13777,95681,1416000,2997267,1122848,368617,4506775,4719341,8529,1645487,239968,786178,30400036,272213,74493,109592,55981,130884,770087,280380,5028,4615770,2629579,100759,7447,377159,49199,473346,3429319,143346,3812,0,277913,2186375,126724,420071,8529,65534,44280,280441,2126287,1051864,5766992,96366,16866883,61345,9325768,213578,8529,31091,319287,7779568,2372317,294738
50525-2819S-2,S,10316571,841676,186364,34609139,967303,50100,3220810,1476591,120682,163115,20656,695330,16748411,4059215,5847712,138919171,9244918,117045,1323078,2037110,3175356,1749208,202305,2741295,1114586,261197,2503696,231396,43999,3833469,29698,20703591,924759,0,621783,123841,304533,1259755,375096,65643221,12004,216710,627857,864157,33133918,473763,276788,183349,331432,38829,581888,6587913,203445,1102919,537055,8535275,2081495,104344,21137956,42777,3397794,47346,2653419,483337,183551,112388,1755463,40209,1120372,6089843,67445,691726,35028658,5506282,6764862,116656,69504,4882,2380378,11478,242651,270819,1065276,864157,122731,3751692,8731147,0,756474,165373,986992,35075421,158009,63398,28710,65797,158645,351080,276751,52893,1755463,8089433,79850,184531,1316817,158066,321374,6148607,132022,44972,0,104610,3339886,83928,188386,0,123025,55383,276802,3329366,5739513,843318,305286,16537852,207595,12440898,1001976,0,57968,1078415,15239605,3534843,1078415
50526-2819S-3,S,8250089,1232697,190217,22050513,733369,15232,3846363,3113148,174850,422929,71212,98860,20009224,2810353,5776981,138719284,17103164,122126,1634840,865724,4986455,2444599,211926,2928645,865190,435716,2334723,593706,37128,22978124,20156,26335771,758011,2222,696643,269139,273938,1588627,200591,62234954,15761,922270,1589291,1852886,18791253,293077,131244,97315,920664,67500,544954,8209720,211926,2625806,450628,5799618,3408547,175029,22102756,133932,3545389,81453,3826152,61159,201531,22716,2630353,44245,1361348,6457756,62479,767705,18668715,5461644,7985239,205707,86562,32695,2139873,12927,245685,457934,104835,1852886,132965,4726768,7568053,3627,1027046,129834,895475,18674366,110328,80292,38130,37581,114730,284099,131244,18402,2667357,8057987,26558,35918,976181,122081,456156,6558713,246362,71612,0,89001,3752152,77832,193662,3627,102298,68175,131244,3790961,4582141,1440627,116037,18508001,92940,9735762,452522,3627,63580,2578643,10999900,3981073,2578643
50527-2819S-4,S,2730588,1046707,337258,48551283,274215,10701,850071,2473858,95863,305284,39339,609251,16479046,161270,2248212,85061675,6795244,177624,827091,5382919,2068664,309197,230439,536934,709447,2409306,1112871,937763,120834,3225247,11283,24442487,1046753,3460,271931,54343,462562,812181,1038764,36567520,0,698152,994883,1032466,21531294,227666,682009,153804,452000,27115,493603,7226448,222548,602891,730029,389411,17394687,309097,20029175,133908,3288313,46988,674436,58216,68393,135351,3737506,30232,825872,2250853,104496,271931,11549087,6581610,6176404,411015,483196,55000,2906394,5937,134302,2421197,1753342,1029180,264379,2006933,4515389,34797,661403,184915,3282058,11579355,138635,19727,60238,24345,117059,118936,682050,84778,3737506,2054460,2386,68088,1119921,66121,1141311,2332925,47375,18941,49446,43669,970283,70939,206431,34797,135672,15888,682138,1017794,1488855,405257,505927,17156672,460375,4799068,511014,34797,40236,585022,2640208,1098520,585022
50528-2819S-5,S,9134877,747353,434328,39912817,656888,18802,1926215,1951157,103122,478947,60530,750160,18055475,670370,2890787,127121193,9920653,143537,1187080,2127337,4460848,669365,237509,1087372,388823,13812,2232278,353370,120386,5583222,17942,21251279,1268354,2622,692172,164591,312044,1645950,915369,55059826,2884,560501,967292,1472995,29364770,504891,638614,99861,772827,68893,771177,7847041,237509,941800,637654,1553887,2592024,74117,15650143,31687,3018731,72350,1512675,118472,162637,82666,1912815,41603,1161120,3426359,90344,751532,20188715,5236071,6764415,218919,123867,25158,2469159,10036,171070,53875,685056,1466930,148803,2752954,7464881,2270,651623,125283,1536023,20188811,102292,14568,29159,89624,102659,361350,638400,58060,1912815,4017040,59585,32842,1028840,67289,536460,3494159,134768,40957,520776,91204,2163576,73854,220959,2270,128303,20802,638632,2375296,4878817,510858,199202,18808098,134318,9673362,375626,2270,23907,935537,6353382,2483581,935537
50529-2819S-6,S,1958215,842923,287033,17036152,406674,2324,767472,1251220,80525,225420,14979,349067,16574298,266850,1699821,73987247,9720756,103124,895308,2796718,1176445,180662,278073,315079,570809,87254,847112,98890,79716,1031342,12110,24650623,1056301,4828,256299,45007,192520,449888,605609,32575422,2487,961577,889432,661005,15349128,181637,626452,160097,384884,4212,348677,5888827,277895,413217,559741,604977,21618958,308360,24173517,115539,2976130,40478,723573,43897,37209,0,3635443,29871,485972,2467301,70088,271574,9222038,3974717,6331488,214106,157911,17559,1545604,3010,111876,107808,1003918,658554,130974,1946838,4365306,0,556145,171405,3126764,9225050,115120,20994,53991,11690,156412,105936,626446,49592,3635443,1483260,40074,17084,804372,51721,494980,2559037,27046,26217,0,41464,635958,98909,255700,0,101345,30727,626474,708897,1095741,302919,212715,17100420,125837,5290090,338855,0,27389,396554,2345150,755215,396554
50629-2819S-1,S,3662209,1385258,294144,51716250,360299,7722,1133335,4214620,145710,349294,22972,488073,16318947,180932,2474845,102839810,5522554,113207,903451,5156277,1675114,291208,200826,644557,711103,399150,1234877,1023133,146650,3920703,18099,27363064,1222028,4185,263922,67858,625950,942711,1320573,44859273,1107,377054,997902,938539,29032795,229516,945730,139290,437471,46963,573424,8860804,202221,699742,726496,562156,16949878,329141,22598175,209164,3663718,55467,934233,324745,140300,205866,4576386,49461,768211,2658590,115112,277727,18238106,8974421,6530955,506144,549191,71285,3028955,12323,147583,401266,2998801,938539,318534,1629861,7666408,30386,905557,137354,3830569,18238592,127549,34789,48764,20469,111840,124342,945462,72747,4576386,2377827,3478,190661,1191101,104346,1471255,2815505,125465,30212,0,46357,956995,97060,188134,30386,123388,18153,944598,957457,2081652,556955,609027,15165443,542178,4981624,981488,30386,57798,666780,5313174,1129592,666780
