"pw_name","Total Cmpd","Hits","Raw p","-log(p)","Holm adjust","FDR","Impact"
"Pyrimidine metabolism",33,6,1.2739e-06,13.573,6.6242e-05,6.6242e-05,0.13443
"Phenylalanine metabolism",3,2,8.1273e-05,9.4177,0.0041449,0.0015058,1
"Pentose and glucuronate interconversions",9,1,0.00014479,8.8403,0.0072393,0.0015058,0.625
"Riboflavin metabolism",11,1,0.00014479,8.8403,0.0072393,0.0015058,0
"Vitamin B6 metabolism",5,1,0.00014479,8.8403,0.0072393,0.0015058,0
"Phenylalanine, tyrosine and tryptophan biosynthesis",22,5,0.00032044,8.0458,0.015061,0.0027772,0.05771
"Pentose phosphate pathway",19,5,0.00079641,7.1354,0.036635,0.0059162,0.37787
"Methane metabolism",13,3,0.0010782,6.8325,0.048517,0.007008,0.03704
"Aminoacyl-tRNA biosynthesis",66,18,0.0017733,6.3349,0.078026,0.010246,0.17857
"Fructose and mannose metabolism",13,6,0.0025654,5.9657,0.11031,0.012967,0.30343
"Valine, leucine and isoleucine biosynthesis",26,6,0.002951,5.8256,0.12394,0.012967,0.10001
"Glycolysis or Gluconeogenesis",29,6,0.0029924,5.8117,0.12394,0.012967,0.20005
"Glyoxylate and dicarboxylate metabolism",15,3,0.0033358,5.7031,0.13343,0.013343,0.2
"Starch and sucrose metabolism",13,4,0.0043184,5.4449,0.16842,0.01604,0.46341
"Arginine and proline metabolism",30,11,0.0052648,5.2467,0.20006,0.018251,0.43807
"Galactose metabolism",21,5,0.0059566,5.1233,0.22039,0.019359,0.0303
"Lysine biosynthesis",14,3,0.0069416,4.9702,0.2499,0.020471,0
"Streptomycin biosynthesis",4,2,0.0073138,4.918,0.25598,0.020471,0
"Cysteine and methionine metabolism",25,10,0.0074798,4.8956,0.25598,0.020471,0.51075
"Purine metabolism",53,7,0.0089561,4.7154,0.29555,0.022435,0.04292
"Benzoate degradation via CoA ligation",11,3,0.0090602,4.7039,0.29555,0.022435,0
"Nitrogen metabolism",14,6,0.010074,4.5978,0.31231,0.023812,0.14634
"Taurine and hypotaurine metabolism",7,3,0.011516,4.464,0.34547,0.026036,0
"D-Alanine metabolism",5,2,0.01226,4.4014,0.35554,0.026563,0
"Alanine, aspartate and glutamate metabolism",18,9,0.015858,4.1441,0.44404,0.032986,0.92683
"Selenoamino acid metabolism",13,1,0.019968,3.9136,0.53914,0.039586,0
"Valine, leucine and isoleucine degradation",25,3,0.021308,3.8487,0.554,0.039586,0
"Inositol phosphate metabolism",7,2,0.021316,3.8483,0.554,0.039586,0.625
"Fatty acid metabolism",29,1,0.030692,3.4838,0.73661,0.053931,0
"Histidine metabolism",19,3,0.031114,3.4701,0.73661,0.053931,0.21667
"Glycine, serine and threonine metabolism",26,9,0.044423,3.114,0.97731,0.074516,0.59342
"Sulfur metabolism",11,4,0.047112,3.0552,0.98934,0.076556,0.14286
"D-Glutamine and D-glutamate metabolism",5,1,0.062441,2.7735,1,0.098392,0
"Ascorbate and aldarate metabolism",4,1,0.079638,2.5303,1,0.1218,0
"Pyruvate metabolism",20,3,0.10802,2.2254,1,0.16049,0.36065
"Glycerolipid metabolism",15,3,0.12109,2.1112,1,0.17491,0.13236
"Butanoate metabolism",16,4,0.14742,1.9145,1,0.20718,0.20225
"C5-Branched dibasic acid metabolism",7,1,0.15536,1.862,1,0.2126,0
"Citrate cycle (TCA cycle)",20,6,0.16765,1.7859,1,0.22353,0.28347
"Cyanoamino acid metabolism",8,4,0.22512,1.4911,1,0.2912,0
"Pantothenate and CoA biosynthesis",21,5,0.2296,1.4714,1,0.2912,0.02235
"Thiamine metabolism",13,1,0.23896,1.4315,1,0.29586,0
"Glutathione metabolism",13,3,0.26738,1.3191,1,0.32334,0.22784
"Tyrosine metabolism",8,1,0.36075,1.0196,1,0.41371,0
"Novobiocin biosynthesis",3,1,0.36075,1.0196,1,0.41371,0
"Propanoate metabolism",15,4,0.36597,1.0052,1,0.41371,0.26667
"Nicotinate and nicotinamide metabolism",9,2,0.37456,0.982,1,0.41441,0.16129
"beta-Alanine metabolism",5,2,0.48314,0.72746,1,0.5234,1
"Amino sugar and nucleotide sugar metabolism",28,6,0.55003,0.59778,1,0.5837,0.08726
"Glycerophospholipid metabolism",17,3,0.61798,0.4813,1,0.6427,0.24013
"Tryptophan metabolism",14,1,0.94532,0.056231,1,0.94932,0
"Folate biosynthesis",15,1,0.94932,0.052014,1,0.94932,0.10476
