"pw_name","Total Cmpd","Hits","Raw p","-log(p)","Holm adjust","FDR","Impact"
"Taurine and hypotaurine metabolism",7,3,1.1528e-08,18.278,6.4559e-07,6.4559e-07,0
"Glycolysis or Gluconeogenesis",29,4,1.6168e-06,13.335,8.8922e-05,4.5269e-05,0.1323
"Nitrogen metabolism",14,6,4.4785e-06,12.316,0.00024184,8.3598e-05,0.14634
"Thiamine metabolism",13,2,1.8459e-05,10.9,0.00097835,0.00025843,0.10714
"Nicotinate and nicotinamide metabolism",9,2,3.6727e-05,10.212,0.0019098,0.00037549,0.29032
"Histidine metabolism",19,3,4.0231e-05,10.121,0.0020518,0.00037549,0.11667
"Valine, leucine and isoleucine degradation",25,6,8.4066e-05,9.3839,0.0042033,0.0005928,0.1653
"Aminoacyl-tRNA biosynthesis",66,18,8.4685e-05,9.3766,0.0042033,0.0005928,0.17857
"Galactose metabolism",21,1,0.00035188,7.9522,0.01689,0.0021895,0
"Porphyrin and chlorophyll metabolism",21,1,0.00049572,7.6095,0.023299,0.002461,0.05469
"Arginine and proline metabolism",30,12,0.00052527,7.5516,0.024163,0.002461,0.57138
"Citrate cycle (TCA cycle)",20,8,0.00053647,7.5305,0.024163,0.002461,0.36887
"Pantothenate and CoA biosynthesis",21,4,0.00057488,7.4614,0.025295,0.002461,0.08294
"Butanoate metabolism",16,6,0.00061525,7.3935,0.026456,0.002461,0.1573
"Glycine, serine and threonine metabolism",26,10,0.00067718,7.2976,0.028441,0.0024762,0.59342
"Alanine, aspartate and glutamate metabolism",18,9,0.0007075,7.2538,0.029007,0.0024762,0.92683
"Streptomycin biosynthesis",4,2,0.00090641,7.006,0.036256,0.0029858,0
"Amino sugar and nucleotide sugar metabolism",28,4,0.0010563,6.853,0.041196,0.0032863,0.16981
"C5-Branched dibasic acid metabolism",7,1,0.0013824,6.5839,0.052532,0.0040745,0
"Lysine biosynthesis",14,3,0.0017398,6.354,0.064372,0.0048714,0
"Glutathione metabolism",13,3,0.0020956,6.1679,0.075442,0.0055883,0.22784
"Cyanoamino acid metabolism",8,4,0.002331,6.0615,0.081585,0.0059334,0
"Starch and sucrose metabolism",13,1,0.00404,5.5115,0.13736,0.0098364,0.03415
"Sulfur metabolism",11,2,0.0043772,5.4313,0.14445,0.010214,0
"Peptidoglycan biosynthesis",23,3,0.0064683,5.0408,0.20699,0.014489,0.07189
"Purine metabolism",53,11,0.010302,4.5754,0.31937,0.021812,0.16533
"Pyrimidine metabolism",33,11,0.010517,4.5548,0.31937,0.021812,0.48456
"Fatty acid metabolism",29,3,0.011193,4.4925,0.32459,0.022385,0.42196
"Cysteine and methionine metabolism",25,6,0.019082,3.959,0.5343,0.036848,0.25269
"Valine, leucine and isoleucine biosynthesis",26,6,0.025724,3.6603,0.69455,0.046056,0.14832
"Phenylalanine, tyrosine and tryptophan biosynthesis",22,4,0.026131,3.6446,0.69455,0.046056,0.0199
"Riboflavin metabolism",11,1,0.026318,3.6375,0.69455,0.046056,0
"Glycerolipid metabolism",15,3,0.030404,3.4932,0.7297,0.050953,0.13236
"Glycerophospholipid metabolism",17,2,0.030936,3.4758,0.7297,0.050953,0.28947
"D-Glutamine and D-glutamate metabolism",5,1,0.047102,3.0554,1,0.075363,0
"Fructose and mannose metabolism",13,2,0.048619,3.0237,1,0.07563,0
"Pyruvate metabolism",20,5,0.056144,2.8798,1,0.084975,0.34326
"Methane metabolism",13,2,0.06343,2.7578,1,0.093475,0.03704
"Tryptophan metabolism",14,2,0.08283,2.491,1,0.11894,0
"Glyoxylate and dicarboxylate metabolism",15,5,0.089995,2.408,1,0.12599,0.2
"Phenylalanine metabolism",3,1,0.11174,2.1916,1,0.15261,0
"Propanoate metabolism",15,4,0.14248,1.9485,1,0.18998,0.33334
"beta-Alanine metabolism",5,2,0.15995,1.8329,1,0.20831,1
"Tyrosine metabolism",8,1,0.40989,0.89186,1,0.51009,0
"Novobiocin biosynthesis",3,1,0.40989,0.89186,1,0.51009,0
"Inositol phosphate metabolism",7,1,0.48128,0.73131,1,0.58591,0.625
"Lysine degradation",12,2,0.52603,0.64239,1,0.62676,0
"Selenoamino acid metabolism",13,1,0.55001,0.59783,1,0.62858,0
"D-Alanine metabolism",5,1,0.55001,0.59783,1,0.62858,0
"Benzoate degradation via CoA ligation",11,3,0.62417,0.47134,1,0.69907,0
"Pentose phosphate pathway",19,2,0.76238,0.27131,1,0.83713,0
"Fatty acid biosynthesis",39,1,0.87571,0.13273,1,0.87571,0.03776
"Synthesis and degradation of ketone bodies",3,1,0.87571,0.13273,1,0.87571,0
"Benzoate degradation via hydroxylation",5,1,0.87571,0.13273,1,0.87571,0
"Ethylbenzene degradation",3,1,0.87571,0.13273,1,0.87571,0
"Terpenoid backbone biosynthesis",18,1,0.87571,0.13273,1,0.87571,0
