Sample,group,D-2-Hydroxyglutaric acid,D-Lactic acid,Oxoglutaric acid,Adenine,ADP,L-Arginine,Citrulline,Coenzyme A,L-Cystathionine,Cytidine,Deoxycytidine,Deoxyuridine,Glucosamine,Fumaric acid,Gluconic acid,L-Glutamic acid,L-Glutamine,Glycerol,Glycine,Guanine,L-Histidine,L-Leucine,L-Threonine,L-Valine,L-Lysine,Mannitol,L-Methionine,Orotic acid,Phosphoenolpyruvic acid,L-Proline,Glycerophosphocholine,Taurine,Myristic acid,Thiamine,4-Hydroxyproline,Uridine 5'-diphosphate,Uridine 5'-monophosphate,Uridine,3-Phosphoglyceric acid,Gamma-Aminobutyric acid,4-Trimethylammoniobutanoic acid,Acetyl-CoA,Alanyl-Glycine,L-Asparagine,L-Aspartic acid,Adenosine triphosphate,Citric acid,Dodecanoic acid,FAD,Guanosine diphosphate,Guanosine,Palmitic acid,L-Homoserine,L-Isoleucine,L-Tyrosine,Malic acid,N-Alpha-acetyllysine,N-Acetylornithine,N-Acetylglutamine,N-Acetylneuraminic acid,NAD,NADP,Ornithine,Oxalic acid,L-Serine,Glycerol 3-phosphate,Succinic acid,Thiamine pyrophosphate,Thymine,2-Ketobutyric acid,4-Hydroxycinnamic acid,5-Aminolevulinic acid,L-Alanine,3'-AMP,Betaine,Cytidine monophosphate,Deoxyadenosine monophosphate,dCMP,D-Fructose,dIMP,D-Ribose,Sorbitol,dUMP,Glycyl-glycine,Guanosine monophosphate,Maleic acid,Phosphate,Ribitol,Heptadecanoic acid,Caprylic acid,Acetoacetic acid,Beta-Alanine,Capric acid,Galactonolactone,D-Glucose,2'-Deoxyguanosine 5'-monophosphate,Caproic acid,Imidazoleacetic acid,Isocitric acid,L-Tryptophan,Methylmalonic acid,L-Phenylalanine,Uridine diphosphate-N-acetylglucosamine,Xanthine,Gluconolactone,Myo-inositol,NADH,Succinic acid semialdehyde,5-Hydroxy-L-tryptophan,"1,5-Anhydrosorbitol",2-Isopropylmalic acid,Ureidopropionic acid,D-Alpha-aminobutyric acid,L-Arabinose,L-Allothreonine,L-Arabitol,Methionine sulfoxide,N-Acetyl-L-methionine,D-threo-Isocitric acid,3-Aminoisobutanoic acid,Itaconic acid,Acetylglycine,Glyceric acid,Glycolic acid,Malonic acid,Pyrrolidonecarboxylic acid,Threonic acid,D-Xylitol,Valeric acid,L-Alloisoleucine,N-Acetylglutamic acid,L-Alpha-aminobutyric acid,Beta-Leucine
50518-2819M-1,R,0.5847121564874227,1.6077440008402728,-2.6434202431656715,6.047193347707497,0.9450434002770591,-5.215744796741521,3.013091406638221,-0.5609173977143947,-2.3377324312288135,-1.8355816971508756,-8.690629001194743,0.35992656222509767,5.238348301822717,0.22162445564045893,2.8688156754204748,7.973017842595566,4.734385987014456,-1.0203538269760408,1.4413566887511404,1.9207733748965339,1.4451149130466754,1.3071189351506314,0.9933533063416751,0.7311406778383295,-1.992750096718005,0.7713965356728104,2.394420786409476,0.8453766493085358,-6.464896424654199,5.836818355167444,-4.7021691334158096,1.5891205869427336,1.0494197364355347,1.4164261288958093,2.3613455123122518,-1.94145919928972,-0.5823462615676045,0.10076935435417657,-2.5045042220585296,6.755403959745811,-4.248017807574977,-0.9506307357474197,-0.8211223631482594,1.813230373737282,4.914524614310898,0.08577207125791361,-1.0567316270925535,-0.45465534812909253,-0.585331496525507,-5.4911090344084945,-0.8024948520410019,4.64992380192784,0.9893985639340581,-0.3822078646403796,0.7815106134220324,1.2131966576711268,6.838195819359517,0.01551041829713513,6.619877086792305,-4.739187513400479,1.8932957562192447,-3.279757834476554,2.7951554707235,-2.2078233052239966,-2.907279017812541,-8.690629001194743,0.23748654707329866,-0.7158348527881601,-2.301548259241407,3.354102652294284,-1.986577742011768,2.365412806775819,5.0307080273885605,2.877586583974524,3.6534043111340724,-3.4158667147745585,-1.1587397975777147,-7.614818011309194,0.9731143934586678,-7.475823514719074,-1.2929463005595223,0.7325483502588633,1.462737447086167,1.804718983836563,-1.411812993167355,1.7184292771023502,1.7346258906337695,-3.8319264972085674,1.8767991067275056,-0.6014702069953537,0.5675506749747132,5.031027225606467,-0.47072805526704414,-2.618904117102088,-1.4253418219046377,-5.06911558088436,-1.0514164289240808,-0.07318041320832985,-1.0809506233410686,-3.9339284986265746,0.23748654707329866,3.991980720936997,3.1337058446118967e-9,-4.284584985843887,-0.3513807204883778,-2.8382644026902897,-2.4268508676251956,3.3871583781364816,-4.231118044906536,-5.56770824536931,-8.690629001194743,0.41008565953971005,1.7845390221125492,-2.571242604988715,0.8923813744238462,-3.8319264972085674,-1.156423525247479,-3.5429189572425193,-1.0566908751066244,1.8902796151982053,-0.4645063214415195,4.1147927666483906,-2.3068052765542766,6.252162905783334,-1.7618654959764835,4.144402250572008,-0.5874984344427161,-3.8319264972085674,-2.6136587492142898,-0.44547575114584825,3.4461679798018556,2.07747518898797,-0.3847122779408786
50519-2819M-2,R,0.646827783355626,0.545279424468181,-2.8900523229852983,5.987699373520498,0.893736905875847,-5.709987872618049,3.381470476071156,3.1337058446118967e-9,-2.453416491385478,-2.098668977021475,-8.75098419176463,-0.9715687386205654,5.195083724845444,1.3792465495616943,3.978867222402767,7.837105825721566,4.474831006891656,-0.6362607039909283,1.3604528691004998,1.4522569884755807,1.1709009153336827,1.9092704431680925,0.8314024154820737,0.7842440378659673,-0.8019917277646256,-1.1537416017372533,1.84370633433957,-0.024900150992166314,-5.035737023752993,5.933576351452491,-8.75098419176463,0.41551180222227957,0.33227526573317717,1.9885003033001114,2.2887621922934445,-1.656403329654165,-1.0815639511399642,-0.7171440105025185,-1.9402881223190263,6.630903559761129,-5.779491514415886,-0.9798325432960716,-0.26631086552407973,2.4805733400043257,4.899946618482164,0.6811575483283276,-0.8496097473473173,-0.7896953548285617,-0.08998449450656733,-4.592627440105332,-2.249790152186994,4.399301589865884,0.8291870267255967,0.36489713205681784,0.19067420015897293,2.398240540912155,6.221623363187814,0.6173140707649584,6.084406394444506,-8.75098419176463,2.050109870212373,-2.3332635952818195,3.338063485855907,-2.477419303897511,-3.0250464975124496,-8.75098419176463,0.45751347248908336,-0.21322003836112619,-2.0967122350316423,3.251047113735692,-2.68296098997407,2.2887621922934445,5.060104585416622,2.659733938095971,3.5852667184436577,-4.019296969765277,-1.4993474977478258,-7.494967330820784,1.518085562290924,-8.75098419176463,-0.9793138947469406,-1.0454148518947688,0.149312126229547,2.4805733400043257,-2.016634562218941,1.7256319080226052,3.212368879876804,-2.6166641451621557,1.874363222246038,-0.4685621050052211,0.6331440851890652,5.055395578600713,-0.5171260224515013,-2.221534655117043,-1.4583814544477214,-2.999480111417987,-1.5468987385617317,0.304010697889461,-0.8496097473473173,-6.327259658073773,0.45751347248908336,3.839505857257021,-0.46580045171664847,-4.8215564169568195,0.19277423720120718,-2.608085996653851,-2.842921840032991,3.2830296981159486,-3.5668710769148158,-5.361108163989282,-8.75098419176463,0.13282017411633795,2.1910267021732763,-2.3287576810543413,0.7806833273569944,-2.6166641451621557,-0.8539044275139156,-3.5882535757132215,-0.8496097473473173,2.382644202366434,-0.17993570157111602,3.698600763964886,-1.5908926409154918,6.237779480514725,-1.7912225899746297,4.544419548705247,-0.33766498853941546,-2.6166641451621557,-1.492688173511688,0.32693310745943077,3.1440794383144604,2.490159715789963,0.32693310745943077
50520-2819M-3,R,0.9257898421478133,0.4224237931508548,-2.763600041403984,5.328767722052539,0.9481949528339092,-6.8544984851872295,3.7876155026335443,1.2046872405073163,-0.8316901019296179,-2.16836456513005,-4.588917097541933,-1.070799047889272,4.441806588583765,0.10113956046182432,3.9408642018320705,7.289187231081477,3.518559377139343,-2.1759368161414416,0.5263168476470406,1.1472363928146578,1.4751857542551874,2.0138689995875385,0.046637123813281306,0.9426481644569,-1.5907971729682093,0.6987869692849253,1.0595530094823995,-1.5468279454873992,-6.090123129120531,5.84251674619877,-6.010481758173613,-0.7256125929950774,-0.4340649519551413,1.8461325849479817,2.0983975779967605,-0.6483380502390079,-0.5662083851619278,0.09109606590424082,-2.838245127556781,6.060044464570635,-4.643989772850079,-0.18485657896282248,-0.5012424897521895,1.3105933104934697,5.620608053579654,0.20760119539103275,-2.2272927351155607,-2.884762818879628,0.39094741379459624,-3.9923909482088744,-1.0082039961363514,3.4170588082131146,0.046637123813281306,2.1731228804284473,-0.6756297207339872,1.3504289014871667,6.52941110971917,-0.11706167678444304,6.223503518037153,-5.541213373848204,1.9172604993318487,-2.0021214908254827,3.8382484911640367,-2.9851243632073468,-1.756774051242725,-10.040202365084088,0.2955567524193169,-0.003664108155053465,-1.7989620693199444,2.8670530520749136,-3.314614640642224,2.137227311642576,5.7320388299832,3.516100017488198,2.9866008146813674,-2.678806925077031,-2.7527868086958343,-5.801651140322518,1.7722431075894356,-5.692619586270382,-2.055676335571899,0.7627203541227322,0.4455400869111983,1.3105933104934697,-1.24260540368067,2.4378680265102384,2.9839242746314802,-4.8224913660467505,1.7995483947839823,-2.288518351589018,0.5422338063064875,5.732147128175446,-2.2982964816693285,-2.5974678065977974,-1.9830606557807942,-2.588026699065831,-2.695391415380428,-0.2267959408444629,-2.2272927351155607,-4.275161056571346,0.2955567524193169,3.2958395660353843,0.8588522350512008,-5.542285512369482,0.15985376014361186,-2.8703856496938798,-2.636434793931084,2.882348499153036,-2.4852635839226553,-5.652577023836715,-10.040202365084088,-0.8748949567088564,2.159149128039522,-2.312961995811321,3.1337058446118967e-9,-4.8224913660467505,-3.1827242611819178,-2.825771686289505,-2.2272927351155607,2.166573637472135,0.09450117249939059,3.518667821174638,-2.8681433509735075,5.015664909992912,-2.2996430246828488,4.629173646993995,-1.1348908052100897,-4.8224913660467505,-2.6730870615063624,2.0704705497458114,3.8884997476154686,2.228820770554977,2.068158145907633
50521-2819M-4,R,1.5173102635162465,0.9249017262629659,-2.702280605251933,6.3852790347807575,0.858656812495154,-9.069684056528882,2.6662296284071805,0.5376717359243812,-2.089202022277448,-1.7466380665897654,-5.30251137093062,1.1587243107963494,5.173125630273657,-0.9491258772157999,4.056597200689089,8.279664419300236,1.772522527893363,-0.8871011287562779,1.1662887012027712,2.9599392911093902,0.46944010384319235,0.36747134815696475,0.48780293696316274,-0.03807300389102604,-2.583662782554766,3.5282002143135007,1.9774337837933522,-0.7523940604540459,-2.892328229490492,5.103135172784716,-5.699563048755803,1.1302464006583068,0.11971139208592578,-2.8676428071657694,2.1490502967357346,-2.452275659779039,0.9815442379938646,-0.1473547751974813,-0.8957054749639406,6.995365811226505,-5.1214042246340075,-1.1852037847041492,3.714384806212689e-4,2.098939838952471,7.1809340609178065,-0.05379126982988499,-0.15955455588555637,-1.571496498716799,-0.7212732449865662,-2.8011583030538136,-0.45237877754668304,3.7796920045196685,0.4422834128901547,0.1292209131269694,-0.024626478368366442,-0.11557678135967756,6.1047295559984995,-0.14274743733692324,5.6050155051435055,-3.941035493589349,2.1014968421980815,-3.059999978086823,2.1194202809770593,0.6441704115159163,-1.4464220030544532,-2.707615984686066,1.9252480662250857,-1.5950831541559438,-2.104426965465619,2.9356798583033124,-2.8365434202346287,2.1490502967357346,6.933863902754962,4.9324675560298745,3.610538310399655,-1.2560943319405096,0.915604124156525,-2.2106083706063777,1.637476893431992,-6.227983048688565,-1.2991397990349596,3.527003996984662,4.115477603587453,2.071902435792149,-0.1699595106831152,1.67018870605845,2.881173300357762,-1.3032593663623786,2.0052051683654017,-0.8999239254825135,0.6226370084917703,6.9324841597546305,-1.0238453903207994,-3.1917250074735684,-1.6706123318714683,-6.174066222965975,-1.1682943935306365,0.4730359390157471,-0.15719029894613318,-4.8559266293050936,1.9252480662250857,2.414980395272023,-2.3664686608536645,-1.8484437189222234,-0.42792105855761314,-2.815646559904736,-0.272851792208303,2.9838851008993337,-2.449064821618032,-5.620875034754705,-9.069684056528882,-0.1262160486858517,1.5907906959630846,-2.272251395337747,0.5306934978778562,-1.3032593663623786,-1.3287059694066143,-3.7497405412020126,-0.15645156313996025,1.6850494930327111,0.6113937310389425,4.180788644942663,-0.24386824545804042,5.7231257430246325,-1.7505178683215383,4.482098152969181,1.0244846408758141,-1.3032593663623786,-2.541901940882631,0.0012143422790257537,4.63790098816925,1.885685813397913,3.1337058446118967e-9
50522-2819M-5,R,1.7935974609007275,0.46012354193754673,-1.6972075586104869,6.3105840200778305,0.9208060028953436,-4.3943456650714445,2.9576847752329294,1.4408055454714306,-1.2543097590032382,-1.8925781348549884,-5.139315581070145,-1.0309447621608256,4.9644684107223345,-0.47420302316130253,3.4093461533319216,8.18859527038512,4.413735267395418,-0.7689713894738158,1.4017832811251558,2.19019952275507,1.4789035261206118,2.171838721057618,1.1617699674613187,1.4902681147883516,-1.6136306339439157,-1.496866490694915,1.9025161288016788,-2.4911400588992922,-4.485179200735242,5.886076264289394,-5.043002400177655,3.1337058446118967e-9,0.2715155391615734,-1.571581875686964,2.1649447057990665,0.04262903521571591,0.9337081112208161,0.7925892352212631,-1.2665606505376608,6.977645603334531,-4.947963587726886,0.05092502155283376,-0.6611994199670722,2.8293889058078276,6.336809364675509,0.1267475325549553,-0.16953635132989642,-0.7739348464225463,-0.0038982514974283972,-3.601999162974496,-1.4133082947547333,4.109207466898303,1.1617699674613187,1.4387184982759693,0.6283783568180831,0.7087474234289002,6.860994087200372,-0.5384028578363319,7.319122654497559,-5.986897296665919,2.3793162465426416,-2.156937243276615,2.6389231779971616,-2.325180646813691,-1.3758687118125115,-4.528890544032576,1.4522201086679367,-1.5441590915971044,-0.9633373831789199,3.088675181352216,-2.1747077806719814,2.2425111835264913,6.114929025751771,4.02975921163915,3.587678629028337,-1.6394520315871262,-0.9966108198652796,-4.811067590439218,1.7842496037893107,-5.3939372811423105,-1.4275103664432147,-1.44927595342099,1.1417851366513634,2.8385720065807654,-0.24400500885917373,2.7968178137024875,3.435749267275498,-2.999692237827915,1.9683762070695343,-0.09967608542985228,0.9034722511573744,6.113617720945726,-0.7200243892358564,-2.8254427351224267,-1.6182710680300332,-3.295242378385627,-0.8961963531163389,0.9904184056696672,-0.1695687845620582,-2.7710858123423723,1.4522201086679367,3.747828339862537,-0.7169559515578015,-5.073912035581597,-0.5175436853517237,-2.5314184538277673,-1.614483942715035,3.100461043913725,-1.4875642443399417,-5.918440905297755,-9.132415625404056,-0.15257139686363028,3.180182717128886,-1.7761636691316134,1.1198994982085075,-2.8952393923948345,-1.3909777044994576,-2.8494547091058946,-0.16950391882684965,3.171383202034858,0.9858948709908328,3.8400725816304697,-1.3190640433548841,5.830919322097081,-2.0063773853436464,4.696676023220424,-0.6980104381589524,-2.8952393923948345,-1.1345210046715528,1.408481436845633,4.264989789569277,3.250898203511472,1.408481436845633
50523-2819M-6,R,2.2648444851541707,1.1350310464742108,-0.9500719786713627,5.444820869024736,1.1838226713985953,-5.673641749479822,2.426665629675607,2.2044871050402777,-0.5934005702691537,-1.384732470944383,-5.253491650229163,0.1497237937493733,4.916818360842341,-0.6051294387129021,3.8217142025213446,7.9472446590840295,3.7404483110001894,-1.0491036282596713,1.1736200497704117,1.9379914589949412,1.5120471198099623,-0.282937210025813,0.20467465572412696,0.03239980459609652,-1.8139665055329164,1.9123118750816261,1.4974203652221105,-2.9393810912633715,-3.6771681713813615,5.691730952043138,-4.4563694009330455,0.049114872607677044,-0.08833763100150042,-0.8311698258915869,2.036485807061651,-0.2090888215546471,0.7312317707814091,0.6205964566854809,-0.7273987640240822,6.744721886922284,-4.5256043786170475,0.2646056944416165,-0.9751564766922641,1.582587670776163,6.5009021965662175,0.3460781235960159,-0.42911755402702095,-1.137746809524466,0.6440717611964675,-3.81416768189866,-0.5293000945047636,3.73975039738944,0.20467465572412696,-0.2996670914148422,0.11196704335655328,0.6944852028194587,6.705188778799698,-0.48900472218951363,7.160265141174592,-4.880278314438164,2.601905007599569,-1.9554471558816124,2.1648554128143456,-2.666977959486461,-2.2007733896509274,-9.461209401597667,3.6228717055133037,-1.0386382124421323,-2.2535691001233404,3.161778244382618,-2.8456629880742983,2.1383825221952186,6.335687561824936,4.124380563372357,3.5547101938221783,-1.271104295702052,-0.8900093550457421,-8.46237726935183,2.01495416681677,-4.774836829868744,-1.9788684312153881,1.9085765077190964,2.9904028486391,1.5739178856726854,-0.03305024234374055,3.5788506676365452,3.645340660494784,-5.466646314998718,2.1252698708847007,-0.6523308114005235,1.0596831406020442,6.332756369086212,-0.4704368799256119,-2.339996003401854,-1.7830303274489012,-2.7521635471612877,-1.526884081924634,1.0298485903429577,-0.42778940410459865,-6.229026760539174,3.6133265795709932,2.80158708225469,-1.9042640999227811,-5.662361647168401,3.1337058446118967e-9,-2.938471771342604,0.32772227988970526,3.184677354119087,-1.3956711836768643,-6.628450248127917,-9.461209401597667,-0.44053952564699506,2.5352961108099863,-1.573483045625796,0.15546034115604435,-5.466646314998718,-2.524857251684384,-3.090445498231017,-0.42747556279997684,2.4950915829435805,1.47970342694813,3.934574263171949,-1.9685766773454287,5.482876725176602,-2.620155069206456,4.627977781836781,-0.8204097958523945,-5.466646314998718,-3.6006034667921387,-0.24031903470196142,4.3664452865541135,2.6530520445225605,-0.35573977134670526
50525-2819S-2,S,4.263749877591997,0.6481951387140763,-1.5269466156895488,6.009939397908673,0.8488980315456546,-3.422186974075505,2.5842818089397768,1.4591285228523672,-2.1538592698166026,-1.7191803508389218,-4.700434913463151,0.372627995086986,4.962810573915992,2.9180590079452697,3.444730512471442,8.014960148533234,4.1055187755510465,-2.1980064708936973,1.3007563686573542,1.9233821375480538,2.5637765986888073,1.7035601041869186,-1.4085378438494867,2.3517158420982858,1.0533661902662146,-1.0399315026729976,2.2209176524882492,-1.2147059001445308,-3.609526735854828,2.8355087655343367,-4.176631136215723,5.268667369315699,0.7840075944593438,-9.969510799016506,0.21134133251689846,-2.1165807575548534,-0.8184712621134625,1.2300014351634967,-0.5178099580092612,6.9334323782226015,-5.483476441040532,-1.3093040958822193,0.22536616952682353,0.6862236034677401,5.947095155527901,-0.18090430747316255,-0.9562884338721905,-1.5504774183216259,-0.696356931941055,-3.789862785468447,0.11567165434429433,3.616679755156803,-1.4004309966568795,1.0381850940898576,3.1337058446118967e-9,3.9902958887207656,1.9544783453460302,-2.363722114814219,5.298622224678884,-3.6501621354575344,2.6614566403356688,-3.5037549888171795,2.304710761080984,-0.15204039988921833,-1.548888841505849,-2.256581768193827,1.7087098412428394,-3.739478921864787,1.0608360864763782,3.503263287226984,-2.9932862452030693,0.36513084340057106,6.027322064474712,3.357936750554103,3.6549187564033074,-2.2028092645291992,-2.9499017422376244,-6.78141581607292,2.1480489415981916,-5.548119797505313,-1.14618702168526,-0.9877408719563509,0.9880855165222584,0.6862236034677401,-2.12957008465763,2.804399645047575,4.023029443563753,-9.969510799016506,0.49422065676056043,-1.699346100817162,0.8779685492791246,6.029246767264212,-1.7650630716108273,-3.0825603839545197,-4.225443510497309,-3.02897592272476,-1.7592677541098827,-0.6132700229273569,-0.9564813009175813,-3.343920809639995,1.7087098412428394,3.9128968378224287,-2.7497053881995774,-1.5412066161945346,1.293913118770085,-1.764542729197814,-0.7408166180356409,3.517117849351942,-2.024291432127666,-3.5779704455578814,-9.969510799016506,-2.360048990163594,2.63665711243416,-2.6778456074077632,-1.511378062908568,-9.969510799016506,-2.126118266519596,-3.2775544388367397,-0.9562154638754551,2.6321057281361435,3.417786581044845,0.6510069065931441,-0.8149084019753818,4.944558210952987,-1.3712981254461307,4.533876971882847,0.8997062056309214,-9.969510799016506,-3.211740957710294,1.0057707216114824,4.82661185673267,2.718504391432083,1.0057707216114824
50526-2819S-3,S,4.171198093734982,1.4286066365379646,-1.2674934779512337,5.58952872585443,0.6793996008165609,-4.909959562821894,3.0702833341328875,2.765162575496596,-1.389021866525373,-0.1147241918483298,-2.684947277803956,-2.211680805226209,5.449381723286073,2.617539765333978,3.6571041606356314,8.24281295782318,5.222979746906128,-1.9067692645847132,1.8359378587263473,0.9187674719154225,3.444802941560314,2.4163862429257534,-1.1115790747766325,2.677021736327889,0.9178773073256866,-0.07175158892300149,2.3500398044708315,0.3746090108822995,-3.6245596996053355,5.6489775227478844,-4.5058567999844845,5.845740201839622,0.7270791015401076,-7.687003976177918,0.6052798427238757,-0.7667882129171807,-0.7412902682953241,1.7945688394791157,-1.1908827903212098,7.086441597304598,-4.860706060065496,1.010049486717648,1.7951717181693432,2.01656253238061,5.358777774533938,-0.6438599232801465,-1.8028881764068958,-2.2344055123799214,1.0075350517789197,-2.762180132549397,0.25099477415170723,4.164121429251246,-1.1115790747766325,2.519548741789523,-0.02320272187095752,3.662746289081854,2.8959452871979945,-1.3875456851760342,5.592942776677903,-1.7736389464622562,2.952732339500116,-2.49109984418309,3.0626825990639945,-2.9045027856147625,-1.1841378931108097,-4.333357688565462,2.5220448367464927,-3.3715530136592293,1.5718243198344752,3.817821342006707,-2.873696247814356,0.7454123613433853,5.349339133503039,3.5761236905055465,4.124123999311806,-1.1545487803828243,-2.4033338584725814,-3.807997140905038,2.2243135871776287,-5.146676342179066,-0.8983298947777026,3.1337058446118967e-9,-2.1270191717333846,2.01656253238061,-1.784093107712869,3.367642466701343,4.046710602925426,-6.980169177273794,1.1652892109156447,-1.818471409591477,0.9675134721693047,5.349775769662668,-2.05334065296721,-2.511811426941271,-3.5861407958876743,-3.607063857433109,-1.9968969525240825,-0.6887459225194177,-1.8028881764068958,-4.637203265917551,2.5421993395478357,4.137207888821318,-4.107920341330441,-3.6723602499549504,1.0920089885943502,-1.907300955106344,-0.0056123873453364104,3.84020115698927,-0.8943599279074571,-2.6768662911060694,-9.74043928665009,-2.3632461499374804,3.034506683615471,-2.5567042408361407,-1.2415987677802356,-6.980169177273794,-2.162361681634211,-2.747824842414232,-1.8028881764068958,3.0493520255510016,3.3228102642830772,1.6534852595626248,-1.9805547333008053,5.336865587686526,-2.3007680580165712,4.410082311263155,-0.017151748276535886,-6.980169177273794,-2.8484945999037974,2.493400464096156,4.586206914005244,3.1199457369047794,2.493400464096156
50527-2819S-4,S,2.34639498417219,0.9630409844968549,-0.6708920895627603,6.498620847261871,-0.9694372598175387,-5.648919346619261,0.6628385820969358,2.2039460238702255,-2.485698670102115,-0.8145927735761923,-3.770711989262612,0.18229195352681882,4.9397441518079646,-1.7352666397424095,2.065961416241276,7.307620691144699,3.661708687515246,-1.5959182068984814,0.6233013079339831,3.3255720485054465,1.9458826686614419,-0.7962184318822497,-1.2203598435199128,3.1337058446118967e-9,0.4019501491850521,2.1658009705485344,1.051469703133894,0.80447859597427,-2.1517182468819134,2.5865929832228716,-5.57251504895792,5.5085025124221,0.9631043857290884,-7.277753455277578,-0.98150412335989,-3.304578340206081,-0.21509800683053323,0.597056516068066,0.9520512540154391,6.089674213718853,-9.969187135278828,0.3787964097944716,0.8897821102176994,0.9432776061249916,5.325546452958506,-1.2378258922036416,0.3450460167246757,-1.8036517005084614,-0.24842198577656743,-4.307580458575946,-0.12139359626451045,3.7504700287600414,-1.2706282089977812,0.16715243252807135,0.4432090142531254,-0.4634511193015114,5.017758146275255,-0.7966851014713328,5.221214424827363,-2.003502558996203,2.61453096146042,-3.5143800864464136,0.32893678556248207,-3.205256875334933,-2.9728239912580388,-1.9880391670152964,2.799259227454018,-4.1505954455405805,0.621173437472958,2.0676551717392218,-2.361296961629352,-0.98150412335989,4.426890232468165,3.6156238727009815,3.523950454777374,-0.38555371144131745,-0.15213624719577204,-3.2872409404308796,2.436413624704739,-6.498841209166785,-1.9992639234837206,2.1729038007835166,1.7072907623131788,0.9386786595422657,-1.022137163836077,1.902175786451349,3.0720336130869277,-3.9477091811429257,0.3007848285642308,-1.5378824778850264,2.611784066283298,4.430666320665255,-1.953453187420198,-4.766498962493277,-3.155998737776688,-4.463045832786579,-2.1975088375865095,-2.1745592373756706,0.34513274390661586,-2.662982799888631,2.799259227454018,1.935942574004984,-7.8138482422477855,-2.979272106404172,1.0605802999372005,-3.021564107273768,1.0878753031775592,2.11932325982473,-3.502546511909775,-4.825157838853578,-3.4408186712380586,-3.6200628895279117,0.8536608340279356,-2.9200936849041685,-1.3790851032996687,-3.9477091811429257,-1.9846217058176174,-5.0787317507617775,0.34531887245111614,0.9226289245380247,1.471386588748481,-0.405907651723443,-0.0858155252509156,4.9978811572391235,-0.2219352664514428,3.159937587435379,-0.07138194286642019,-3.9477091811429257,-3.7381854107146957,0.1237461186746345,2.2978349241660796,1.0327444689560912,0.1237461186746345
50528-2819S-5,S,3.838369217472296,0.22684565905522497,-0.5561592113286102,5.965764115246995,0.040703232961636984,-5.0859825285115345,1.5927526572348405,1.611313783707663,-2.6305919110841445,-0.41507815814128274,-3.399221575727396,0.23225415929507182,4.821348384009117,0.07001340999238116,2.1784462258982566,7.637044673148164,3.95741899941303,-2.1535214456308367,0.8944010798229544,1.7360325089875257,2.8043019044633435,0.06784893898530285,-1.426961975089663,0.7678294993691155,-0.7158306112150028,-5.5309433371470655,1.8055006209309272,-0.8537646056438061,-2.407276465412923,3.128081835906486,-5.153527588719001,5.05646168098151,0.9899413755733129,-7.927946824971206,0.11618640421127903,-1.9560586836128069,-1.0331946958412812,1.3659044254789094,0.5194092551001834,6.429912059810687,-7.790575576183855,-0.18822722966249755,0.5990072877816726,1.2057364480080965,5.522998347023428,-0.33897221501774033,3.1337058446118967e-9,-2.6769507936598713,0.2752013194491224,-3.2125146036286134,0.27211784593926375,3.6191326523633442,-1.426961975089663,0.56047654337639,-0.0021703678141417673,1.2828655082498797,2.021062990823795,-3.107067555703361,4.615087848628802,-4.332979925236166,2.240926117928931,-3.141879014681588,1.244085970868404,-2.4303979607711326,-1.9732886237786529,-2.949578008478206,1.5826812631331355,-3.9401839720769813,0.8625009953976744,2.4236602333710997,-2.821443328186961,0.23489035651877507,4.982461095965015,3.035468574283268,3.4049490866868632,-1.5445469824481919,-2.3661522140246873,-4.6658530203589335,1.951003655341426,-5.991675211294207,-1.900357355848319,-3.5672558710757083,0.10127774822597338,1.1997839438940476,-2.101540510237537,2.107964418030278,3.5471031762991916,-8.135860118783977,0.029093349130742296,-2.3497534346552102,1.2661837334799018,4.982467956153721,-2.642250738618559,-5.454063426275998,-4.452929528806846,-2.8329869997743806,-2.637083946979647,-0.8215472766166954,-4.835260058316391e-4,-3.4593273245010403,1.5826812631331355,2.653116741471873,-3.421922725024738,-4.281329104205187,0.6880025544230971,-3.2465013123068287,-0.2514735727592934,2.4519291731722657,-2.2444661340080994,-3.9627614683960246,-0.2942812126604116,-2.8077750228475025,1.760401713700994,-3.112195980495949,-1.5311654590451804,-8.135860118783977,-2.3153891989322752,-4.940147079805764,4.0666421161515934e-5,1.89509122201267,2.9335152843356713,-0.3220218458266239,-1.6807120162718405,4.880265970393201,-2.2492914560989776,3.9210013031521256,-0.7656472450398979,-8.135860118783977,-4.73943693652321,0.5508505331884792,3.314508678663152,1.9594057142753893,0.5508505331884792
50529-2819S-6,S,2.489576065840156,1.2735096474156935,-0.2806745850692277,5.6105644949979405,0.2219815579817588,-7.229066788524654,1.1382229157929897,1.8433723718325392,-2.1143824823783555,-0.6292756725428444,-4.540876286236544,0.0016127755032261705,5.570912754587921,-0.38586218517744797,2.2854197242289147,7.729241606291772,4.801105412119378,-1.757511036508424,1.3604928761180008,3.003771683717108,1.7544707679873883,-0.9485981049900456,-0.3264275265217598,-0.14617759601072552,0.7111168814188655,-1.9985979761462298,1.2806615252149347,-1.8179946182932805,-2.1289499165374246,1.5645597128942512,-4.847617833851192,6.143589096498394,1.599057892209598,-6.174305371363322,-0.44406334636669925,-2.9536697054425,-0.8568828631594054,0.3676746860132514,0.796495444665218,6.545748856303676,-7.13127929191105,1.463511187137643,1.350993109558208,0.922769983682846,5.460121684833225,-0.940833076447491,0.8453127707312403,-1.1229449130248974,0.1425324988855752,-6.371220480994709,3.1337058446118967e-9,4.078017184177422,-0.3273513197051713,0.2450084091572647,0.6828682257276046,0.7949890942739822,5.9542619770228935,-0.1772755647095177,6.115392373699228,-1.5935112601194705,3.093474439098739,-3.106681055345801,1.053247373924089,-2.9896967522748334,-3.228167403325972,-9.348153833427109,3.3821680687509588,-3.5450733337924536,0.4789819929630997,2.8229706219963013,-2.314651762430544,-0.3605458314891198,4.7251225035176425,3.510889037170036,4.182581488738192,-0.7035659678851718,-1.1427795144735107,-4.311607376563045,2.1482076261572716,-6.855941855916059,-1.63999059349745,-1.6934269303893972,1.5256783282134938,0.9174105422217488,-1.412610732721022,2.4811697328571523,3.6461196807476424,-9.348153833427109,0.6735698756865526,-1.0244819944301313,3.1647072255818216,4.725593623675117,-1.5987526759153232,-4.053841361931077,-2.691100227982356,-4.898541578988601,-1.1565399851680607,-1.718698227341651,0.8452989528941398,-2.8137117327344496,3.3821680687509588,2.088808402552187,-3.1211525394515225,-4.351172188304119,1.2059716613774494,-2.7530689851070815,0.5054790330070176,2.8756378999182606,-3.688403535160406,-3.7333161344160493,-9.348153833427109,-3.071959776309776,0.867040289137799,-1.8177174560793052,-0.4474390354473423,-9.348153833427109,-1.7826162516154094,-3.5043119755067966,0.8453634350016922,1.0236848235706992,1.651943722513438,-0.2029591265145,-0.712969422182437,5.615996747213203,-1.470334995894318,3.923329160083781,-0.04122313913334799,-9.348153833427109,-3.6702221961170167,0.18562613617688178,2.749717096156916,1.1149962184538709,0.18562613617688178
50629-2819S-1,S,2.675039933982882,1.2724805060157207,-0.9630796680599825,6.494871569193453,-0.6704076326314711,-6.21446664372014,0.9829001747615109,2.8777283670373923,-1.9765023474509178,-0.7151604186911465,-4.641651963637629,-0.23250533921745054,4.830801870251856,-1.6641546682098913,2.109663978641359,7.486580846342666,3.267661427186085,-2.3406390397748944,0.6558440695980456,3.168655575449319,1.5465850886989108,-0.9775522865565939,-1.513656202291267,0.16870566013615126,0.3104562565825633,-0.5226712706298784,1.106693156621655,0.8353195050426154,-1.967225169171651,2.7734381661370198,-4.985617249297602,5.576483687746161,1.0916031490187825,-7.0981720260407215,-1.1194906575906822,-3.0790112496184574,0.12644513577362632,0.7172132752181122,1.203489861797369,6.289660141552757,-9.015963147347039,-0.6048311262611422,0.79929585401362,0.7108144089663297,5.661937369136615,-1.3210075384383912,0.7218260749105564,-2.0415105483310803,-0.39041489909051647,-3.610005345010908,3.1337058446118967e-9,3.949763416809918,-1.5036694387239276,0.2872208017956675,0.34135256834740785,-0.02863174664980678,4.88552879092417,-0.8008965292866279,5.300460168718062,-1.4549676993260543,2.675634268828768,-3.369900350485055,0.7041801194924965,-0.8202949653006216,-2.0310872268735363,-1.4778966839281926,2.9965345496084006,-3.535238553512097,0.4219003355095085,2.212987112980274,-2.316563973487702,-1.045934835248126,4.991209817160798,3.9681446707408186,3.5096197744655635,-0.18005438830707102,-0.062294301596614976,-3.007931647833706,2.4011459515574116,-5.540170078810918,-1.958075693104863,-0.5150433626646507,2.386711595172371,0.7108144089663297,-0.8481549054994939,1.507074738938458,3.740876585964753,-4.238122495467404,0.6592031670961432,-2.061703308614784,2.739884515510518,4.991248260870254,-2.1685506367654903,-4.042898321990169,-3.555713477939043,-4.80808730161023,-2.3581659399738704,-2.205288532084828,0.7214171875284939,-2.978642434144653,2.9965345496084006,2.0519695617889364,-7.365115370267977,-1.5885924914878824,1.0546215598654491,-2.4582268962622518,1.3593731253969024,2.2957195197846523,-2.1923172598892107,-4.246407562182791,-10.063603337908011,-3.628742698430736,0.7389091000463773,-2.5626534135860974,-1.6078416595473934,-4.238122495467404,-2.216400127326107,-4.981319265676446,0.7200981938455854,0.7396054090902082,1.8600547133178822,-0.04204151725475774,0.08690390316222321,4.725041542956496,-0.08083571066196378,3.118941941575365,0.7753683418189585,-4.238122495467404,-3.3105105029978192,0.2176085456175239,3.211899766841427,0.978127583814796,0.2176085456175239
