Sample,group,D-2-Hydroxyglutaric acid,D-Lactic acid,Oxoglutaric acid,Adenine,ADP,L-Arginine,Citrulline,Coenzyme A,L-Cystathionine,Cytidine,Deoxycytidine,Deoxyuridine,Glucosamine,Fumaric acid,Gluconic acid,L-Glutamic acid,L-Glutamine,Glycerol,Glycine,Guanine,L-Histidine,L-Leucine,L-Threonine,L-Valine,L-Lysine,Mannitol,L-Methionine,Orotic acid,Phosphoenolpyruvic acid,L-Proline,Glycerophosphocholine,Taurine,Myristic acid,Thiamine,4-Hydroxyproline,Uridine 5'-diphosphate,Uridine 5'-monophosphate,Uridine,3-Phosphoglyceric acid,Gamma-Aminobutyric acid,4-Trimethylammoniobutanoic acid,Acetyl-CoA,Alanyl-Glycine,L-Asparagine,L-Aspartic acid,Adenosine triphosphate,Citric acid,Dodecanoic acid,FAD,Guanosine diphosphate,Guanosine,Palmitic acid,L-Homoserine,L-Isoleucine,L-Tyrosine,Malic acid,N-Alpha-acetyllysine,N-Acetylornithine,N-Acetylglutamine,N-Acetylneuraminic acid,NAD,NADP,Ornithine,Oxalic acid,L-Serine,Glycerol 3-phosphate,Succinic acid,Thiamine pyrophosphate,Thymine,2-Ketobutyric acid,4-Hydroxycinnamic acid,5-Aminolevulinic acid,L-Alanine,3'-AMP,Betaine,Cytidine monophosphate,Deoxyadenosine monophosphate,dCMP,D-Fructose,dIMP,D-Ribose,Sorbitol,dUMP,Glycyl-glycine,Guanosine monophosphate,Maleic acid,Phosphate,Ribitol,Heptadecanoic acid,Caprylic acid,Acetoacetic acid,Beta-Alanine,Capric acid,Galactonolactone,D-Glucose,2'-Deoxyguanosine 5'-monophosphate,Caproic acid,Imidazoleacetic acid,Isocitric acid,L-Tryptophan,Methylmalonic acid,L-Phenylalanine,Uridine diphosphate-N-acetylglucosamine,Xanthine,Gluconolactone,Myo-inositol,NADH,Succinic acid semialdehyde,5-Hydroxy-L-tryptophan,"1,5-Anhydrosorbitol",2-Isopropylmalic acid,Ureidopropionic acid,D-Alpha-aminobutyric acid,L-Arabinose,L-Allothreonine,L-Arabitol,Methionine sulfoxide,N-Acetyl-L-methionine,D-threo-Isocitric acid,3-Aminoisobutanoic acid,Itaconic acid,Acetylglycine,Glyceric acid,Glycolic acid,Malonic acid,Pyrrolidonecarboxylic acid,Threonic acid,D-Xylitol,Valeric acid,L-Alloisoleucine,N-Acetylglutamic acid,L-Alpha-aminobutyric acid,Beta-Leucine
50554-2986M-1,R,1.2927892702696584,1.0348218604158244,0.38075608881990464,6.017185843189834,1.808893381584909,-8.936967282397562,3.2759692903406523,-0.38330974417007435,-2.5953345643155514,-2.8676191724979074,-6.7570494039177404,0.31121244374053814,5.170141938831661,2.145607566442802,3.400217401159928,7.960698990173013,3.2021429017912646,-0.8320619445699332,1.1810262674809704,1.3985300309948683,1.0636089170755278,-0.6029165120922917,0.9562659301957724,-0.659236088347304,-0.4669949775638492,0.04502451038441722,2.0298819246100814,-0.5141481418120808,-3.796270252027369,6.00766685744098,-5.02768044351257,0.6670909422096457,1.9954989383059513e-9,-0.6799442943228009,2.6423247720241547,-1.710264869786011,-0.21292009439153514,-0.21353221910475395,-1.8881782690196052,6.620823404144388,-4.66726581564624,-0.8165281578175356,1.006817906533153,2.4696979434306887,6.699043040438511,1.0913114270211128,1.6608249931846386,-1.4946426758578968,0.18263853145272166,-3.2817736915619258,-1.2797559353517718,4.149672825696656,1.009937620816923,-1.6415726310430117,0.5416686970576045,3.260270642500951,5.865022386428688,-0.6948513116277036,4.650881119096972,-2.0640428014483914,2.2372713552808285,-1.7908363681509416,2.9220017277914256,-0.18747391884625117,-0.9053726351715824,-8.936967282397562,3.097288637132722,-0.7469481365443807,-1.3057902361115854,3.192154098490342,-2.4967055158942357,2.6347222481051036,6.127355547785147,3.783393665922558,3.475498014094294,-3.2751025677489967,-0.6474881575083831,-6.79441328079251,1.3582750374878987,-5.726458034168946,-1.4294149988990363,0.0656258667844368,1.8219499728257638,2.4652466323202664,-0.8739457671531385,1.7102369881624313,3.184349436000151,-5.0548471522138,1.537009813543236,-0.6758350395215348,0.15528080882740955,6.127093992328946,-1.179304438517392,-3.259585301310111,-1.2717521513242127,-2.033255220699761,-0.9738213233228556,0.37898921959480114,1.6503308163890307,-3.4440960190492014,3.097288637132722,3.248970154790539,-0.12876814697655262,-3.4653838916547564,-1.2636076326480423,-2.6629759331907206,-1.8167606413635686,3.221561646776847,-4.9922360641161445,-5.309531312838687,-8.936967282397562,-0.11122493131147744,1.6116848012874245,-2.198704070818253,0.9580733751898772,-5.0548471522138,-0.7820231540682475,-2.8349925336553516,1.6603204515478618,1.8650862735945968,0.18935907506456634,4.913704122200744,-2.307055333663146,6.190396243960665,-1.1466308135037977,4.221356433859427,-0.8078940396554508,-5.0548471522138,-3.005692831260131,-1.7568868243438753,3.0014794918011125,1.9686515440913994,-1.6427744048221222
50555-2986M-2,R,0.878753934859571,0.4280328923077275,-0.7820222908570895,5.561269945362659,1.3243604143767183,-9.136794435524386,4.004116845141028,-0.013537585653046316,-2.6643014866003694,-2.058375813146443,-9.136794435524386,0.4730253421215762,5.11636011194854,2.0324477600080226,4.0755861477902675,7.664002030992429,3.231653640241867,-1.2556296524569077,0.8682186220426407,0.6936464668505485,1.3512504096502578,0.06000567963135855,0.7680135180815294,-0.15954251295269345,-0.028726597950353757,0.7640603247553543,1.7940879818271398,-0.7419027817555233,-4.103036154596305,5.891898940349006,-6.287920474949775,0.1665330317907458,0.185874123920629,-0.08371159962237883,2.5315301230991913,-1.2582158458639146,-0.6614586775875894,-0.13494309764375761,-1.7624849304092698,6.417962221543228,-4.194144610376931,-1.5944023041435222,0.9419706395846857,2.8259384937552614,6.604946523231352,0.871334167975976,0.6994109731170844,-2.087873460181285,0.016222186452751485,-3.071096112908925,-1.8281779270383203,4.282649884288099,0.7680135180815294,-0.8404463937094249,0.1336040680438513,3.1183390684390524,5.962959873486426,0.4910475871879255,4.4942093546978,-9.136794435524386,2.011563956095138,-2.130323611660247,3.7833840039414928,-0.8377481255663382,-1.0959980328409122,-9.136794435524386,2.1866410945954637,-0.6620116534350758,-1.8595290178988746,3.2802107231261606,-2.8033143761731094,2.5264545174231516,6.106656575234652,3.2769609718420876,3.4519144644765887,-4.199237198863538,-1.1777715667419009,-6.650536046659098,1.9064040226282102,-8.00347388687165,-1.5285762102754796,0.7387113093855552,1.5011866225072852,2.8259384937552614,-1.6119902429588553,2.0101013807176904,3.3624711178503954,-4.920629371603679,1.5689755030004504,-1.0405467604695589,1.9954989383059513e-9,6.103858669523467,-1.4114666454076739,-3.4186425722920415,-1.3468545900781275,-2.1195465825381845,-1.723806870236666,-0.21923798716035353,0.6993225079992188,-4.041265425322019,2.1866410945954637,3.5578790385894297,-0.19289135168119348,-4.438335200458082,-0.5700287412220907,-2.5715791572400635,-2.865710719860966,3.2748194210985315,-3.48818727526895,-6.764086877740478,-9.136794435524386,0.32365468050726987,2.462738715799793,-2.2498332720710317,0.686157589273408,-4.920629371603679,-1.4166856006100257,-2.1973040402235675,0.6995878870806089,2.5593870923488917,-0.03685790079185359,4.143914663749341,-3.1921306029219307,6.00534624212171,-1.144967635190741,4.874055251669611,-0.677068621676376,-4.920629371603679,-2.8295897650942736,-0.8993883114712138,3.2439204487796416,2.643448552314056,-0.8993883114712138
50556-2986M-3,R,1.5394996616545689,0.230734860126276,-0.7900108942686873,5.0732732491952754,1.0514755727030785,-7.851990559497187,3.207557994308386,1.800796755669554,-1.6714780280569055,-2.211147675809115,-5.553020564107825,-1.1910590280961861,4.381535207714203,0.38761340639078773,3.627173086584436,7.25009239027996,2.8442242304286647,-1.8246920404922884,0.37850026199173764,0.05553569074715123,0.8607194689838126,1.4361353620970247,0.7669256246186902,0.9584487872585105,-2.243693251028436,3.9811731359793296,1.3817887429834137,0.3263271811856287,-5.71637713650653,5.7397511082317125,-5.639733715833726,-1.1086041730531233,0.2615928774336672,-4.10727074111309,1.9124759372556877,-0.6826341179462594,-0.4977336854962993,1.9954989383059513e-9,-2.9579696330544096,5.966732669172847,-4.667781133312959,-0.6891506068638893,0.3639855772734481,1.4098121536733044,6.036923818843792,-0.06081667358923414,-0.7384050300005587,-1.5538994196216809,0.06258894408327449,-4.252839655358351,-1.8153748313197813,3.2788171150150487,0.7842382781455518,1.1328763251447715,-0.553282101584985,1.6518824287143588,6.201634752389523,-0.7610063708283411,5.946816419290987,-5.830987081827284,2.0710117504205248,-2.1956621404352874,3.1341658086639024,-2.6802450637895703,-1.379024433914575,-3.4711454809165363,1.6000665333341089,-2.239903943944796,-1.4692659326199435,2.7956988650144656,-3.2174561337009826,1.9290923695491626,5.81629276421287,4.172428354748338,3.012287044572327,-3.058859335306792,-2.055868748862879,-4.52987871693637,1.917184055555153,-5.626810351062173,-1.8763605326777046,3.9811731359793296,1.1531774203317533,1.4098121536733044,-1.561601476468462,3.1438592914327934,3.0248118156924515,-5.288695138608571,1.1559956550234622,-2.064032211076635,0.5516256754300124,5.815247420921467,-1.8676728851119249,-3.3976433711774576,-2.4860202348658538,-2.927994031118721,-2.064063617820923,-0.5548296022488989,-0.746098282604908,-3.596153945206556,1.6000665333341089,3.336264722464649,0.8249881572303429,-4.835059372480884,-0.7938166905135102,-3.1743956407525853,-1.6120077095982548,2.7888968400490572,-2.321384870610332,-5.463803105682385,-3.3256454880113826,-0.3312224613391211,2.5903692676009276,-2.511304635127817,0.7431970457157301,-5.288695138608571,-2.8813694943293644,-1.0109697145930674,-0.7386013528315695,2.6508818239662224,0.6503383941833403,3.7199098069449286,-2.6787694891340617,5.015593153519749,-2.3074997048800623,4.349900412724965,-1.0435547172328328,-5.288695138608571,-2.5386829856612967,1.1246214837381387,3.446859328612496,2.700338608561127,1.129794014671008
50557-2986M-4,R,0.7496407821611476,0.8702183363205344,-1.916044924709347,5.655178115924099,1.2758942361621115,-8.354148991938969,2.8156313729410978,-0.7193515124390353,-3.0061142457403722,-3.955574564495202,-5.459563714716106,0.6571807146662719,5.138447844520004,-0.2668403538047524,3.7061946883400863,7.602521103550535,1.5510215122130582,-1.4454061371674816,0.6683058788920959,2.2705540239823763,0.3301172358923835,-1.252880278676567,0.4603739988657333,-1.0358853268575943,0.07221168383985127,4.213266493480555,2.0974829615084856,-1.0638614426393291,-3.5307749370873975,5.387061579189999,-5.803731921426366,1.469110217824823,1.9954989383059513e-9,-4.238547713722864,2.555116879445681,-2.2807065455541027,0.7174354682961959,-1.039810132373703,-1.081111728729188,6.411268346597874,-4.910828581282176,-1.4437913807370133,1.880324948187476,2.4299595115448622,6.860108797828114,0.3420751707276651,0.5472147789031355,-1.3505439946886297,-1.0447651988143347,-3.5958838585071904,-1.4740639284159618,3.44217847671684,0.4603739988657333,-0.803493647780751,-0.29862918579556785,0.7981614735004136,5.531895053499718,0.15669902922403534,4.612730390293007,-3.6250179929998407,1.8157565955777009,-3.182790517346902,2.6938001284908264,-0.2822638918195108,-1.4253172381381733,-2.8139574826104976,2.6671706219037334,-2.3740895596795624,-2.0941223724364697,3.0754903329002516,-2.838765894030078,2.555116879445681,6.350572572983894,4.979095224014817,3.6137785510279525,-2.3558170117543464,0.9273269042531442,-3.09136324307789,1.92698891741618,-6.570682386173123,-1.2311115000823714,4.210703130282229,4.037176041235966,2.4224469689533796,-0.18061316708729588,1.8441810421576788,2.947444383030586,-4.122203438027349,0.8621610854828917,-0.8695378983928923,-0.17766521601207738,6.348888463996328,-1.1225179467705024,-3.004328036219181,-1.025717102558861,-3.60984915974975,-1.0507611416845293,0.6542099291760657,0.5543385744597868,-4.4887758158847655,2.6671706219037334,2.4166669928654088,-2.222327835664463,-1.0353363673894938,-0.8821026764533527,-1.6279566743997373,-1.3868535734709402,3.1144516545843306,-4.985997009134349,-4.4549511491973135,-9.353508493434468,0.874442526775389,2.037828331884005,-2.059690370576146,0.4127729193277324,-4.122203438027349,-1.5130172968647841,-2.6877121766939887,0.5473839299644916,2.1472131864346333,-0.05493637877826141,4.9366073175745635,-0.1384192332687019,5.541133593611511,-1.5313347748959456,4.878155051244365,1.5203257127780458,-4.122203438027349,-4.218008054658609,-0.8948238073899065,3.3495562507449397,2.2630318310379702,-0.8517111524906228
50558-2986M-5,R,1.3385037377279512,0.6197994255617593,-0.9695604132935367,6.033126163673822,0.8057029535056035,-7.478219445109489,2.348194626795569,1.3845332070829444,-3.8131130111787206,-2.280765624656289,-6.163620124435166,0.1283735161107248,4.451200886880768,0.05360912846418834,2.6968349054201055,7.737528497099208,3.455675774226467,-2.1141538939118725,0.9363592620966753,1.5216340166449747,0.35336082171878597,1.0374032736280083,1.5390905250297382,0.9809229880744942,-2.174217033818258,-1.7917701910209285,1.9426934589910185,-1.3975889773657442,-5.041433773160806,5.499736982208972,-5.14252982267892,-0.10488760517047055,-0.05968420449596493,-2.7094213550609716,1.8134439256494324,-0.7974545027711195,0.8781547641766537,0.7792480633124546,-1.9157160750029083,6.559906995951785,-4.917926687717221,-0.10606152693496054,0.3531493374250028,1.6235014939250736,6.459791559019624,-0.3162868600149873,0.23235630334353863,-1.3135547127061822,-1.7469785573603953,-5.294380867976307,-1.3206269969525557,3.082547873518965,1.5479130061578543,1.9954989383059513e-9,0.24881398250653922,1.281664463327882,6.260147829295079,-1.5278958012722643,6.938435488007083,-4.67989197945217,1.934749561732448,-2.892955376621129,2.2184026997408726,-0.42776400996341474,-0.7852553972402861,-2.22060879810152,2.1628751093430005,-2.176499152582681,-0.5101131833500966,2.7577598333910456,-2.565897188361777,1.7928976671572663,6.356407677768024,4.191401775297349,3.314062625793617,-1.8483576047964483,-0.8408850827308594,-3.6193526791593817,1.8539662295533816,-5.547151507756044,-1.38842072918951,-1.8539780082818573,2.3944834121873995,1.6144524799123168,-0.7285776845478757,2.2317088044610416,3.146903182797119,-4.10425327011145,1.6007693255884123,-1.1757697804986602,0.724161678444505,6.473840686811704,-1.3599720695006492,-2.7771694837570404,-2.373389767360364,-4.158294906457435,-1.7571540284097151,-0.9216189763289145,0.2731798800831773,-3.501856993484474,2.1628751093430005,3.4549042330063884,-1.286779531855933,-1.668862624663666,-1.3881543857765384,-1.9074924095032135,-1.6651190959299365,2.774426643203562,-2.0624439945381363,-5.550929680678127,-9.584887255854314,0.280226380868415,3.2122947677008167,-2.2875501254490147,1.5127718115253852,-4.10425327011145,-1.451494330542794,-0.43428220725700906,0.26797941171314826,3.194456764309037,0.5443808629738127,3.996796428177322,-0.4794417384219433,5.176294533188975,-1.8328884538489467,4.721775897603551,1.1042891716376702,-4.10425327011145,-1.3117506737226183,-0.09935173468011295,4.269649864444235,3.262218656494167,-0.09935173468011295
50559-2986M-6,R,2.0041696391501813,0.6426130299890896,-0.20352424294837151,5.3795827025109695,1.2228063981697743,-9.479917648223267,2.8346336310014024,1.309871245825144,-1.3164044446632246,-1.6035352284029338,-5.783604576953312,1.7829830282813577,5.029329665847737,0.08008650926745381,3.5941637242248783,7.809455833251344,2.187792119026759,-1.763880499022023,0.8460357331307519,1.427381357025366,0.5005064166643276,-1.0759610836527698,0.6725241971987445,-0.48014041951603115,-2.5359018904455675,-0.2859255668319934,1.9224598574183773,-2.242191443658517,-3.867932267204189,5.596786959945733,-4.6998196056897195,0.5497084363204335,0.03940596852470885,-1.8402783292592864,2.5064128639206253,-0.6434932415978812,1.3272513461298048,1.2818144272563008,-0.9696483570970773,6.5881753864048935,-4.802862038471488,-0.3304099823556982,0.9490128138868157,1.0792794657193596,6.947312636737343,-0.2003815124624942,0.7513957633686227,-2.3279256845239487,-0.24196386176955267,-3.9637181988473125,-0.022818315462102584,3.7677466402166604,0.697189461830075,-0.675242842845053,-0.2487903096010168,1.4494357039159755,5.863183367791694,-0.7381082336908427,6.054343966823861,-4.341670229254709,2.407843306969435,-2.5657764463331802,2.57618069368057,-2.431198830616364,-1.3112445857430013,-4.184648982405367,3.9580413954388955,-1.579662543322993,-1.403031659862067,3.301565998985103,-2.8686490424777027,2.510122045438198,6.895149213965481,4.837387943040473,3.568257507552636,-1.4943969522812597,1.9954989383059513e-9,-4.12082008386402,2.5437291001039988,-5.129642898115328,-1.40414985013867,-0.3063877632022047,4.012157232439165,1.0742879254368496,0.3434403928015762,2.9865572118337087,3.4481894557122414,-4.963128056137623,1.8264685545774975,-1.1820185634670883,0.7248098008183945,6.8951831696435155,-1.7919107060137929,-3.323725325932037,-2.2048110506567875,-3.2268824589221023,-1.3203760135522002,0.16253974427740217,0.7504382295718227,-4.395217705363139,3.9580413954388955,3.08561384427514,-1.6092115634857744,-5.5430939960094285,-0.37507103361375127,-2.3765008001746057,-1.474199135086537,3.311470924097863,-2.300691645115278,-5.799070251236089,-9.479917648223267,1.0844104131858134,2.618474379887867,-1.4965463061703,0.6399321819767729,-4.834921993483783,-1.964189776812849,-1.5449360686207254,0.7513576535590368,2.6802440753273014,1.113343754531413,4.623334405693445,-2.3786776244734558,5.465070509934548,-2.5290897098142917,5.175048109193871,-0.807585133941304,-4.834921993483783,-4.312883582192542,-0.9273366982936919,4.260457454953747,2.756293452657242,-1.0295471822089106
50561-2986S-2,S,3.342168003533403,0.06708602766402763,0.5376057067297497,5.534965663254313,1.1556407144798135,-4.8452433041608405,3.5789315919320694,2.5096867546206987,-1.5326663601125818,-0.5981083114107708,-3.4234264843369036,1.631894894649747,4.896144921422217,2.078242438358939,3.1398397719267965,7.7484432921171615,3.8843497968023515,-2.0620107212039054,1.0709888968134196,0.5677231803821732,2.638553742179223,1.5219938725612634,-1.1356205663681647,2.5738936569423045,0.8275153143924842,0.5587807721604049,1.3691994959136506,-1.267267741667667,-4.356099685054229,4.413714863346722,-4.2758756684410795,5.1185290999303845,0.4227134263575746,-8.00226648581222,-0.091818096403872,-1.4539851144252796,-0.6216861882423959,1.4902400639757667,-1.200028060511837,6.665620558584655,-4.4197091082342626,-0.8572429305594107,0.172310496750583,-0.4009421049331639,6.770240973205156,-0.20147118746689877,0.18433484717582155,-2.71233517551327,-0.24671702207446886,-3.542965790608425,-0.3604699267784834,3.4886396463108773,-1.1356205663681647,0.8862304733993847,-0.7534172442818459,3.1453577542059104,0.8586050603742097,-2.4344595155080677,4.625659268160932,-3.968227513121167,2.5621766956174548,-3.090042216933299,3.5921689238762213,-2.263487669505861,-0.11185162736392619,-2.0634598504302,2.2598627814790926,-3.742782718853659,1.4124356819365065,3.8522098943940914,-3.4500434186756985,1.9954989383059513e-9,6.308582771485006,4.415383637424449,3.552103248307489,-0.6464338230400907,-2.2889599092530144,-3.213800188322066,1.7936999571290961,-5.3095006760741175,-1.8629346188688487,0.5750715072122109,2.4118530801516362,-0.5187442294052758,-1.6583882309180522,3.060989088289536,4.319685365859349,-10.184817192208303,0.19652418277773673,-1.9316783453313042,1.3320652879615091,6.311206348762025,-2.6034176246920215,-4.065887462397124,-4.135670767688999,-2.374785031560867,-2.0191251931711007,-1.4971073980566025,0.1769080918820173,-3.4636531270239206,2.2598627814790926,4.248881749170964,-2.73552634368248,-3.7832486800662366,0.3168688642015025,-1.6966142147462229,-0.5453905090538529,3.8533074054663303,-1.416934934029171,-4.171307856631508,-4.564033695376226,-1.3143780964024279,3.292810725261154,-2.5760363279831955,-1.1356205663681647,-10.184817192208303,-1.8540793801459319,-2.511651820540918,0.18430228561188478,3.287736724745498,2.515871428965261,0.3661886202364912,-3.311178196180683,4.731207006587843,-2.17716368798407,4.35884458762249,-0.7230404281315221,-10.184817192208303,-3.357047770993419,0.8047851650320488,4.300001195204381,3.338461527691785,0.7761035161378166
50562-2986S-3,S,3.138240385162699,0.49289916714940984,-1.4313738516325043,5.467486934882408,0.6739887779517295,-9.922872763088485,4.183829751853138,2.0443229076337763,-1.595060557959494,-0.8715616774504391,-3.28184199149416,-3.9307916692630283,5.221356621607275,1.7477264526419014,2.6672905578177946,8.141640658578805,4.570143505877291,-2.0928461922127988,1.5494255203957903,1.1342730085680024,1.9153067068419327,3.4400408636624076,-0.8972770761273537,3.267538284405337,1.2025639570074922,2.164285313381991,2.103265401130376,0.5614811968427249,-4.5994581232609875,5.734331012167671,-4.882320903755801,5.488558630251989,0.23381062116721632,-6.1701560480611395,0.21942033898495997,-1.1689431812276796,-0.571937312331963,1.2742151122638417,-1.0219029911234094,7.043353294885272,-4.873510546051701,-1.8288790780941018,1.1792026652372323,0.4954775422627169,6.86015927771681,-1.34729716438408,-1.1513469286374214,-2.187577947864961,-0.22603010239144047,-3.4801376998118254,-0.3100375156714413,3.2409505291858034,-0.8972770761273537,3.3125258137298355,-0.43315209989759274,2.8326540719593423,1.107071256968113,-2.6695181735179667,5.1402421746906555,1.9954989383059513e-9,2.7938026395000546,-3.153925037863623,4.4293220840504075,-3.201113859959396,-0.4392371251470168,-2.3545721846795677,1.956026534054537,-3.028690543967799,1.827627186356037,3.7130845773391163,-3.2914803875300382,0.3079827153011947,6.138214742517031,4.346032698309226,3.855869457270696,-0.7255497496507672,-1.5257668589703668,-3.3757413151297917,2.2125290150301025,-4.588336209152481,-1.4451174882246425,2.1604476606244267,-2.8938034393560126,0.4725485334925143,-1.67309706080843,2.8308988957528363,4.081354202262513,-7.683713644680503,0.08768233181368872,-1.874478339179983,1.530651724041207,6.144057657126667,-2.0586250232058525,-4.593082682856793,-4.786483314709051,-4.275997772549674,-2.019538741160291,-0.8132041346493005,-1.1538202387783933,-4.30954839955683,1.956026534054537,4.726626628951836,-5.037409035068344,-4.405242010468003,0.10737132725711923,-1.0521153085998445,0.21200455026096868,3.7359558379433775,-0.20588372435449134,-1.8021995391681815,-1.9634208257665804,-1.1984692151908694,3.9660672254532856,-2.505498837778067,-0.9684988671218706,-7.683713644680503,-2.378292406868188,-1.749632601606081,-1.1518523480420637,3.9636806966911045,2.315597428619757,1.1848872703860018,-2.5897228532376064,5.005109052127263,-2.6861529904058346,4.785188823978649,-0.1284416573156721,-7.683713644680503,-2.0088915801546374,3.329243139825493,3.9768633922837338,4.010455567070621,3.315616377450974
50563-2986S-4,S,1.9522858689554037,0.7597010960778511,0.15385653058075321,5.8140745266505505,-0.22724466573001317,-8.30773760780544,2.749337805681494,1.7893772074547314,-2.3861809626901493,-0.25004119072066905,-2.6301745635663303,1.9796751721205426,4.74218523825198,-1.346088505743237,2.1999443854880423,7.489723231394266,3.8091572411000305,-1.8235362588303143,0.7908618506114523,2.1632582784705052,2.0207523016919815,0.8888939170576352,-1.1192296301990652,2.031625364312937,0.44852417558691515,2.147512296009804,0.574620090465377,1.5601313623632471,-3.18413059892274,1.6458203476125668,-5.426358423552278,4.672881810843083,0.8195003805428899,-7.692362198399556,-0.6830573287105608,-1.8822832160082612,0.16507850837569327,1.8994359880219416,0.04752616341647167,6.303063736119489,-5.977511515767946,0.031153827244171362,0.8562689366002766,-0.23354696327531102,6.397294715173718,-0.9356407604953634,0.39386723612012114,-2.3190783387262752,-0.12755871938778368,-4.033844808427376,0.7252459488437017,3.3365110473721757,-1.1192296301990652,0.5243984657664892,-0.9768831240600513,-0.026540359909141574,1.7526614599098154,-2.8251635582382173,4.011799201274616,-1.8764877132391078,2.1776778792299614,-3.851678896157813,2.7163651649418976,-3.9035352798994127,-1.6358332858483866,-0.21224317051399685,2.951503766455473,-4.333029503888813,1.5577476709344589,2.6969642795232596,-3.8597974023285566,-0.5836225303533071,5.464009139884781,3.9773685608560694,3.3641804986521624,-0.4152685718259235,1.9954989383059513e-9,-2.851018771847951,2.2675090680483008,-5.823033766478199,-2.701019016660438,2.1537134469498125,2.2316839690609704,-0.23837163598083685,-0.5911911119970978,1.7151908752185752,3.6843999714657354,-5.741497296601529,-0.033000415796665516,-2.1984211550651978,1.0511906262744966,5.465336004483398,-2.535751061950561,-4.751117473463728,-4.266837887438947,-3.2318628737059756,-2.801472916053135,-1.1989172644739676,0.41032607376560515,-4.866227442586205,2.951503766455473,3.472464090161902,-5.9232142667179035,-2.5698774431844607,0.32236574112333316,-2.934758256287976,-0.1480450655716899,2.7275073132744243,-1.0393494486597996,-3.446641183349258,-1.0262627231917436,-1.4877098563518134,2.5534750037789262,-2.8241014194013183,-1.1881403651693343,-5.741497296601529,-2.8285206399190055,-4.55771918036936,0.3948286837246023,2.5536925692747032,1.087030746637887,-0.5465090240798078,-1.7430468778550736,4.586697228843888,-2.2344171050684425,3.6497543103626082,-0.9819891446903901,-5.741497296601529,-3.0736500019528603,0.5032189913727293,3.0865001874557443,2.615357412422248,0.5032189913727293
50564-2986S-5,S,3.0142364489878912,0.44793588021682673,0.22968512773373154,5.734454784842861,0.015003382610764214,-4.952448396050336,2.685796862518215,1.9340375852410143,-2.2504730765914234,-1.6074677622599514,-4.382218637886252,-1.181992109458747,4.9668726744207765,-0.01910692206886596,2.0605066598126562,7.404285190821945,3.7534471336856257,-1.746542928720869,0.7373482521883311,1.4407836082783807,2.5684430609243165,1.9230583372847438,-2.1817645479166563,2.286384575762165,0.7199604206484989,-1.94636134791625,1.3025544760398127,2.341844451628989,-2.507875813129507,0.9669076294185992,-4.271275755799301,4.99549834568005,0.24156236875893858,-8.183936547450504,-0.4982506128205884,-1.7051962786380586,-0.7147309366624209,0.432487372099656,0.4103106017541726,6.2443600004352895,-5.864272144554515,-1.6669875589776635,1.2359587570642414,0.9856485085318879,6.31991461492588,-1.071511402836184,3.077781433999455,-2.6349383319025743,-0.39903267120588287,-3.09564749930499,-0.5129073049460687,3.096796518394836,-2.1817645479166563,1.5745772508367282,1.9954989383059513e-9,1.2733543938020147,0.9164029330129256,-3.4293040136831023,4.218451973143296,-1.7667134159065094,2.191399686425378,-3.242117194012173,2.5405950521456915,-0.2769546537117368,-1.9398592886621662,-0.32831868662442604,3.2569663387200594,-4.153440896552858,1.4576411457507443,2.812640844794486,-2.808651157933284,-0.45371037653532026,5.387740415444004,3.801875552670833,3.5940108464920875,-0.6469018311955305,-1.7998526602859208,-3.745748604806278,2.0453738971470496,-5.6295984643710755,-2.054130712578185,-1.8674810944987867,0.42566414803984326,0.9586087383832459,-1.1133696417476577,3.506801159046631,3.8584760679534207,-10.389163474505615,-0.4703237963131254,-1.8514900074560097,0.6418853828944923,5.390888389348836,-2.2901064305711976,-4.056506195627617,-4.111855338331332,-3.137185283297884,-2.2685290886554696,-1.6506094587518052,3.076902408783744,-3.1827931489697048,3.2569663387200594,3.5974685056864724,-5.276395226476044,-3.2877929252303617,-0.5790774419661185,-2.88204608596003,-0.9075707175939478,2.833556386571106,-1.1779292652741034,-2.4277816338352056,1.0669908338825782,-2.2822502314660382,1.8852969420077808,-2.6944317304777394,-2.263184803248399,-10.389163474505615,2.7826234385798294,-4.489870709467311,3.0779035378733663,1.895650101939668,2.1268978607268445,0.26216864159609987,-1.961936859831228,4.577374502190261,-2.29164746211565,4.240717864699142,-0.3788249610243215,-10.389163474505615,-2.8984337620952743,1.5264630106404133,2.9295154809041257,1.9304221942247783,1.5264630106404133
50565-2986S-6,S,2.763176558349841,1.3144472318036582,-0.11458213826757954,5.556329916526814,0.7534370662665152,-9.830158907050132,2.9537029263715753,2.852489609134623,-2.2715697417486735,-0.7201949730739802,-3.6612140075316826,0.512762588523916,5.148933197134863,0.09968914238379463,2.2295433536569287,8.095572238928337,4.126458518532308,-1.97369282762366,1.39661317562043,2.4994704169148254,1.370921571993917,0.863328761102252,-1.2852649883077858,2.0586477132501955,0.23518870555221624,-2.372565527906051,1.0494007170779958,-0.9528771767622205,-3.113694857692825,1.120126328750342,-4.192710356357509,4.960588628522988,1.115947855179336,-9.830158907050132,-0.9251924124870226,-1.6149904061364422,0.43667511205565634,1.4530885894034204,0.09160580321644275,7.001654561335717,-5.6639820981342615,-5.594279260369575,1.29300372046171,-1.5194053115280801,7.017664873773665,-0.5497251894597086,0.662488997653214,-2.1070508336117393,-0.8296239743857038,-4.346024564873936,0.53290636548171,3.507558028116956,-1.2852649883077858,0.4596693988716575,-0.05955271574299243,1.3097805640050808,1.5780999856513878,-2.9043952177372243,4.9600305001367575,-0.46192861047806383,0.7883431077600123,-3.5599224650275634,2.9018114583097128,-0.39639814557237996,-1.2976359051679867,-1.8696686555200488,3.8023654033956844,-3.2690714289662464,1.3528175843351613,3.24582288421681,-2.783481696981218,-0.7023569611031885,6.394380613142416,4.450882976773798,3.84658689536325,-0.33612637945813734,-0.9460770394790267,-3.0418987179967325,1.8967898671869798,-4.590998550238228,-2.1428407912264147,-2.6312423105195375,2.4297972297916433,-1.5929978840405568,-0.612187896087704,1.7869872447357176,4.125032661102674,-9.830158907050132,0.5727115194717108,-1.8439038378465853,2.071748997538807,6.404745613961907,-1.92883811931724,-3.7025684960268928,-4.319254809250873,-3.915872081472029,-1.9003356850065183,-1.2055652493175841,0.6642937866042933,-4.259772954282908,3.8023654033956844,3.8643778976771874,-4.14816871032173,-1.4538122586953257,0.12588271937781506,-2.2800529196669506,1.9954989383059513e-9,3.282366548055725,-0.46970153282023114,-2.8760085294592157,-4.2669899888607405,-0.8780520156264229,2.53842389255632,-2.5098346069855384,-1.317735310924138,-9.830158907050132,-1.610284909295111,-3.8797058073462836,0.6713158004390222,2.5926360401409196,1.9958558439603842,-0.7033828836063359,-0.7391450834872879,4.974398047356627,-1.5584316305564536,4.445808124475244,0.6290999093022692,-9.830158907050132,-2.595553122690766,0.4837785501743802,4.008381483600796,2.6576979842877715,0.4837785501743802
50631-2986S-1,S,2.929826442693454,1.0989243822768757,1.1610202372150589,5.486032314960183,0.6089057448947103,-9.069613120722481,2.9523095059932545,2.545797384984041,-1.6967851395250022,-0.6764237886701904,-3.295761040070807,0.2360846254628902,5.118020189016026,0.13377573679084068,2.259989140912446,7.798054962989902,3.9721173692996237,-2.2501113090641534,1.1089982640847227,2.34679040669898,2.0118930358325247,0.28880554919743534,-1.5190909949913938,1.7833648333837442,0.7572412720215028,-2.597721484722478,0.512574388431659,-1.1399508665113993,-3.285997079686709,0.9219214253907505,-4.61156350411111,4.8828564965024235,0.8918845540799164,-7.54028827341759,-1.0048714043249871,-1.7119572224740904,0.2139893095452643,1.443168808774618,0.1414637711475866,6.652339154725328,-6.4199431893535355,0.7192870031318198,1.1756567750321094,-1.4516038381998775,6.761425933817766,-0.8223785933075143,0.7495997082891143,-3.21268912490504,-0.16049657897542652,-4.411249127031857,0.5025791405353995,3.3337385572121474,-1.5074573263660815,0.696038245888958,-0.15103538831702945,1.3396312589174533,1.4080595815219479,-2.6596950634906458,4.516911101496288,-0.5250585974192421,2.6397560381049585,-3.4031929727752446,2.8557199578097396,-2.9394580821701095,-1.5625549031359034,-1.8213196423954647,4.002591857119918,-3.442293054215984,1.3048720457735439,3.031752010424802,-3.2786085137153185,-0.9766661767709393,6.007865149994377,4.386852131450037,3.770697621441512,-0.13272630819080483,-0.9799373531262001,-2.9475863705926506,2.1634282287881845,-4.964642461682008,-2.694691678469607,-2.68634833020639,1.7497308592083862,-1.4613385195259432,-0.4099584073852275,4.21920043089927,4.509878657502604,-7.943903728785464,-0.02702988051176834,-2.0635982405707956,1.782268173527026,6.007919685622713,-2.3543991566494626,-4.854170686360679,-4.916553128113751,-3.168124081567607,-2.3396997535235706,-0.9905639570198117,0.7544548742848779,-3.8958335966608666,4.002591857119918,3.637257551365652,-3.892467238630899,-2.9677037722441733,0.21967558634995887,-3.0636474323964022,1.9954989383059513e-9,3.0460309799942187,-0.5523124209840804,-2.541977231699765,-1.1377591965766116,-1.55812411004448,2.1915224444598214,-2.589464719841255,-1.5190909949913938,-7.943903728785464,-2.2935625712668006,-4.281976294833821,0.7542018068077417,2.2015946893635783,2.0819467719210794,-0.7666814201408356,-2.138787072027715,4.782050712927761,-2.2624269419087635,4.122426873830456,-1.0732877413220627,-7.943903728785464,-3.1788485872491345,0.6250588302347955,3.5756117244107193,2.2676598349573527,0.6250588302347955
