Sample,group,D-2-Hydroxyglutaric acid,D-Lactic acid,Oxoglutaric acid,Adenine,ADP,L-Arginine,Citrulline,Coenzyme A,L-Cystathionine,Cytidine,Deoxycytidine,Deoxyuridine,Glucosamine,Fumaric acid,Gluconic acid,L-Glutamic acid,L-Glutamine,Glycerol,Glycine,Guanine,L-Histidine,L-Leucine,L-Threonine,L-Valine,L-Lysine,Mannitol,L-Methionine,Orotic acid,Phosphoenolpyruvic acid,L-Proline,Glycerophosphocholine,Taurine,Myristic acid,Thiamine,4-Hydroxyproline,Uridine 5'-diphosphate,Uridine 5'-monophosphate,Uridine,3-Phosphoglyceric acid,Gamma-Aminobutyric acid,4-Trimethylammoniobutanoic acid,Acetyl-CoA,Alanyl-Glycine,L-Asparagine,L-Aspartic acid,Adenosine triphosphate,Citric acid,Dodecanoic acid,FAD,Guanosine diphosphate,Guanosine,Palmitic acid,L-Homoserine,L-Isoleucine,L-Tyrosine,Malic acid,N-Alpha-acetyllysine,N-Acetylornithine,N-Acetylglutamine,N-Acetylneuraminic acid,NAD,NADP,Ornithine,Oxalic acid,L-Serine,Glycerol 3-phosphate,Succinic acid,Thiamine pyrophosphate,Thymine,2-Ketobutyric acid,4-Hydroxycinnamic acid,5-Aminolevulinic acid,L-Alanine,3'-AMP,Betaine,Cytidine monophosphate,Deoxyadenosine monophosphate,dCMP,D-Fructose,dIMP,D-Ribose,Sorbitol,dUMP,Glycyl-glycine,Guanosine monophosphate,Maleic acid,Phosphate,Ribitol,Heptadecanoic acid,Caprylic acid,Acetoacetic acid,Beta-Alanine,Capric acid,Galactonolactone,D-Glucose,2'-Deoxyguanosine 5'-monophosphate,Caproic acid,Imidazoleacetic acid,Isocitric acid,L-Tryptophan,Methylmalonic acid,L-Phenylalanine,Uridine diphosphate-N-acetylglucosamine,Xanthine,Gluconolactone,Myo-inositol,NADH,Succinic acid semialdehyde,5-Hydroxy-L-tryptophan,"1,5-Anhydrosorbitol",Ureidopropionic acid,D-Alpha-aminobutyric acid,L-Arabinose,L-Allothreonine,L-Arabitol,Methionine sulfoxide,N-Acetyl-L-methionine,D-threo-Isocitric acid,3-Aminoisobutanoic acid,Itaconic acid,Acetylglycine,Glyceric acid,Glycolic acid,Malonic acid,Pyrrolidonecarboxylic acid,Threonic acid,D-Xylitol,Valeric acid,L-Alloisoleucine,N-Acetylglutamic acid,L-Alpha-aminobutyric acid,Beta-Leucine
50530-2900M-1,R,1.2030920814471402,1.5885351414375235,-1.2314362758502015,6.132987598425345,0.6542629105709745,-8.129111072994851,3.3386689025384833,0.16444638934391975,-2.7063030443206153,-3.7872269691152214,-7.787610643698414,-3.3306366517689394,4.923494703053787,0.8985025289824816,2.0089565950546624,7.792192873505994,4.746714836977258,-1.5890767749398378,1.3244977937589621,1.0881573671763678,0.5755425073768521,-0.3076852297970529,0.5354476762093335,0.33494672611759563,-3.5069887761985954,0.6030976292521246,2.0965856988499243,0.9635512067150495,-4.202133033199347,6.175191361464137,-3.6954449079968525,0.5766308968145802,0.45975734613181235,-1.0103567089587298,2.4884016254278114,-1.5477605068223408,-0.9227173102788604,-1.4133709118899087,-1.8318481258006207,6.589433650174925,-4.881404094363664,-1.4755506830405927,-0.777594384536682,2.0404173658282976,5.781596005534303,0.17404230551097571,-1.6551398985249015e-5,-0.8327831201804308,-0.9218029071530529,-4.5978816215144285,-1.9520413082839834,3.9003367232945214,0.549446524413801,-1.6807361747500345,0.47381169312847937,1.9212275209811214,5.803555025324946,7.92151408050348e-4,6.467748060213173,-5.5366442255115285,1.949704097243826,-2.0224809629876277,3.1494387028460817,0.2540555802881673,-1.9285849950675353,-9.162586460584523,2.158764415630891,-0.947281187641888,-0.8099625984384293,3.0857428261384277,-2.12040447784395,2.4884016254278114,5.443354802813599,2.6508412851707095,3.386458723433434,-2.7438671109949486,-1.7813294912335194,-6.5985203086064255,0.12822319693831097,-8.163951924899779,-1.0935965480587022,0.5860650831180038,-1.2903938307416203,2.0404173658282976,-2.208133442623009,1.6323261257284936,2.90528747562381,-3.3691725107140296,1.7630522853059059,-0.46058572708605267,0.47351531789102613,5.440190721915728,-0.8420388096421043,-2.296399798854748,-1.377973825053802,-4.24678827211834,-1.184029167596823,-0.020805140627799704,1.6562294439590183e-5,-5.725213419998916,2.17614457172059,2.9770846447038686,-2.931956231983729,-1.3403068312573554,-1.613375218260494,-2.030131263192966,-2.865772779852334,3.0833711207056362,-3.745071013150782,-4.924282400365035,-0.8609450342916171,1.803978446115778,-1.6139542882438118,0.44934601425348436,-3.3136516187645806,-0.8767976085137013,-0.8094816614022834,4.021446727349983e-5,2.0025050039858745,0.2650371857720023,4.901366603586499,-0.11168398251790078,5.578507566974317,-1.4083145123693186,4.340022189669699,1.457196003920896,-3.3136516187645806,-2.8501681448524754,-1.8400727697180193,3.3063150120350633,2.1123500451972705,-1.8400727697180193
50531-2900M-2,R,1.9883253765386704,0.4834971951284717,-0.47062630546247747,6.177644119386981,1.1129848897383097,-9.652239470210297,4.3713200222635225,0.9784182373325323,-1.855778995481539,-2.6941037961185965,-5.941553377711486,-1.6399522157790558,4.808276017781661,0.9363165951610627,3.0064227921472035,7.573469599251078,3.668577498665587,-2.0811421280279183,0.8313701269959399,0.34646892444399063,0.5474542367622492,0.4130011247480576,0.2830690879613243,0.18824040217172158,-0.7293345076756327,1.4419665047303614,1.922077403248275,2.518945575742132,-5.651752906542107,6.374900104374159,-5.562700367373245,-0.4297173998227563,-0.24744808283809372,0.7134126836480459,2.5933052297433874,-2.040541282800971,-1.3653239800143129,-1.7901968851364256,-2.5382688746315134,6.352783701846602,-3.894023894499557,-0.2579800524607789,-0.6754271265794848,2.945232188719551,6.0970150123009965,0.7810981142975132,0.5091309178005643,-2.0163124282508194,-0.09793412894046784,-3.5377992720130944,-2.8881089004122558,3.663266053990924,0.2830690879613243,-0.07624894815001239,-0.231763265156404,2.0143030026963755,5.181135433573051,0.6934531554980297,6.0479183987151455,-7.041220654832161,2.2455372316236764,-1.8302590766437454,4.38501784036173,-2.4770190247264705,-2.175957341662756,-9.652239470210297,2.041967648539365,-0.380711261872762,-1.827832078048724,3.0181385558894602,-3.0906845896555484,2.5730113805797257,5.775406665120777,3.009358157218267,3.2946010629053357,-4.007909291610404,-2.067340127304311,-6.804302397605712,1.019266236854218,-6.375726535184305,-1.4367370673231377,1.481117374082932,0.7064925494885312,2.9356610028347383,-2.30461704030953,3.3479845919603006,2.8685053187099205,-3.626320019019324,1.6946262357238502,-1.343931717115736,0.023478516357578572,5.774643643479299,-1.94988337289711,-2.1972649482073203,-2.481766556186906,-2.4975470873472467,-1.8575704593241715,0.4314055341935629,0.5091829326265674,-5.429702579918551,2.041967648539365,2.34861631265031,-2.5793487583375847,-6.004319400277692,-0.7931385307469464,-3.006449465937811,-2.868513428477772,3.0519496236392323,-1.8389122595817105,-5.650231194890003,-0.023866925943796403,2.409296457894844,-1.519634919141274,0.2520245176506884,-3.626320019019324,-1.951131930206615,-2.239687539565558,0.5091569254479832,2.4161901581833205,1.1545544822263865,4.191802863705717,-3.0262153215823377,5.270058324693542,-2.388693590168396,4.725928406631755,-0.9220536989383606,-3.626320019019324,-2.2738441304382326,-0.10615039645595511,3.8550346615459103,2.5127002156898035,-0.09975031758908444
50532-2900M-3,R,2.781264965781915,0.3857312153997007,-0.03356934106206229,5.211093933317391,1.1018717379920704,-7.432895639404326,4.974990108581442,1.4072303556779926,-0.7350618012898007,-3.3448962855795417,-5.499917062326668,-3.4288531589524247,4.813960490361616,1.2394341087671805,3.6190365952167696,7.707459068126554,2.9787563201867955,-2.07738220599197,0.9239358140600253,0.325734441485307,0.4277179333386329,0.5778927315828328,-0.09561717897693123,0.3530123216080337,-0.809883077203484,0.13283417300330455,1.815024158085895,1.9081798814214168,-4.669171006590083,6.832369221538272,-4.189231669638777,-1.0637373928830003,-0.8683897181303416,1.0174667655130278,2.781541253127569,-0.8933670980237374,-0.39024326044645,-1.6513242699371566,-0.9882233593462526,6.572721926762893,-3.6703575947593263,-0.7175172667616555,-0.4187377668761439,0.8699267499276783,6.629282915712675,-0.4640196803599515,-0.5268318758455763,-2.343007572898904,-0.11892629649638282,-3.3289772030514233,-3.180691128326869,2.68943241281181,-0.04666707112117868,0.37385153445878866,-0.4315466927633471,2.429189597402703,5.719228772528725,0.7732071443535233,6.357067580168634,-3.7642388410431833,2.3126856697227693,-2.1321320199880747,5.116848065890221,0.03280597291041516,-1.30946404687199,-5.83466007020866,2.8598504976364385,0.04149481015697306,-1.9810145252997229,3.208576082824883,-3.2035645238067625,2.7822847401272375,6.758228097150357,4.150048841597047,3.4195390458110486,-2.3707073268112873,-2.186662773417619,-3.8911713785371833,1.4856842342400018,-6.012307392477311,-1.3281637614650574,0.1962771510912579,0.32712488722196337,0.8699267499276783,-1.5750264496451194,3.6879548669912663,3.3090914724318057,-5.172896195003094,1.4464582502065613,-1.8262893369465796,0.5169532791013888,6.760321116835188,-2.346208380298603,-1.762548636726295,-2.287805510923636,-3.0546638244287982,-1.937961836038412,0.24766807920290537,-0.5325371887981993,-4.1398332373184275,2.8466992094819035,2.574702739230751,-1.9304730196270026,-2.1412771038204705,-0.1755478863642535,-1.8993884487425747,-0.8867990809037625,3.2357614098879868,-1.1405889581211246,-6.429911795634579,0.39068382937577983,2.2645947497434222,-1.3691717566217223,-0.09465876395455577,-5.172896195003094,-2.811425025300194,-1.5508487934660045,-0.5278396027064023,2.250023026477062,1.958078961982908,4.631740939083009,-0.6519748722232763,5.087569984968403,-1.1943541827309005,4.8766312741007525,0.7509603419743266,-5.172896195003094,-3.0015233759301525,0.34390752711575234,5.118722005464886,2.3308468787467147,0.34390752711575234
50533-2900M-4,R,1.9222746691500685,1.1516410259427945,-1.2052700128439389,6.351366648952254,0.15734845091463776,-8.507214501111902,2.727390187066705,0.26126026956681325,-1.9813063747694895,-2.5161705520095583,-5.501559541456284,0.23743580399932895,5.0705930983643714,-0.6763833264539358,2.8251573142522752,7.600935188281952,2.4281160116474982,-1.8539741377800463,0.6629400202870179,2.235727727532686,0.6726384471716477,-1.733556123459066,0.06524168432470231,-0.9547461177672087,-2.3922077475396804,4.164260313273848,2.107728482028887,0.5818154075289236,-3.480587663210076,5.890600848136812,-5.7738911759374005,1.7908652511273793,-0.023456116200765247,-1.9642541470746966,2.6024786562758924,-2.6122611615366513,0.4222972932441497,-1.0028923721320697,-0.5574485618270012,6.360281896984139,-4.02703839424907,-0.6787797237214269,-0.13462258390841894,1.8094803469012906,6.854483380568528,-0.532602330500813,0.09410901608928048,-1.4585915596797898,-0.4195638806449551,-3.1991673904622857,-1.366076285965988,3.1633227115743425,0.06524168432470231,-0.5923791666995125,-0.20611467596298844,0.38833665125455324,4.607105454685433,0.09280504357438381,5.725205590969927,-4.981155683155646,2.0971199415364694,-2.3716385621298057,-0.604181008895717,-0.20114265611176427,-1.7266772586849006,-1.9777058838309545,2.998133077277487,-2.090929114251151,-1.4628719694833434,3.0051315089144346,-2.9201477124797597,2.5866125387645855,6.23302137405711,4.181398782577867,3.566058856148527,-1.4885148917412052,1.239830932438069,-2.573284490958857,1.127912723078015,-6.699664322985341,-1.2055476484730923,4.1861913493102225,3.452422242808626,1.7977342579140303,-0.27571681285067995,1.8614298279967505,2.874174787385928,-1.7445749529389112,1.4498649958818806,-1.2126222172733916,-0.037587354929562104,6.227879655190245,-1.3094526419040988,-2.3588872804045207,-1.4232902886834917,-4.199288853749861,-1.454113046517918,1.1709242380343086,0.10270884910860327,-4.5695047155054125,2.998133077277487,1.182176237340834,-4.7983557401813135,-1.6123635668606147,-1.0504342411102912,-1.8185666802888758,0.3181789247102598,3.004731559378436,-2.5846145333842254,-4.718527936676967,-0.9361398308950899,1.8783806237854923,-1.5794181940878962,0.023080858083244754,-1.7445749529389112,-1.4121931302548805,-1.9742457563201703,0.10269950554152983,1.9219110907319086,1.0301348248894944,4.851230563395266,0.3072550864152551,5.209225481591262,-1.2299872432100125,4.7491220238198215,1.5283375919778577,-1.7445749529389112,-3.929237735777032,-0.6234803834321146,3.4668871916615878,1.9965294362805521,-0.6234803834321146
50534-2900M-5,R,1.2177792158483909,1.1360509192472468,-0.5088461977238801,6.032674491129966,0.5346167793785137,-8.552274108319613,3.062291167816022,0.23270738276078012,-1.7918915765697654,-3.7924532012437946,-5.730654651450179,-2.7707835733781163,4.7486794117398246,-0.5943500730079178,1.7669254111548265,7.7309512657534025,4.336746751114742,-1.6756270661410633,1.162558280925239,0.6228317548131636,0.5076912981558013,1.5583891620093555,0.6271248313675057,1.378519399427888,-1.9923489946812596,-0.9593483679237355,2.1501911825891953,-1.5689903225970674,-4.014361787515198,5.7950535238278,-5.007025596825365,-0.557878020752425,0.5886051994438015,-2.6990539116598655,2.240679274987574,-1.1184271650020081,-0.02864625799676515,-1.4016000537137594,-0.9210920234141414,6.510209886301013,-6.256262041233625,-0.6879617213823733,-0.7908419846831329,2.2678088388353905,7.018153575349748,-0.3281515853095925,0.057858409249921056,-1.0597115607757748,-0.6723728710985438,-4.037650491127185,-3.7317719682566453,3.5211964124078987,0.6271248313675057,0.9591837983756795,0.29513215461438885,0.6840197325633958,5.478934215264246,-0.6644838011392188,6.687156661142018,-5.026425277410569,2.144088529459517,-1.8427797280682545,2.70317322600571,0.541448954122238,-0.880869357206537,-1.9913582461939905,2.1718534554725,-1.841925342392022,-1.3023384526797177,2.85858796920903,-2.4250318569058336,2.2688661335366564,6.545616708658681,3.6655453706767176,3.2852629033887366,-2.323856982686515,-1.2822243798603656,-3.8996837838622054,0.6818227762844697,-6.452844589572022,-0.9755200876476663,-0.8744155520131172,0.33075635120553754,2.2269631635954084,-1.4694360901572854,2.0468513081311066,3.0224931578228413,-5.024661533826962,1.5738576421453085,-1.166155651439929,0.4273687420624192,6.545824365437152,-1.444137955229134,-2.4379235779067026,-1.721462373559672,-4.042044420156286,-1.6824936420334022,0.028088523351759556,0.05393414243581821,-3.975057408671872,2.170516518607413,2.5292693558272994,-4.953696502851761,-1.4412529372431115,-1.5934128805241137,-1.7474448094406492,-2.775942009312982,2.9008403295010305,-2.146778363938641,-6.436493985464128,-0.513456042653091,3.1614071906768406,-2.175600119353717,0.5701568050376353,-5.024661533826962,-2.431599640455514,-1.2963678262604057,0.057754362990300095,3.187565455906776,0.39807863414969435,4.223274795390573,-0.26371251436693427,5.362228869385777,-0.9748246008872729,4.896410469379924,1.1384388668524172,-5.024661533826962,-1.2944008046059368,0.8997470499181219,3.8583283842844263,3.2475533554444826,0.8997470499181219
50535-2900M-6,R,2.1921486194888096,1.2264330176212244,-0.8841323339182834,5.373367118620125,1.085581024877412,-6.6751328569645265,2.8799515186261875,1.2599067020077253,-1.1025148560493943,-3.348983567733561,-7.014732872423664,-0.5723328615512027,5.250127937325903,-0.507062830711447,2.7502813956209615,8.0096560617495,3.614196043887499,-1.9073398153582082,1.1847578607278502,1.3307776395597137,0.7710931302110846,-0.6681482172016077,0.003914203322233951,0.3038522094861324,-1.9230972533144048,-0.9158820351716439,1.7858300844510289,-0.6676545641735118,-2.4852140345833513,6.300800685395234,-3.897095823867302,0.6367174000647703,0.00569394735557526,-1.7364165808944156,2.7958878539391128,-1.2603056512673725,0.5531560302776191,-1.329547582312161,-0.28838563887292135,6.837953942426261,-3.978550983275784,0.10899726683809687,-0.38293805014308996,1.1891628741583655,7.232943786340236,-0.35393230146799665,0.8610587944367094,-1.247298700346808,-0.32758257687080866,-3.320617888524928,-1.9665928025979964,3.572027447176737,0.0025658080780319985,-0.6965390394922683,0.3366443592688744,0.7209178559713678,5.522529502147424,-0.002570368349195222,6.9791614121324415,-3.899551946470538,2.5226397680033226,-1.810891238022559,2.7294834290043792,1.7619905259961677,-1.197708807315201,-2.809643782884909,3.78811008366672,-1.3156711768424452,-2.2272471278637096,3.4176729002075366,-2.4907162612813942,2.785893051457746,6.956293868068552,4.184109497047659,3.928838776563457,-1.577636210459573,-0.303931309087715,-4.546090534219847,1.2464237882386975,-6.373179380138924,-1.360482644457014,-0.8375096909327178,3.328457423257999,1.1794156823303366,-0.5409046490120549,4.280773514621109,3.648831036153149,-5.236947888869084,1.7810060058521144,-1.6054573564786698,0.8913285731779484,6.956427620458347,-1.7547316215677753,-1.6090843693566272,-1.8724339803055392,-3.5833902631964833,-1.9647357981332985,1.334352493314195,0.8583501425349378,-4.493029990876297,3.78811008366672,2.0057079252041268,-3.607462860971471,-1.4531774889062443,-0.7112593004137974,-1.8400673351389072,0.5198442073121232,3.446811819089786,-1.2976505669367566,-5.411253896397446,0.03295712926968299,3.159868090675962,-1.1837202436276038,-0.02244794522233202,-5.236947888869084,-1.3132783307859104,-0.6507878680520162,0.8611061969689304,3.1610354037463946,1.3261864740231193,5.624706356740808,-0.13718834331085308,5.2661025216352755,-1.2751332535650255,5.374884719107854,1.5263763238153465,-5.236947888869084,-3.3481065153723613,-0.7300317162025964,4.624133714974823,3.2468710474205116,-0.7299261609522846
50536-2900S-1,S,2.7307544138427398,0.6813064322326411,-0.24560453460012988,6.400741081894866,0.5325588187364182,-6.231625273494158,2.7433703492465518,0.45830955747094676,-2.218198265041857,-2.1895357129251414,-7.7867356331517765,0.12450746929245991,5.399296785617501,1.9568387345794998,3.0599538344685935,8.293680469291763,5.438134800932014,-1.0998019314370935,1.9051464847390924,1.8351182348918844,3.0630249048614977,0.2752273103236879,-0.423773338453566,2.1717041018419563,0.4104790646934124,3.1699867383353317,2.3071628103769553,-2.2531245646322686,-2.364859323240596,4.213415820115926,-4.777850936695092,6.113219770878178,0.2788056012598491,-7.217139503809996,-0.6453521570852123,-3.1482992374313734,-1.4667214526453838,-0.4648121183587149,-0.1907138002679205,7.030174961518649,-7.036862493749047,-0.9267442403068243,0.13116635385682418,2.2146831696118117,6.49163373909369,-0.17552893909174394,1.0447011435623648,-2.275298156596234,0.17009027957791792,-4.033943344537973,-1.7066943409983597,4.078003720941615,-0.423773338453566,-0.8008038040307579,0.28370187011289544,3.0784709794114677,2.8350556962290394,-1.4453913726555294,5.90604704000176,-9.274949772479433,2.6189640632103477,-3.0824833810057473,2.2588049222254214,-0.4259464880656635,-1.0855259281849214,-9.274949772479433,2.9225361379187547,-4.047914514235531,0.15663941818408317,3.3575682246263514,-2.6167318218672384,-0.6256622250825192,5.389957812335452,2.874359934153639,3.921398303072989,-1.6946770876302097,-1.6539041088154027,-6.161364106231806,0.9998687410897064,-6.743632004415455,-1.008187183667932,3.1815663476675087,0.7624879771981892,2.207974518947369,-2.3751727302325545,2.457702799181334,3.8483525862613734,-7.9731023834278565,0.852383848600052,-0.7922470673757206,1.696005264587074,5.389414304047417,-1.7086378651692633,-3.5860646591835215,-3.637516567678224,-2.9770302182165245,-1.2126208601369695,-0.6842417680451908,1.0300526796156364,-4.614931853583727,2.9225361379187547,3.2406848495790586,-4.531213891729866,-7.503479165480575,0.14615306083628224,-3.0603436632582905,-0.1362763736461439,3.385739315900182,-2.9203208525106557,-3.6278569711741606,-2.94925833847596,2.7244793067775728,-1.5356875753575514,-0.5709212004249696,-9.274949772479433,-1.6406106976009762,-2.7772248562755877,1.045254574193622,2.7117297427327722,1.7975765378625437,0.16082132192745252,-1.3290794277125446,5.840968737876383,-0.8777658883601335,3.882714829628037,0.2902963171251311,-7.9731023834278565,-3.1448123147831755,-0.8481491516446308,3.5638355782940256,2.8479704124899956,-0.8481491516446308
50537-2900S-2,S,2.4583422231339354,0.17746272920226303,-0.8886786266508798,6.208051124129035,0.42757518462479926,-5.0307707146061595,1.2016905699128682,2.467508371231864,-1.9514084577377846,-2.020197594284355,-5.915427621287497,-0.32873882125952403,4.672405831769284,1.3389717859131587,3.062273832067384,7.404446686995166,3.990808872596316,-2.649106123739087,0.8606918104569444,1.1309945428181762,2.4745540264239128,0.6193862292525687,-2.065608072042325,1.956995897137247,0.3448565226327199,2.3596200061966845,1.7062417541484345,-3.0350396697690623,-3.6579138046859425,3.063068735847031,-4.532697640130042,4.888750108803891,0.7978160311154299,-8.174070560538048,-0.7077979363722883,-2.405173228793774,-2.0792326309253593,-0.6724639258974316,-0.7597779985971622,6.2612313374598525,-5.572802639858367,0.013542905071543659,-0.7360020867394976,0.5702076300078132,6.245912303645308,-0.17952958025029847,0.19767572154167556,-2.4370823319730013,0.5271667327735309,-4.196411628230715,-1.5655273762608541,3.5076884022212482,-2.0647820764989206,0.012266350589124326,-0.5624230431573639,2.3697268676590015,2.1619994555552506,-1.876209841483,5.420661708023872,-8.165868644397051,2.468058272508656,-2.5345501914233592,1.0376893353946592,-3.619518108517229,-2.230785773835755,-1.1161596868694295,1.8155628505316557,-3.983435205088936,-0.1318635273060952,3.1186209891609797,-3.3619588939810154,-0.5691817917446418,5.5274190546420545,3.27934089747705,3.2825614086516426,-2.3560926332178487,-3.0366416994106946,-6.457950900873972,1.284525270369653,-6.006415281259269,-1.4878212797828005,2.3624479868184505,0.688109390620319,0.5497278648776339,-2.6463135515846763,2.6275109100472545,3.428769114187219,-9.225231343373515,0.8351131168477447,-2.038672102741966,0.9487430771983161,5.52745787667158,-2.5288670642805466,-4.5987578459632905,-4.501021671928396,-2.792639048055945,-2.4148196351894913,-0.945537951934817,0.1975941038826302,-3.163387354695704,1.8325530919957727,2.8459650352053547,-4.128677113778891,-4.905956012530197,0.7623292627276699,-2.650996406964036,0.3484281379753299,3.1355061018079633,-3.914280292210496,-4.518543866265767,-2.402491929526514,2.085754878598405,-1.9704600938153862,-2.096933674791406,-9.225231343373515,-2.511649052481199,-3.494541842277883,0.1976153958910153,2.1034486964119767,1.5650192893993518,0.48032327214836557,-2.73091369715545,4.6192983903914175,-2.69862762176775,3.55299602825126,0.4728139826820604,-9.225231343373515,-3.428052277691682,5.542733182375471e-9,3.8638274437223066,2.192792275290078,5.542733182375471e-9
50538-2900S-3,S,3.8434436612372997,0.3935102697759407,0.9393798981487369,5.022543093798874,0.909096263256379,-6.875427058995078,3.1249951605108226,2.4612825054513614,-1.059962614987133,-2.205597802861617,-5.34454539001431,-3.5425194339000425,5.12398622431266,1.8163055837716535,3.0483578285290562,7.912867663765535,4.8422059031336095,-1.627949495869766,1.4841321679009183,0.7988877993069711,2.443360647349454,2.4414413398117576,-1.9856171724109681,2.924454705837322,0.9557938599491083,-0.26599100322150937,2.1442563219046824,-2.8372614614854563,-2.4091960628128115,5.933197462075892,-3.8072192139654573,5.6020477798604915,0.11258160834848586,-8.605832261112964,-0.2895466010662349,-1.7562652882092975,-0.8247786541318599,-0.33133042951488795,0.8172180706988801,6.801399084951934,-4.879536891211638,-0.02510972592578339,1.0506744866464826,0.1179970271011804,6.732093538088435,-0.580989562975203,0.13851201306530503,-1.7635325848723173,0.12639563661004605,-2.986618314073671,-2.128631553678265,3.0762474824919392,-1.9856171724109681,2.0547221026546554,-0.08646566028201848,2.9102092532753225,2.029992524526364,-1.1821785752629805,5.849399812905402,-5.458561185032745,2.8141449041626148,-2.4649742036094144,2.890101400259009,-2.01621030723153,-0.01068609098486132,-4.044650899276989,2.6401077813677323,-3.7855368042698094,-0.10638417957935974,3.543729601185467,-2.8524406908002216,0.010607531370853884,6.1440270016875,3.9677065492555896,3.832402947119743,-1.2526526937825402,-2.4855074325131024,-4.005424110201854,1.5456402114801908,-5.603851945695261,-1.0943783728378687,-0.19618703599236031,-0.5156556956816,0.07405182667781267,-1.9856280534884982,3.180654345565724,3.982908355816795,-8.757994712654275,0.22946560740563343,-1.0298114303795136,1.4469517890153198,6.145471733977786,-1.8053752553000324,-3.4696991364301004,-5.072296041988247,-2.8593427393228725,-1.6269647790767985,-1.9827582942937336,0.13835475681679943,-3.9909792859562887,2.6401077813677323,3.5129073896009473,-3.5312306444916177,-4.261845378671034,0.7068556727800552,-1.6761207847130648,-1.08815569960386,3.573753860699651,-2.0749391367836787,-2.5607710866599365,-1.976105924787003,3.209629567135311,-2.2604116885837473,-2.102614893792993,-8.757994712654275,-2.0231623153074194,-2.666049880935856,0.1410307679199214,3.2407140591527313,2.9579333149396634,1.0809220447677879,-1.5042157643657177,5.044660353911447,-2.329962035146103,4.203041215882237,0.7927218854463504,-8.757994712654275,-2.409166874714523,2.0517676401649823,4.492229945026298,3.287019034946699,2.0517676401649823
50539-2900S-4,S,2.7113388708072037,1.2817907618925675,-0.26488997387446,6.575884990081176,-0.2798168367496692,-7.2916974336363,3.491041286060051,2.601520481845696,-2.002364601220547,-1.3922440893602894,-4.103181038552686,-0.30721723092600567,5.221778196488134,-1.679747842307089,2.446731394712825,7.810318241177867,4.476527335745529,-1.7385809625040924,1.2933325272323866,2.8335885211466896,2.1241468604939686,-0.047680136430567836,-1.5378085409729205,1.8468078913597497,1.2585041079444903,0.49599756154735314,0.9295781041539556,0.6119511207849335,-1.9586097510742662,3.337376378164782,-4.769967631972742,5.4721141472576775,1.8471891968268344,-6.735643324325181,-0.5459862936310182,-2.3736368722682792,-0.015355074326004456,0.2322028830047784,1.5914612230982133,6.623693977102085,-5.640499150679441,0.007047146123625153,1.9927816108353023,0.9548803984845947,6.670318133356318,-0.83569392872111,0.39577462138501984,-2.2276691580475747,0.27906987973388925,-3.3263347407899198,-0.8333612809679889,3.9825439715456503,-1.5479050888956774,-0.13087810350645793,-0.0070817272871993705,-0.3647028049551326,3.139089860527698,-0.8736503499989412,5.243519539467863,-5.9837529822294835,2.7920649672056332,-2.653008271886936,3.5749643963693165,-2.9925961037544613,-1.8820316864410116,0.048942682942630544,3.1094391859844057,-3.4157583005808965,1.1531324226265849,3.1092639387301597,-2.7816556551563325,-0.45862622832919697,5.564930990664214,4.346186451045993,3.875795032045378,-0.10716962945563151,0.21464700104517004,-2.898011900268602,2.533971175391472,-5.125694790689362,-2.0921440949341257,0.5088631578993363,1.7702064050357025,0.9308243077798513,-0.8308105716133987,3.261192345765528,3.6728256988805574,-5.986105587065356,0.2761433842206291,-1.5768041474553243,1.911140646482006,5.5706544039998125,-2.1042545730599955,-3.19724649120573,-4.009268356542724,-3.6006654253896606,-1.9774816674059779,-1.115725737477083,0.39596619654225684,-3.8038835369081547,3.1094391859844057,2.4128385701061927,-6.116072880959487,-3.2738597560259652,1.5031291115631866,-3.1136167200040643,1.4560150864548365,3.12959686689147,-1.752710401212071,-2.980085504474428,-2.3126936182581526,2.447240860365795,-1.9856233019940694,-1.593321927836603,-5.986105587065356,-2.001227579235287,-3.8458431625181677,0.39579075501080135,2.4666210918095284,1.8096048613898597,-0.47078280373508485,-0.2164506870307329,5.001145434090614,-1.0618511307746643,3.7899041209040396,0.7544696489550281,-5.986105587065356,-3.7032712885680312,-0.1845719496155167,3.3063176965226675,2.5366445995966838,-0.1845719496155167
50540-2900S-5,S,3.172161657819138,1.307203366841655,-0.33218240732927695,6.513630585731097,0.49881772079800535,-8.097585039487766,2.353840618814896,2.552348935419186,-2.7717689529417493,-2.03667002018621,-6.1604031664304335,-3.599238017679945,5.382909294458127,-0.06217562647426314,2.477817591787381,8.22247464879786,4.946288530688024,-1.9155396900476405,1.735973016481976,1.9858886404467266,1.537878495885185,1.2274528840758907,-1.2134405364409662,2.615199917394378,0.652621901738033,-2.9547656750995515,2.205762543728077,-0.7109935017568674,-1.7362039816075487,5.082200236129459,-3.4463219524300976,5.9673407932343725,1.7648612352609603,-8.599745776607717,0.03170149952229023,-2.0981044778324485,-0.28563926925361804,-0.5307751764004263,1.299643470961661,7.143764218535821,-5.505468688174364,-0.13823491524594134,2.459307466015417,1.0946933704475377,7.009194342003921,-0.3797778763708078,0.3695028974145647,-1.3609406130463675,-0.9498490612257691,-3.8268280856962407,-2.357623166999623,3.9221691409257913,-1.1901318277195685,0.5225859266191505,0.9136484609341946,1.0493910616759394,2.3182850672399273,-1.3781638262442588,5.869765955556177,-5.173465844953612,2.1957921894923444,-2.729836811372442,-1.9729597539494763,-0.19433864550308497,-0.7148980481535476,-0.19575552027937138,2.7718449867642057,-3.626989484959066,0.9776476109888272,3.3150858591927714,-2.180617998918016,0.08244699147742274,6.2127510541836095,4.4231267251073145,4.121464537874384,-0.6390861220645683,-1.330503326267959,-3.8401353354401433,2.102371189874865,-7.6308789035941205,-1.5880011325486287,-3.2754343248288964,-0.9312369796022032,0.9619213299415929,-1.2428727421158126,2.1060113386293002,3.9227195648419952,-7.2627716163508165,0.5518225200678177,-0.7665899295389376,1.983354384309096,6.215938158869393,-1.171665029624293,-4.346870066480071,-4.142917042116504,-3.9081621833915974,-1.1787619738397364,-1.1632936337317454,0.36951360176609704,-3.982777422248354,2.7718449867642057,3.4229903828783117,-4.364352289256311,-1.2801291241799229,1.063556919003987,-1.689323390420179,-0.024469467509300825,3.34854847104806,-1.546398055469124,-2.6716919296391084,-1.637751428991905,3.2445990558017,-2.0633274342120176,-1.2134405364409662,-7.2627716163508165,-1.2658922169697502,-2.5417601870668642,0.36947078388342264,3.2431378015406462,2.3844236604405182,0.5554522515887915,0.024061365543779883,5.05812175051473,-1.4090653020670596,4.879865830001712,1.5835016411209917,-7.2627716163508165,-2.2034298763775575,0.4533999212775816,4.292099341279739,3.319235481123499,0.4533999212775816
50541-2900S-6,S,3.577221416929632,1.9621343376943647,1.5358853285918588,6.079781557333937,0.7705645136553039,-8.285933688513188,4.139103929444825,3.443906920710756,-0.9168029848356204,-1.0926979509567005,-3.451296439441823,-0.7492936032889937,5.668814450092415,-0.4706801182897284,2.5731423351439418,8.111743755173853,4.8831735883536975,-1.2461793298814188,1.6333182856047295,2.5376483574070003,3.1675466093119247,-0.30503547604428527,-1.7575276097562271,1.9060269479989862,1.5574302375475872,-2.3757794022451773,1.60449209050113,-1.570482545686372,-1.587751319106218,3.5347669588290795,-4.610606920702162,5.814902275443563,1.8489478297665964,-7.735331409271126,-0.5210138020790319,-2.1246763591673066,-0.27756718750515347,0.10677452447485403,1.5093639680069333,6.945582516909573,-5.819997943893117,1.5117122323844137,2.5176243705750894,0.14357792991916027,7.081000637850784,-0.2496632335869054,1.0230281202443217,-1.7264071672698489,1.4369406905723796,-3.2276776427564693,-1.5577392519299336,3.9399930984592135,-1.7575276097562271,-0.11531309666148738,0.4621250445391934,0.8644228973459206,3.0215856552147446,-0.4042089032058655,5.664719212677479,-4.009772210498189,3.3255841213436326,-1.9637979255951878,4.229562358222584,-2.291570280441276,-1.8156413252356864,-0.7174081002888374,4.648439837910759,-2.739857027469647,0.6151602386079258,3.536979558353685,-2.3816113179997687,-0.3382494501858162,6.097013794016524,4.1918066212255924,4.390504904727618,-0.4285815121324926,-0.9485683794296652,-3.184145151523857,2.2628764251978706,-5.568996833428731,-2.247424111572139,-2.269517648364293,1.4096640408104897,0.11356107434090809,-0.7459814869498553,3.7434262142504937,4.615403993127508,-6.738535651587906,0.9230442374124828,-1.4266591756162033,2.404774572630829,6.098467165830022,-1.7388818415280978,-3.1334009759368966,-4.806675397571079,-2.5753043438429803,-1.82491492905143,-1.174513588179759,1.0230373943580204,-3.2400595831616235,4.648439837910759,3.007409691311304,-3.652418243045649,-3.18663115169821,1.2474038440676067,-2.9225962559687173,1.2625419519890142,3.55963448343435,-1.2149129095993212,-1.3830198490041725,-1.9315793231208722,2.179795117235945,-1.4758824027213653,-1.8532577413599316,-6.738535651587906,-1.88930731071331,-2.967122094858312,1.0230497597502162,2.2610401177158783,2.708235419233878,0.17507944143580775,-1.2076761637932736,5.237581176882686,-1.1744852283090184,4.172423518289702,0.3475043550526868,-6.738535651587906,-3.2624918397017617,-0.18628130429523967,3.730444595735187,2.346464019815102,-0.18628130429523967
