cpd_name,LC_2900_FDR,LC_2819_FDR,LC_2947_FDR,LC_2760_FDR,LC_2986_FDR,logfc_LC_2947,logfc_LC_2760,logfc_LC_2819,logfc_LC_2986,logfc_LC_2900
4-Hydroxyproline,3.9481e-07,0.0027734,7.5923e-06,0.012893,4.3923999999999995e-05,-2.230676254710301,-1.0815748252404676,-2.451872773344021,-2.824179002859474,-3.030048197368807
5-Aminolevulinic acid,1.1474e-06,0.0036775999999999996,5.739e-06,0.01067,4.3923999999999995e-05,-2.1755272650103987,-1.0368189661363116,-2.3939829236672816,-2.726129842430771,-2.89728910706461
Acetylglycine,2.0016e-06,0.00052622,2.1329e-06,0.0014343,4.4263999999999995e-05,-4.212794471545111,-2.9217498006616074,-3.6593224694494255,-4.422932589991455,-4.407051098961459
N-Alpha-acetyllysine,3.1095e-05,0.039231999999999996,3.7967e-06,0.00013245,1.2118e-07,-4.329574879134123,-3.571025089600926,-2.755184529445821,-4.677323830908788,-2.8010800240384675
D-Glucose,0.00016362,0.0036775999999999996,2.6971e-05,0.0073279,0.00035076,-2.838463367773379,-2.324611181753399,-1.9547714365677267,-2.6380183914481243,-2.5008270905186887
Taurine,0.00020566,0.00015721,9.452999999999999e-06,2.1379e-06,0.00020488,4.994368035550028,4.334008712151482,5.156843912705644,4.746660360301477,5.484249023488272
Thiamine,0.00027573,0.00052622,0.23684000000000002,0.0016024999999999998,0.0012208,-2.939540099834086,-7.89176622599541,-7.685892826874473,-5.626665737848292,-6.898093489373067
Thymine,0.00099042,0.00015721,7.5575e-05,4.2441e-05,0.00020488,2.1282350999500474,2.652116706528732,2.7559621966691608,2.925832286227582,2.0459331225559354
Ureidopropionic acid,0.0010546,0.00017804,4.1008000000000004e-05,1.1142000000000001e-05,0.0012548,-1.967680373039581,-1.9433424366409555,-2.8000865721612858,-1.8065450222947235,-1.8831856146703794
Gluconolactone,0.0012198,0.00052622,0.0020894000000000004,0.0019750999999999996,0.0053234,1.2123190605113623,1.4311198531031766,1.2232192744811368,0.9643113260951492,1.894432654733114
Uridine,0.0015517,0.050778,0.00011974,0.6054,0.033894,1.397350395407372,0.21571917362171256,0.8886444751592983,1.2199764818495342,1.1547546387382754
Heptadecanoic acid,0.0015517,0.0018187000000000001,0.009097200000000001,0.01067,0.00052762,-0.8011573072858689,-1.0868263274729983,-1.3879001469872148,-1.3708026659623955,-1.0068154500935436
Thiamine pyrophosphate,0.0020268,0.00052622,0.023021,0.006446300000000001,0.0028094,-1.854036917717584,-2.8338936294332404,-2.861920630491101,-2.0316988594893113,-2.5107446772934328
Imidazoleacetic acid,0.0023449,0.007437699999999999,0.11631,0.24756999999999998,0.011979,-0.30406940060528176,-0.6142239191124107,-1.7865744162884432,-1.1426699649298624,-1.7096174501885435
L-Allothreonine,0.0026131,0.00052622,0.00011642,0.029081,9.130299999999999e-05,-2.109004011605602,-1.2586251134105437,-1.8662710216975569,-2.2241959718053677,-1.7679985767491724
L-Threonine,0.0029428,0.00052622,0.00011974,0.022869,9.130299999999999e-05,-2.1050836492565237,-1.320465967350004,-1.78886047863906,-2.2169069329834383,-1.7338259290475238
L-Homoserine,0.0029428,0.00052622,0.00011974,0.022869,9.130299999999999e-05,-2.088222484304907,-1.310468673178534,-1.785761960749765,-2.2323800031971293,-1.7417529964598524
Acetoacetic acid,0.0030994,0.073015,0.0067202,0.00011975,0.009667700000000001,0.8244240525281591,1.6178079975023825,1.216553432597086,1.071932907122299,1.3493187767603068
L-Histidine,0.0031931999999999998,0.04437,0.10442,0.0014343,0.0023034,1.1155997859181732,2.1300877739993807,1.084704606275149,1.3443845249131332,1.8847289985516125
L-Valine,0.0031931999999999998,0.6978300000000001,0.00011974,0.0059896,0.0020050999999999997,2.7882043562721197,2.353279297176704,0.3127445582333005,2.399481166732884,1.9695607534209125
Galactonolactone,0.0032604,0.064921,0.27626999999999996,0.032077999999999995,0.0041123999999999996,-0.5614795095785317,-1.0059195932876142,-1.3527672597952565,-1.1403731510074944,-1.6116550939572334
L-Lysine,0.0034978,0.0013031,0.00050059,0.025476,0.027137,2.5917091797716774,2.081626361272442,2.179289182174303,1.928052652029287,2.7555910085197346
Cytidine,0.0035441,0.014483000000000001,0.001982,0.68718,0.0094489,2.335094741487128,0.23836694966467303,1.119758724342137,1.7088700625703144,1.4244818668709933
N-Acetyl-L-methionine,0.0035441,0.21431,0.10362,0.73731,0.036744,-1.1277370328736733,0.19785394130444844,-0.8138840642029312,-1.7933932788533447,-1.6285204298110394
L-Arabitol,0.0035441,0.050778,0.032041,0.0014343,0.009667700000000001,-3.3773268305559707,-4.663245149565528,-3.6138830871563834,-3.9079506466304865,-3.8544227458482245
"1,5-Anhydrosorbitol",0.0035441,0.0036775999999999996,0.0068167,0.12251,0.0013994,1.756949374501941,1.2465437218461273,1.9544466468105495,2.6794094005383244,2.638122000368431
Ribitol,0.0035441,0.050778,0.032045,0.0014343,0.009667700000000001,-3.3277447920254746,-4.663245149565528,-3.5964742795842035,-3.8865829695215135,-3.6281946990147205
D-Xylitol,0.0035441,0.050778,0.036726,0.0014343,0.009667700000000001,-3.2214642157719036,-4.663245149565528,-3.6138830871563834,-3.9079506466304865,-3.6374481810062953
N-Acetylornithine,0.0053347,0.072091,2.1850999999999998e-05,0.00057538,0.0013994,-2.765048494305616,-1.2770324259932484,-1.3298000576793292,-2.3080700735280058,-1.3421676990326912
Phosphate,0.014525,0.12251,0.012328,0.034464,0.0013994,0.8755842518882764,0.7108614049568267,0.697115138219599,0.9107762558438925,0.8070993441646652
D-2-Hydroxyglutaric acid,0.020347999999999998,0.010865000000000001,0.028997000000000002,0.019489,0.0013994,0.9675661851521615,1.3983516229436757,2.008541030205416,1.5560961136432687,1.1980628859191593
3-Phosphoglyceric acid,0.020347999999999998,0.020286000000000002,0.023438,0.041019,0.012704,1.377785626710541,1.0879270033124382,1.9892425714512934,1.5073473802019808,1.8987435862988424
L-Proline,0.021359,0.024286000000000002,0.0080887,0.022869,0.032348,-3.526821652977343,-2.962305632137241,-2.626115809248851,-3.2200134701132925,-2.0341483589290403
Itaconic acid,0.024805,0.010955,0.023438,0.019088,0.0013994,1.0158683186901412,1.405724609777891,2.021740995963122,1.619595378941366,1.1817870867037017
Phosphoenolpyruvic acid,0.031424,0.041109,0.10599000000000001,0.11882000000000001,0.19687000000000002,0.8920467638762388,0.9052979049572096,2.1260293242784565,0.8347613938059331,1.7981143648521298
Coenzyme A,0.031434,0.064841,0.0046286999999999995,0.032077999999999995,0.024135,1.8975016408957837,2.0870047065646746,1.3223195687390108,1.7161181804588996,1.6134845725733409
N-Acetylglutamine,0.033854,0.032955,0.13738,0.58367,0.16909000000000002,-0.5306756060760547,0.2899567392663176,-1.1447450804765635,-0.8707204198845275,-0.7183574057847988
Pyrrolidonecarboxylic acid,0.036410000000000005,0.08819099999999999,0.57357,0.46348,0.12369000000000001,-0.14343301293814203,0.25937195403488333,-0.6762630214841638,-0.43625842855453456,-0.7470089232921362
NADP,0.038051,0.071864,0.011173,0.042057,0.016643,-0.8080612045790008,-0.5170861890937553,-0.7233613403550367,-0.9237557203703388,-0.5697448661755029
Myristic acid,0.066953,0.034401,0.011197,0.032077999999999995,0.033894,0.7150825202266934,0.6686009794000312,0.8173790246784438,0.5497050727853057,1.1225731544693613
Alanyl-Glycine,0.06955,0.0036775999999999996,0.40035,0.031998,0.87287,-0.422728819196473,1.3735225382277898,1.4807127376451017,0.06952335470926208,1.7659523496527618
L-Glutamine,0.06955,0.60178,0.026649000000000003,0.026358999999999997,0.018649000000000002,1.366343545902637,1.7806375082050474,0.39365176189274775,1.273860564561526,1.1340052614949694
Orotic acid,0.07281499999999999,0.40879,0.44513,0.032077999999999995,0.26033,-1.01281564235229,2.0809428510989285,0.8395347742675512,1.1227878053232065,-2.2551329678636725
D-Fructose,0.07281499999999999,0.032955,0.026720999999999998,0.022109,0.58077,0.553243108886591,0.8042232066915899,0.6015016098599284,0.14546377843081482,0.8399866762950072
NAD,0.07281499999999999,0.034137,0.82085,0.017166999999999998,0.81877,-0.23490614730529646,0.7224704969750071,0.5492284241748147,0.11249325342695737,0.4904722133889421
Cytidine monophosphate,0.073386,0.09645,0.10197,0.011479000000000001,0.0095161,1.3020948860820516,1.7979055271955575,1.3515903623087968,2.2214606678983544,1.3390386893367738
L-Phenylalanine,0.075614,0.39958,0.014841,0.19030999999999998,0.037027,1.2729521304453346,0.6714306872363522,-0.5519633258594876,0.7411295728370773,0.8042064506206632
4-Trimethylammoniobutanoic acid,0.075614,0.064921,0.32213,0.44816999999999996,0.077164,-0.500552331571881,-0.5547311232467491,-2.4974527276679863,-0.8430199558815348,-1.291255134197491
L-Tryptophan,0.080542,0.12251,0.032041,0.10343,0.86039,2.9652098564832894,1.1540908728820676,1.4161000081053352,-0.0850771274617137,0.9227203859559379
Glycine,0.080542,0.83606,0.23156,0.032077999999999995,0.20290999999999998,0.2649538616304069,0.6315857352906069,-0.0665141461233889,0.2959649890132121,0.4704223992768357
Oxalic acid,0.097211,0.9452,0.044884,0.26852,0.33157,-2.6920437819755945,-1.5198276162207471,-0.08063909534540192,-1.0223756417029082,-1.908719880998666
Glycyl-glycine,0.10450999999999999,0.04437,0.011173,0.032077999999999995,0.0056566,-2.2471345331246964,-1.7803696005128802,-0.9351340453178691,-2.3654132751880383,-1.035342883310887
Betaine,0.10922,0.31466,0.10967,0.011479000000000001,0.10775,0.32994727487762265,0.6155627105582471,0.23699076381230677,0.25794172666829596,0.42389462754020313
L-Asparagine,0.11331,0.04437,0.011122,0.032077999999999995,0.0057291,-2.237810130449242,-1.7659826714070914,-0.9383214761901544,-2.327093538198396,-1.004331473133079
Uridine 5'-diphosphate,0.11653,0.12251,0.16657,0.88066,0.38251999999999997,-0.500943235331166,-0.09214437087544813,-1.2186251540085027,-0.3607643825650868,-0.7389154330415664
NADH,0.12618,0.050778,0.37285999999999997,0.082388,0.0018215999999999998,0.6232967107856371,2.373141750079784,1.9034409733440187,1.5719415228904468,1.7295146336973906
Succinic acid semialdehyde,0.14503,0.49606000000000006,0.13858,0.08146,0.6049100000000001,0.2902897440775125,0.7078350869724965,-0.2869385358827481,0.1655162235824985,0.2348855395965943
2-Ketobutyric acid,0.14545,0.48781,0.14717,0.079153,0.62268,0.288601177741147,0.7187452748442489,-0.3016630554704083,0.1582657731308661,0.23123305467760735
Guanine,0.17310999999999999,0.51831,0.4328,0.26387,0.44946,0.3673493685358784,0.5425200530103766,0.41129739951278355,0.4641695521779301,0.8620713735010367
Oxoglutaric acid,0.17814000000000002,0.025941000000000002,0.75255,0.14027,0.20861,0.19868101556033257,0.740625243001047,1.396897850404562,0.802769714936056,0.8462983585244488
FAD,0.17995999999999998,0.8672700000000001,0.63116,0.08146,0.81103,0.26883113803631786,0.6639161252761386,0.07592389430508058,0.1304664812558048,0.6913328032077009
Glucosamine,0.18416,0.67762,0.32816,0.0586,0.59487,0.18294723611678698,0.3803433038319852,0.10755807346144408,0.1344161976850371,0.3090098540184929
Guanosine,0.18452000000000002,0.032955,0.028997000000000002,0.12251,0.010312,2.446478581329864,0.6162892806442141,1.1621444752681154,1.386355773667552,0.8226175705014522
L-Arginine,0.20194,0.51837,0.07499299999999999,0.6271,0.63543,1.9966490810194832,0.8478424105278703,0.7345534635589939,0.7183273773021908,1.1893047400454781
Acetyl-CoA,0.22366,0.34994000000000003,0.066724,0.92551,0.62268,0.9071972347193943,0.07515154910617317,0.6224979264266527,-0.7027673397953565,0.6918342637716273
Gamma-Aminobutyric acid,0.23459000000000002,0.6572,0.84088,0.08146,0.33157,0.036008538349661556,0.46017434109633637,-0.13153600644128627,0.22425371371178926,0.2637435153303471
L-Arabinose,0.25409,0.15592999999999999,0.18612,0.39057,0.037027,-0.34906735096047736,-0.278009274064559,-0.4687249985599813,-0.482623143709092,-0.30831549593468544
L-Alanine,0.26482,0.13903,0.16657,0.6482899999999999,0.2961,-0.46114671358662207,0.20654252513545668,-0.7841645143384479,-0.3252735865804075,-0.46263696805662136
Dodecanoic acid,0.26482,0.28656,0.045964,0.18427000000000002,0.017263999999999998,-0.7966206955076436,-0.591144922161257,-0.6362748682874606,-0.840871634157373,-0.47220417827880334
Beta-Alanine,0.26533,0.13903,0.16657,0.6482899999999999,0.28265,-0.46127397462424913,0.20549493425162968,-0.781404913979661,-0.33999311731998105,-0.4596472466533248
D-Ribose,0.28588,0.81533,0.14262,0.6271,0.038223,-0.4999070567435626,-0.24802054269196971,-0.08479155913756564,-0.6737834141275603,-0.352984736319804
Xanthine,0.28588,0.17002,0.5884699999999999,0.24756999999999998,0.74544,-0.6936432988065913,-1.2530871979854188,1.469868593381928,0.4197323937946251,-1.7365338767034024
L-Glutamic acid,0.31178,0.50033,0.84088,0.11550999999999999,0.63545,-0.03603765488218613,0.384593010258663,-0.1827590541473807,0.1089034549139889,0.22347790142226032
Uridine diphosphate-N-acetylglucosamine,0.31178,0.025941000000000002,0.0029448,0.032077999999999995,0.0013994,-6.7639915992864275,-2.9305866831909793,-3.9975046134426764,-3.7330317580773045,-0.9204453248848261
Citric acid,0.31843,0.34817,0.74824,0.95515,0.8858799999999999,-0.18326971928620567,-0.03506162078121411,0.6741418043364997,0.12732125211397394,0.3623143011468897
D-threo-Isocitric acid,0.31843,0.34817,0.74824,0.95515,0.8858799999999999,-0.1830172464410792,-0.03448504453572554,0.6731236549622488,0.12377863089682917,0.36154907232323064
Isocitric acid,0.31843,0.34817,0.75255,0.95515,0.8858799999999999,-0.1710283923089987,-0.03109225262503701,0.6773995790692795,0.12459221177400259,0.3604772154632122
Palmitic acid,0.31843,0.60838,0.16657,0.6271,0.26033,-0.2795509415021411,0.13350609622730536,-0.15279160038257933,-0.33323641480991206,0.332844009221537
Myo-inositol,0.33475,0.50033,0.62492,0.61005,0.8942899999999999,-0.21723324950980327,-0.32600556265302805,0.24184464147650608,0.06861106626725011,-0.46182486976442805
N-Acetylneuraminic acid,0.33735,0.024286000000000002,0.063961,0.76367,0.035414999999999995,2.644154395351271,0.6497473412201629,3.1718056096848435,3.5133314453896984,-1.3028556685278154
2'-Deoxyguanosine 5'-monophosphate,0.33735,0.90186,0.82085,0.6271,0.60165,0.1746757977883009,0.25334978381880857,-0.12676782557276578,-0.338000794111347,0.485096460462906
Glycerol 3-phosphate,0.35651,0.12339000000000001,0.16657,0.08146,0.065834,2.9249936583197718,4.4511067774612965,3.6376540564586137,3.685756711965361,2.6880354362769845
Citrulline,0.35911,0.050778,0.77904,0.19055,0.8372200000000001,-0.1631286473067699,1.0202480755554428,-1.3669129909499491,0.10296744730360219,-0.716761665483725
ADP,0.36008,0.064841,0.06377200000000001,0.6271,0.035414999999999995,-0.5848635148500018,-0.19358498154141346,-0.9331872024865511,-0.7515669893381127,-0.2979783548584468
Uridine 5'-monophosphate,0.40579,0.26725,0.57357,0.24756999999999998,0.4221,-0.24445274252848986,-0.3966477789272918,-0.6591429137654956,-0.4405567713978994,-0.5363027972621268
Adenosine triphosphate,0.40634000000000003,0.011712,0.48211000000000004,0.33059,0.013563,-0.30204355906597813,-0.4365298307438221,-1.0094946923598223,-1.1092100029346312,-0.2796029405277006
L-Leucine,0.40634000000000003,0.31578,0.012328,0.12065,0.072953,2.413632797470267,1.2757522727516664,-1.0035341290709912,1.5540558099884962,0.7284831171844222
dIMP,0.40986999999999996,0.6291,0.031916,0.041063,0.15441,1.878882633020467,1.0111615892240797,0.45579332626356006,0.9496848226918573,0.566367397695914
Deoxycytidine,0.47243999999999997,0.071504,0.028187,0.11550999999999999,0.0082632,2.11676928603754,1.8691571641381146,2.331334147766658,3.029836015794735,0.7857398100313606
L-Alloisoleucine,0.49622,0.74863,0.0064897999999999996,0.022951,0.035331,2.6581668032557957,2.1748752555904565,0.24261631148051088,1.7876189299534202,0.5570409750341203
L-Isoleucine,0.49622,0.75921,0.007690300000000001,0.024373,0.036427,2.522697704691689,2.1325907173602685,0.23225125915063205,1.7135531394551704,0.542574561986931
Beta-Leucine,0.49622,0.74832,0.007024600000000001,0.024373,0.035331,2.619584524250524,2.136888848495942,0.25231364588438976,1.770536341168847,0.5559567026812565
Glycolic acid,0.55776,0.052458000000000005,0.01605,0.26396,0.018861000000000003,-0.5354545178841992,-0.3613892964994303,-0.6736533116912913,-0.7894996210505862,-0.1619861509302165
Glycerophosphocholine,0.5857899999999999,0.34817,0.00015055,0.049174,0.050499,-2.276928718551799,1.219104655526758,0.9034673793657717,0.8235518953456662,0.36345420762389136
Adenine,0.5857899999999999,0.74832,0.99721,0.12452,0.91456,-0.0009236961981979874,0.6563051841776435,0.11082413054991758,-0.021045313123255305,0.25358308718948663
Capric acid,0.5857899999999999,0.039231999999999996,0.0080887,0.21539,0.0029774999999999997,-0.8058998167502749,-0.5348739451468258,-1.113492290737911,-0.8397154541773999,-0.23520480790390064
Glyceric acid,0.5983,0.21609,0.32548,0.070396,0.81877,-0.8383212808144933,-1.2629768698169204,0.8515490064637453,-0.21822048678939243,-0.5134590711546486
Ornithine,0.63646,0.064841,0.9719399999999999,0.13132,0.60165,-0.023976498965138315,1.1994275987757563,-1.3661371182565933,0.2846745964707642,-0.9102695994484824
L-Methionine,0.65177,0.74366,0.10197,0.96935,0.064208,-0.5670972363805697,-0.02107518497496441,-0.14329465753134896,-0.7094633930466072,-0.16332389740666176
dUMP,0.66702,0.44168999999999997,0.75255,0.7945300000000001,0.2961,-0.2356395184706972,-0.35018850534312573,-0.9538717450651566,-1.427534142438478,-0.61188074747669
Methylmalonic acid,0.66702,0.17831,0.44577,0.12513,0.54285,0.39360692897726324,0.6158061884897772,1.1717001272152459,0.42620554824614043,0.3172249854413587
Succinic acid,0.66702,0.17905,0.44513,0.12528,0.54285,0.39745772716955186,0.6137403388103135,1.1667501890913035,0.42620554824614043,0.31487526704235247
Deoxyadenosine monophosphate,0.66702,0.6532399999999999,0.23156,0.39543,0.39826,-0.6608313729503816,-0.6363749070647621,-0.44911795387082054,-0.624317861587275,-0.4764701328210321
D-Alpha-aminobutyric acid,0.6853,0.35081,0.015143,0.044737,0.58568,0.9301964704967733,0.9866618126701272,-0.5916347738774275,0.3157009948927425,0.20232887117039855
Glycerol,0.68635,0.034401,0.23684000000000002,0.6008100000000001,0.11703,-0.29722203126302027,-0.2210019955302247,-0.9024396617821453,-0.45215267833919914,0.15123076579332406
L-Serine,0.68635,0.9474100000000001,0.031194,0.61005,0.9656600000000001,-1.172104584562636,0.22171578370391565,-0.03770505146120806,-0.014126635379475783,0.24661549232885616
L-Alpha-aminobutyric acid,0.6877300000000001,0.31265,0.023750999999999998,0.059255999999999996,0.70515,0.7892875931414818,0.8430358129599587,-0.6103946038213073,0.2043453125830994,0.1805458074137869
3-Aminoisobutanoic acid,0.6877300000000001,0.34817,0.023750999999999998,0.03895,0.66735,0.8175243347421088,0.9378247238050579,-0.5880922666915294,0.23295360102913154,0.1812435617220327
Sorbitol,0.7026,0.31265,0.57357,0.10897000000000001,0.4221,-0.9586019440249565,-2.6437609044334263,-1.5044536059897464,-1.5219477985642922,-0.7376645385761393
Deoxyuridine,0.70509,0.94799,0.049056999999999996,0.8258,0.74544,0.7274205792604385,0.2573427090382796,-0.041743563188618965,-0.48568041913149373,0.5171038366113936
3'-AMP,0.70509,0.74366,0.77105,0.46348,0.9448799999999999,0.1086285698782925,0.3963365239870389,-0.17930687910755294,0.022954603769798965,0.20687087399615178
Valeric acid,0.70591,0.060738,0.50026,0.92961,0.81877,0.2537832712636776,-0.08456782885625325,-1.2436883678980282,0.1840305112422298,-0.2423239608100891
Mannitol,0.71128,0.30329,0.57357,0.10690999999999999,0.4221,-0.9961575223907235,-2.59375506020465,-1.8763637011485552,-1.495316447623219,-0.6729766652751878
Guanosine monophosphate,0.72007,0.21431,0.8544299999999999,0.6206699999999999,0.67638,-0.08566348781380895,-0.24539096344991562,-0.6966731306186053,-0.24081740058835288,-0.2421574418978527
L-Tyrosine,0.7221,0.83606,0.5098699999999999,0.55879,0.2463,0.2450618645468436,0.38820852161257174,0.07163045118724276,-0.36623762015507305,0.1278902286217831
Malonic acid,0.7221,0.21431,0.11185,0.44816999999999996,0.24486999999999998,-0.8402258029592171,0.35041888665137877,0.7558863034893666,-0.45297145431757135,-0.18007497058230038
N-Acetylglutamic acid,0.72349,0.48781,0.015791,0.5526800000000001,0.8947700000000001,-0.8130950632676144,0.38355545678267333,-0.46021733224315664,0.05082510408722296,-0.1634443948977462
Threonic acid,0.72455,0.31265,0.27176,0.041019,0.67773,-0.7661055882625585,-1.4754654675000298,0.5556100489102387,-0.3241660658485754,-0.20632459987003915
Malic acid,0.74038,0.6789,0.16657,0.79275,0.77749,-0.976886298674496,-0.26673736698739603,0.49821532823600556,-0.2809193495696627,0.29158731559050044
L-Aspartic acid,0.77451,0.50052,0.9476600000000001,0.12065,0.74544,-0.024727870589488,0.6188589148953918,-0.36287468741977236,0.08642900208571191,0.10277966970532848
Fumaric acid,0.77451,0.77252,0.16657,0.79275,0.7834399999999999,-1.053320383997446,-0.2723946413117795,0.3577960772613178,-0.28971427906752145,0.26717591907596805
Gluconic acid,0.77451,0.050778,0.32816,0.96935,0.0064653,-0.48504548489727783,-0.014918743466641349,-1.0558131063467981,-1.0905093473175058,0.11524945221041394
dCMP,0.81104,0.25705,0.47633000000000003,0.54269,0.10290999999999999,0.8935014790739508,0.7879184998652597,1.7555739617809003,1.6050950136322992,0.2943368982083321
L-Cystathionine,0.81398,0.31265,0.0035556999999999993,0.9733200000000001,0.33005,2.9668291341834125,-0.018081908944812763,-0.5317175285439599,0.5556683236546363,-0.12460820471401468
Methionine sulfoxide,0.84691,0.50033,0.57357,0.30548000000000003,0.8256899999999999,0.6943964841790513,-0.5007183997962736,-0.3583190153852409,0.30444386405214297,-0.08923725113185377
Guanosine diphosphate,0.85601,0.95144,0.0002835,0.68718,0.8734,-1.266329360961251,-0.27207042998614517,0.04001479407027553,0.091637149183601,0.0707133517680596
5-Hydroxy-L-tryptophan,0.8811399999999999,0.83606,0.023438,0.33077,0.014303999999999999,1.718133221024577,0.7537086471669896,0.1781946923960387,2.5481382554435523,-0.11165765877868461
Maleic acid,0.8977299999999999,0.94585,0.14240999999999998,0.08146,0.4221,0.9180545692798074,0.955234157868524,0.040440064832246936,0.5322371625295372,0.08652961966843487
Caproic acid,0.9347700000000001,0.25705,0.026720999999999998,0.08146,0.023225,-0.7546144603076956,-0.7835622621713825,-0.5367303341507008,-0.7431197304238659,-0.025776649176062927
D-Lactic acid,0.94899,0.74832,0.48876000000000003,0.61228,0.86039,-0.18520244980977685,0.16474256779797491,0.11952917318358391,0.059128896744573,-0.02808010285625473
4-Hydroxycinnamic acid,0.96685,0.9452,0.6333,0.75655,0.098972,0.16279710816322135,0.18892704807852168,0.026688173809497506,-0.4468790710877051,0.012588840541775781
Caprylic acid,0.9927,0.079591,0.0097721,0.19055,0.023606,-0.8248571760295913,-0.509391632842318,-0.9135262066818849,-0.7926382786705848,-0.0026236411278843796
2-Isopropylmalic acid,,0.40862,0.0020894000000000004,0.2855,0.0041123999999999996,7.9910262167293755,3.127247379243137,2.04805291677898,6.321040834592676,
