Code,Organism,Strain,Type of Experiment
B36,Escherichia coli,B36,Proteomics MS1 DDA
MS14384,Escherichia coli,MS14384,Proteomics MS1 DDA
MS14385,Escherichia coli,MS14385,Proteomics MS1 DDA
MS14386,Escherichia coli,MS14386,Proteomics MS1 DDA
MS14387,Escherichia coli,MS14387,Proteomics MS1 DDA
AJ218,Klebsiella pneumoniae,AJ218,Proteomics MS1 DDA
KPC2,Klebsiella pneumoniae,KPC2,Proteomics MS1 DDA
03-311-0071,Klebsiella variicola,03-311-0071,Proteomics MS1 DDA
04153260899A,Klebsiella variicola,04153260899A,Proteomics MS1 DDA
AJ055,Klebsiella variicola,AJ055,Proteomics MS1 DDA
AJ292,Klebsiella variicola,AJ292,Proteomics MS1 DDA
BPH2760,Staphylococcus aureus,BPH2760,Proteomics MS1 DDA
BPH2819,Staphylococcus aureus,BPH2819,Proteomics MS1 DDA
BPH2900,Staphylococcus aureus,BPH2900,Proteomics MS1 DDA
BPH2947,Staphylococcus aureus,BPH2947,Proteomics MS1 DDA
BPH2986,Staphylococcus aureus,BPH2986,Proteomics MS1 DDA
15,Streptococcus pneumoniae,180/15,Proteomics MS1 DDA
2,Streptococcus pneumoniae,180/2,Proteomics MS1 DDA
4496,Streptococcus pneumoniae,4496,Proteomics MS1 DDA
4559,Streptococcus pneumoniae,4559,Proteomics MS1 DDA
947,Streptococcus pneumoniae,947,Proteomics MS1 DDA
5448,Streptococcus pyogenes,5448,Proteomics MS1 DDA
HKU419,Streptococcus pyogenes,HKU419,Proteomics MS1 DDA
PS003,Streptococcus pyogenes,PS003,Proteomics MS1 DDA
PS006,Streptococcus pyogenes,PS006,Proteomics MS1 DDA
SP444,Streptococcus pyogenes,SP444,Proteomics MS1 DDA
